{"componentChunkName":"component---themes-amaranth-src-gatsby-theme-advanced-templates-feed-index-tsx","path":"/category/应用项目","result":{"pageContext":{"totalCount":32,"pageCount":7,"pageIndex":0,"feedType":"category","feedId":"应用项目","feedPageMeta":{"current":0,"next":1,"nextCount":5,"posts":[{"title":"秒聊","description":"秒聊是附近陌生人交友APP","coverImg":{"layout":"constrained","placeholder":{"fallback":"data:image/jpeg;base64,/9j/2wBDABALDA4MChAODQ4SERATGCgaGBYWGDEjJR0oOjM9PDkzODdASFxOQERXRTc4UG1RV19iZ2hnPk1xeXBkeFxlZ2P/2wBDARESEhgVGC8aGi9jQjhCY2NjY2NjY2NjY2NjY2NjY2NjY2NjY2NjY2NjY2NjY2NjY2NjY2NjY2NjY2NjY2NjY2P/wgARCAAKABQDASIAAhEBAxEB/8QAFgABAQEAAAAAAAAAAAAAAAAABAAD/8QAFgEBAQEAAAAAAAAAAAAAAAAABAED/9oADAMBAAIQAxAAAAFpGmVoW0kT/8QAFxABAQEBAAAAAAAAAAAAAAAAAQIQIf/aAAgBAQABBQJOVLJl5//EABURAQEAAAAAAAAAAAAAAAAAAAEQ/9oACAEDAQE/ASf/xAAWEQADAAAAAAAAAAAAAAAAAAACEDH/2gAIAQIBAT8BGr//xAAWEAADAAAAAAAAAAAAAAAAAAAAICH/2gAIAQEABj8CKv8A/8QAGhABAAIDAQAAAAAAAAAAAAAAAQARECFBUf/aAAgBAQABPyGyClGvXHIldsZ//9oADAMBAAIAAwAAABBvH//EABcRAAMBAAAAAAAAAAAAAAAAAAABMUH/2gAIAQMBAT8QXB0//8QAFhEAAwAAAAAAAAAAAAAAAAAAAAER/9oACAECAQE/EGqFP//EABkQAQADAQEAAAAAAAAAAAAAAAEAETEhQf/aAAgBAQABPxBkDXkERCwDX2K3GKQiDwWAvJ//2Q=="},"backgroundColor":"transparent","images":{"fallback":{"src":"/leon-blog/static/5161908bbf11a18163ab53c3ac14a899/b8370/cover.jpg","srcSet":"/leon-blog/static/5161908bbf11a18163ab53c3ac14a899/fd641/cover.jpg 183w,\n/leon-blog/static/5161908bbf11a18163ab53c3ac14a899/a7075/cover.jpg 365w,\n/leon-blog/static/5161908bbf11a18163ab53c3ac14a899/b8370/cover.jpg 730w","sizes":"(min-width: 730px) 730px, 100vw"},"sources":[{"srcSet":"/leon-blog/static/5161908bbf11a18163ab53c3ac14a899/bd419/cover.avif 183w,\n/leon-blog/static/5161908bbf11a18163ab53c3ac14a899/474b1/cover.avif 365w,\n/leon-blog/static/5161908bbf11a18163ab53c3ac14a899/a15e0/cover.avif 730w","type":"image/avif","sizes":"(min-width: 730px) 730px, 100vw"},{"srcSet":"/leon-blog/static/5161908bbf11a18163ab53c3ac14a899/1be9d/cover.webp 183w,\n/leon-blog/static/5161908bbf11a18163ab53c3ac14a899/0eba5/cover.webp 365w,\n/leon-blog/static/5161908bbf11a18163ab53c3ac14a899/6127a/cover.webp 730w","type":"image/webp","sizes":"(min-width: 730px) 730px, 100vw"}]},"width":730,"height":366},"coverImageAlt":"封面","datePublished":"2023-12-29T10:07:49.000Z","dateModified":"2023-12-29T10:07:49.000Z","category":"应用项目","tags":["Android端","Uniapp","跨平台"],"excerpt":"秒聊 主打附近陌生人聊天交友。秒聊牵线能为你智能推荐最匹配你的异性，同城交友秒连接。 APP下载： http://miaoliao.siyisea.com/appdl/index.html…","timeToRead":1,"slug":"/秒聊","route":"/秒聊","pathName":"/leon-blog/秒聊","url":"https://miss2mess.github.io/leon-blog/秒聊"},{"title":"秒聊-H5页","description":"秒聊H5页包含微信分享、微信邀请、app下载、帮助与问答、在线客服等页面","coverImg":{"layout":"constrained","placeholder":{"fallback":"data:image/jpeg;base64,/9j/2wBDABALDA4MChAODQ4SERATGCgaGBYWGDEjJR0oOjM9PDkzODdASFxOQERXRTc4UG1RV19iZ2hnPk1xeXBkeFxlZ2P/2wBDARESEhgVGC8aGi9jQjhCY2NjY2NjY2NjY2NjY2NjY2NjY2NjY2NjY2NjY2NjY2NjY2NjY2NjY2NjY2NjY2NjY2P/wgARCAAKABQDASIAAhEBAxEB/8QAGAAAAgMAAAAAAAAAAAAAAAAAAAMCBAX/xAAWAQEBAQAAAAAAAAAAAAAAAAACAwT/2gAMAwEAAhADEAAAAa82vq88DQ//xAAcEAABAwUAAAAAAAAAAAAAAAACAAEDEBEiMTL/2gAIAQEAAQUCBsjitSHQ8r//xAAXEQADAQAAAAAAAAAAAAAAAAAAAREx/9oACAEDAQE/AVsKf//EABkRAAEFAAAAAAAAAAAAAAAAAAACAxESIf/aAAgBAgEBPwF1eyWP/8QAHBAAAQQDAQAAAAAAAAAAAAAAAQAQETECEiJx/9oACAEBAAY/AusZlbWKDFH1v//EABsQAQEBAAIDAAAAAAAAAAAAAAERACFRMUFx/9oACAEBAAE/IeFEGFwNdpHr7mjEm5W9JNytnlb3v//aAAwDAQACAAMAAAAQnP8A/8QAFxEBAAMAAAAAAAAAAAAAAAAAABEhof/aAAgBAwEBPxDBKj//xAAYEQADAQEAAAAAAAAAAAAAAAAAARFBYf/aAAgBAgEBPxCElqvYJz//xAAdEAEAAgICAwAAAAAAAAAAAAABABEhQTFxUWHB/9oACAEBAAE/ECowIOtoxECUG3lfPUNoI5HUaFWZDWNTA5Fee5ahKqte5//Z"},"backgroundColor":"transparent","images":{"fallback":{"src":"/leon-blog/static/838e0e7a94d5a634e9ebbc9ef66b175a/fff17/cover.jpg","srcSet":"/leon-blog/static/838e0e7a94d5a634e9ebbc9ef66b175a/9fa5a/cover.jpg 184w,\n/leon-blog/static/838e0e7a94d5a634e9ebbc9ef66b175a/63e75/cover.jpg 368w,\n/leon-blog/static/838e0e7a94d5a634e9ebbc9ef66b175a/fff17/cover.jpg 736w","sizes":"(min-width: 736px) 736px, 100vw"},"sources":[{"srcSet":"/leon-blog/static/838e0e7a94d5a634e9ebbc9ef66b175a/9d028/cover.avif 184w,\n/leon-blog/static/838e0e7a94d5a634e9ebbc9ef66b175a/c6ee4/cover.avif 368w,\n/leon-blog/static/838e0e7a94d5a634e9ebbc9ef66b175a/b4627/cover.avif 736w","type":"image/avif","sizes":"(min-width: 736px) 736px, 100vw"},{"srcSet":"/leon-blog/static/838e0e7a94d5a634e9ebbc9ef66b175a/ef27d/cover.webp 184w,\n/leon-blog/static/838e0e7a94d5a634e9ebbc9ef66b175a/4ae45/cover.webp 368w,\n/leon-blog/static/838e0e7a94d5a634e9ebbc9ef66b175a/20e6b/cover.webp 736w","type":"image/webp","sizes":"(min-width: 736px) 736px, 100vw"}]},"width":736,"height":368},"coverImageAlt":"封面","datePublished":"2023-12-20T13:18:20.000Z","dateModified":"2023-12-20T13:18:20.000Z","category":"应用项目","tags":["前端","Vue3","Vant","Vite"],"excerpt":"秒聊-H5页是开发秒聊H5页面的项目，包含微信分享、微信邀请、app下载、帮助与问答、在线客服、H5活动等页面。 访问地址： http://miaoliao.siyisea.com/share-for-user?id=i2gqmws2k&share_userid=82gqmws…","timeToRead":1,"slug":"/秒聊-h-5-页","route":"/秒聊-h-5-页","pathName":"/leon-blog/秒聊-h-5-页","url":"https://miss2mess.github.io/leon-blog/秒聊-h-5-页"},{"title":"麒小佑（小程序+后台）","description":"在线小儿推拿穴方生成小程序","coverImg":{"layout":"constrained","placeholder":{"fallback":"data:image/jpeg;base64,/9j/2wBDABALDA4MChAODQ4SERATGCgaGBYWGDEjJR0oOjM9PDkzODdASFxOQERXRTc4UG1RV19iZ2hnPk1xeXBkeFxlZ2P/2wBDARESEhgVGC8aGi9jQjhCY2NjY2NjY2NjY2NjY2NjY2NjY2NjY2NjY2NjY2NjY2NjY2NjY2NjY2NjY2NjY2NjY2P/wgARCAAKABQDASIAAhEBAxEB/8QAFwAAAwEAAAAAAAAAAAAAAAAAAAIDBf/EABUBAQEAAAAAAAAAAAAAAAAAAAAB/9oADAMBAAIQAxAAAAHdjUsYUP/EABgQAAIDAAAAAAAAAAAAAAAAAAACAxEg/9oACAEBAAEFAiNrz//EABQRAQAAAAAAAAAAAAAAAAAAABD/2gAIAQMBAT8BP//EABQRAQAAAAAAAAAAAAAAAAAAABD/2gAIAQIBAT8BP//EABgQAAIDAAAAAAAAAAAAAAAAAAABESAh/9oACAEBAAY/Ah7Nf//EABoQAAICAwAAAAAAAAAAAAAAAAABEBEhMVH/2gAIAQEAAT8hGcjBcUlpR//aAAwDAQACAAMAAAAQ8M//xAAWEQEBAQAAAAAAAAAAAAAAAAARAAH/2gAIAQMBAT8QdZv/xAAVEQEBAAAAAAAAAAAAAAAAAAAAEf/aAAgBAgEBPxCI/8QAGhABAQADAQEAAAAAAAAAAAAAAREQMUEAIf/aAAgBAQABPxBVEN+sE1ucTeXAF+sN4//Z"},"backgroundColor":"transparent","images":{"fallback":{"src":"/leon-blog/static/f2455473f22cc8340a7a5bdc81c107b1/fff17/cover.jpg","srcSet":"/leon-blog/static/f2455473f22cc8340a7a5bdc81c107b1/9fa5a/cover.jpg 184w,\n/leon-blog/static/f2455473f22cc8340a7a5bdc81c107b1/63e75/cover.jpg 368w,\n/leon-blog/static/f2455473f22cc8340a7a5bdc81c107b1/fff17/cover.jpg 736w","sizes":"(min-width: 736px) 736px, 100vw"},"sources":[{"srcSet":"/leon-blog/static/f2455473f22cc8340a7a5bdc81c107b1/9d028/cover.avif 184w,\n/leon-blog/static/f2455473f22cc8340a7a5bdc81c107b1/c6ee4/cover.avif 368w,\n/leon-blog/static/f2455473f22cc8340a7a5bdc81c107b1/b4627/cover.avif 736w","type":"image/avif","sizes":"(min-width: 736px) 736px, 100vw"},{"srcSet":"/leon-blog/static/f2455473f22cc8340a7a5bdc81c107b1/ef27d/cover.webp 184w,\n/leon-blog/static/f2455473f22cc8340a7a5bdc81c107b1/4ae45/cover.webp 368w,\n/leon-blog/static/f2455473f22cc8340a7a5bdc81c107b1/20e6b/cover.webp 736w","type":"image/webp","sizes":"(min-width: 736px) 736px, 100vw"}]},"width":736,"height":368},"coverImageAlt":"封面","datePublished":"2023-12-17T11:21:43.000Z","dateModified":"2023-12-17T11:21:43.000Z","category":"应用项目","tags":["小程序","前端","Vue3","ElementUI","Vite"],"excerpt":"在线小儿推拿穴方生成、诊疗小程序。 导航 主要功能 我的职责 技术实现 小程序截图 管理后台截图 主要功能 交互为AI…","timeToRead":1,"slug":"/麒小佑（小程序-后台）","route":"/麒小佑（小程序-后台）","pathName":"/leon-blog/麒小佑（小程序-后台）","url":"https://miss2mess.github.io/leon-blog/麒小佑（小程序-后台）"},{"title":"CSS即时通（App+后台）","description":"CSS即时通为集团内部通讯和办公app","coverImg":{"layout":"constrained","placeholder":{"fallback":"data:image/jpeg;base64,/9j/2wBDABALDA4MChAODQ4SERATGCgaGBYWGDEjJR0oOjM9PDkzODdASFxOQERXRTc4UG1RV19iZ2hnPk1xeXBkeFxlZ2P/2wBDARESEhgVGC8aGi9jQjhCY2NjY2NjY2NjY2NjY2NjY2NjY2NjY2NjY2NjY2NjY2NjY2NjY2NjY2NjY2NjY2NjY2P/wgARCAAKABQDASIAAhEBAxEB/8QAFwAAAwEAAAAAAAAAAAAAAAAAAAIEBf/EABUBAQEAAAAAAAAAAAAAAAAAAAIB/9oADAMBAAIQAxAAAAGI25mGGFP/xAAaEAACAwEBAAAAAAAAAAAAAAAAAQIDEhMh/9oACAEBAAEFAubM+VUQxAuSGf/EABQRAQAAAAAAAAAAAAAAAAAAABD/2gAIAQMBAT8BP//EABQRAQAAAAAAAAAAAAAAAAAAABD/2gAIAQIBAT8BP//EABkQAAIDAQAAAAAAAAAAAAAAAAEQABIxcf/aAAgBAQAGPwLChbWOT//EABoQAAIDAQEAAAAAAAAAAAAAAAARASExUbH/2gAIAQEAAT8hpdXUTCqvpAVcr0lSGMjDwH//2gAMAwEAAgADAAAAEJzP/8QAFREBAQAAAAAAAAAAAAAAAAAAABH/2gAIAQMBAT8QV//EABcRAAMBAAAAAAAAAAAAAAAAAAABEVH/2gAIAQIBAT8QRHp//8QAGxABAAMBAQEBAAAAAAAAAAAAAQARITHwQZH/2gAIAQEAAT8QEJsNaV+ypt2r8V64riHpFDEtZp6X3IDGWM5Fnhk//9k="},"backgroundColor":"transparent","images":{"fallback":{"src":"/leon-blog/static/b87a048b248279d79fc4611a699e5d89/923d1/cover.jpg","srcSet":"/leon-blog/static/b87a048b248279d79fc4611a699e5d89/f6d4d/cover.jpg 187w,\n/leon-blog/static/b87a048b248279d79fc4611a699e5d89/afab3/cover.jpg 375w,\n/leon-blog/static/b87a048b248279d79fc4611a699e5d89/923d1/cover.jpg 749w","sizes":"(min-width: 749px) 749px, 100vw"},"sources":[{"srcSet":"/leon-blog/static/b87a048b248279d79fc4611a699e5d89/776cd/cover.avif 187w,\n/leon-blog/static/b87a048b248279d79fc4611a699e5d89/4e433/cover.avif 375w,\n/leon-blog/static/b87a048b248279d79fc4611a699e5d89/8cb79/cover.avif 749w","type":"image/avif","sizes":"(min-width: 749px) 749px, 100vw"},{"srcSet":"/leon-blog/static/b87a048b248279d79fc4611a699e5d89/e009f/cover.webp 187w,\n/leon-blog/static/b87a048b248279d79fc4611a699e5d89/9a123/cover.webp 375w,\n/leon-blog/static/b87a048b248279d79fc4611a699e5d89/b31e0/cover.webp 749w","type":"image/webp","sizes":"(min-width: 749px) 749px, 100vw"}]},"width":749,"height":367.99999999999994},"coverImageAlt":"封面","datePublished":"2023-10-27T13:44:33.000Z","dateModified":"2023-10-27T13:44:33.000Z","category":"应用项目","tags":["Android端","Java","前端","Vue2","Vant","Hybrid"],"excerpt":"CSS即时通为集团内部通讯和办公app。 导航 主要功能 我的职责 技术实现 员工端App截图 管理端App截图 管理后台截图 主要功能 实时告警传达到对应组成员，app弹出系统级通知弹窗。 查看组织架构通讯录。 发起OA…","timeToRead":1,"slug":"/css即时通（-app-后台）","route":"/css即时通（-app-后台）","pathName":"/leon-blog/css即时通（-app-后台）","url":"https://miss2mess.github.io/leon-blog/css即时通（-app-后台）"},{"title":"FastMind","description":"FastMind是一个AI大模型助手平台","coverImg":{"layout":"constrained","placeholder":{"fallback":"data:image/jpeg;base64,/9j/2wBDABALDA4MChAODQ4SERATGCgaGBYWGDEjJR0oOjM9PDkzODdASFxOQERXRTc4UG1RV19iZ2hnPk1xeXBkeFxlZ2P/2wBDARESEhgVGC8aGi9jQjhCY2NjY2NjY2NjY2NjY2NjY2NjY2NjY2NjY2NjY2NjY2NjY2NjY2NjY2NjY2NjY2NjY2P/wgARCAAKABQDASIAAhEBAxEB/8QAGAAAAgMAAAAAAAAAAAAAAAAAAAMBBAX/xAAUAQEAAAAAAAAAAAAAAAAAAAAA/9oADAMBAAIQAxAAAAHVsKcBIf/EABsQAAEEAwAAAAAAAAAAAAAAAAIAAQMQEjNB/9oACAEBAAEFAohfGg19X//EABQRAQAAAAAAAAAAAAAAAAAAABD/2gAIAQMBAT8BP//EABQRAQAAAAAAAAAAAAAAAAAAABD/2gAIAQIBAT8BP//EABkQAAIDAQAAAAAAAAAAAAAAAAEQAhIxgf/aAAgBAQAGPwKJscY4/wD/xAAcEAABAwUAAAAAAAAAAAAAAAAAETGBASFhocH/2gAIAQEAAT8hYWRaCRMmmOCjH//aAAwDAQACAAMAAAAQZA//xAAWEQEBAQAAAAAAAAAAAAAAAAABEDH/2gAIAQMBAT8QVdn/xAAUEQEAAAAAAAAAAAAAAAAAAAAQ/9oACAECAQE/ED//xAAbEAEAAgMBAQAAAAAAAAAAAAABABEhMZFBUf/aAAgBAQABPxC1s6fOdJWd/sFVj5GlSlEcJbYjRP/Z"},"backgroundColor":"transparent","images":{"fallback":{"src":"/leon-blog/static/9b6596944e6bd19b0a208a4d75f8b5f6/dba67/cover.jpg","srcSet":"/leon-blog/static/9b6596944e6bd19b0a208a4d75f8b5f6/891f5/cover.jpg 176w,\n/leon-blog/static/9b6596944e6bd19b0a208a4d75f8b5f6/19cc4/cover.jpg 352w,\n/leon-blog/static/9b6596944e6bd19b0a208a4d75f8b5f6/dba67/cover.jpg 704w,\n/leon-blog/static/9b6596944e6bd19b0a208a4d75f8b5f6/1f3b1/cover.jpg 1408w","sizes":"(min-width: 704px) 704px, 100vw"},"sources":[{"srcSet":"/leon-blog/static/9b6596944e6bd19b0a208a4d75f8b5f6/94818/cover.avif 176w,\n/leon-blog/static/9b6596944e6bd19b0a208a4d75f8b5f6/bd4f6/cover.avif 352w,\n/leon-blog/static/9b6596944e6bd19b0a208a4d75f8b5f6/2856f/cover.avif 704w,\n/leon-blog/static/9b6596944e6bd19b0a208a4d75f8b5f6/69a09/cover.avif 1408w","type":"image/avif","sizes":"(min-width: 704px) 704px, 100vw"},{"srcSet":"/leon-blog/static/9b6596944e6bd19b0a208a4d75f8b5f6/76df1/cover.webp 176w,\n/leon-blog/static/9b6596944e6bd19b0a208a4d75f8b5f6/d3e0a/cover.webp 352w,\n/leon-blog/static/9b6596944e6bd19b0a208a4d75f8b5f6/b4509/cover.webp 704w,\n/leon-blog/static/9b6596944e6bd19b0a208a4d75f8b5f6/816c4/cover.webp 1408w","type":"image/webp","sizes":"(min-width: 704px) 704px, 100vw"}]},"width":704,"height":368},"coverImageAlt":"FastMind工作台","datePublished":"2023-06-23T09:13:11.000Z","dateModified":"2023-06-23T09:13:11.000Z","category":"应用项目","tags":["前端","React","大模型","Antd","AI"],"excerpt":"FastMind 是一个免费可用的AI大语言模型 自建助手 平台，可以创建你自己想要的助手，并可以在平台内外分享。 访问地址： http://ai.siyisea.com 导航 主要功能 我的职责 技术实现 PC截图 H5截图 主要功能 AI大模型 接入llm提供商（gpt3.…","timeToRead":1,"slug":"/fast-mind","route":"/fast-mind","pathName":"/leon-blog/fast-mind","url":"https://miss2mess.github.io/leon-blog/fast-mind"}]}}},"staticQueryHashes":["2792541146","2845918323"]}