{"componentChunkName":"component---themes-amaranth-src-gatsby-theme-advanced-templates-feed-index-tsx","path":"/tag/造轮子","result":{"pageContext":{"totalCount":10,"pageCount":2,"pageIndex":0,"feedType":"tag","feedId":"造轮子","feedPageMeta":{"current":0,"next":1,"nextCount":5,"posts":[{"title":"谈一谈React18的RSC","description":"介绍React18的RSC相关知识，参考：https://article.juejin.cn/post/7220061751399170103#heading-13和https://dev.to/jankoritak/server-components-vs-ssr-1g8c","coverImg":{"layout":"constrained","placeholder":{"fallback":"data:image/jpeg;base64,/9j/2wBDABALDA4MChAODQ4SERATGCgaGBYWGDEjJR0oOjM9PDkzODdASFxOQERXRTc4UG1RV19iZ2hnPk1xeXBkeFxlZ2P/2wBDARESEhgVGC8aGi9jQjhCY2NjY2NjY2NjY2NjY2NjY2NjY2NjY2NjY2NjY2NjY2NjY2NjY2NjY2NjY2NjY2NjY2P/wgARCAALABQDASIAAhEBAxEB/8QAGAABAAMBAAAAAAAAAAAAAAAAAAECAwX/xAAVAQEBAAAAAAAAAAAAAAAAAAAAAf/aAAwDAQACEAMQAAAB59M1QD//xAAYEAADAQEAAAAAAAAAAAAAAAABAgMQEf/aAAgBAQABBQJZlohd6c//xAAUEQEAAAAAAAAAAAAAAAAAAAAQ/9oACAEDAQE/AT//xAAUEQEAAAAAAAAAAAAAAAAAAAAQ/9oACAECAQE/AT//xAAZEAADAAMAAAAAAAAAAAAAAAACEBEAITH/2gAIAQEABj8CI9Qcr6v/xAAcEAACAgIDAAAAAAAAAAAAAAABEQAxECFBYZH/2gAIAQEAAT8hGHcRbc1cg1RhuMqzOx7j/9oADAMBAAIAAwAAABDTD//EABQRAQAAAAAAAAAAAAAAAAAAABD/2gAIAQMBAT8QP//EABQRAQAAAAAAAAAAAAAAAAAAABD/2gAIAQIBAT8QP//EABwQAQACAwADAAAAAAAAAAAAAAERIQAxQRBRcf/aAAgBAQABPxABABrExqK7gpaQYrcWa+ZsgC9GAIAPQ5o4slvH/9k="},"backgroundColor":"transparent","images":{"fallback":{"src":"/leon-blog/static/6890535e3478882b78f0403eb486168d/4710f/react-rsc-cover.jpg","srcSet":"/leon-blog/static/6890535e3478882b78f0403eb486168d/002be/react-rsc-cover.jpg 165w,\n/leon-blog/static/6890535e3478882b78f0403eb486168d/b4f54/react-rsc-cover.jpg 330w,\n/leon-blog/static/6890535e3478882b78f0403eb486168d/4710f/react-rsc-cover.jpg 659w,\n/leon-blog/static/6890535e3478882b78f0403eb486168d/eeb57/react-rsc-cover.jpg 1318w","sizes":"(min-width: 659px) 659px, 100vw"},"sources":[{"srcSet":"/leon-blog/static/6890535e3478882b78f0403eb486168d/79731/react-rsc-cover.avif 165w,\n/leon-blog/static/6890535e3478882b78f0403eb486168d/6ae0f/react-rsc-cover.avif 330w,\n/leon-blog/static/6890535e3478882b78f0403eb486168d/b9b98/react-rsc-cover.avif 659w,\n/leon-blog/static/6890535e3478882b78f0403eb486168d/4ddb9/react-rsc-cover.avif 1318w","type":"image/avif","sizes":"(min-width: 659px) 659px, 100vw"},{"srcSet":"/leon-blog/static/6890535e3478882b78f0403eb486168d/55a9a/react-rsc-cover.webp 165w,\n/leon-blog/static/6890535e3478882b78f0403eb486168d/39687/react-rsc-cover.webp 330w,\n/leon-blog/static/6890535e3478882b78f0403eb486168d/62d22/react-rsc-cover.webp 659w,\n/leon-blog/static/6890535e3478882b78f0403eb486168d/6c1b1/react-rsc-cover.webp 1318w","type":"image/webp","sizes":"(min-width: 659px) 659px, 100vw"}]},"width":659,"height":368},"coverImageAlt":"封面","datePublished":"2024-10-15T19:32:24.000Z","dateModified":"2024-10-15T19:32:24.000Z","category":"经验总结","tags":["前端","React","架构","造轮子","Next"],"excerpt":"最近笔者腾出了大把的时间，学习了一下React18。 导航 什么是RSC 客户端组件的缺点 服务器组件如何解决问题 使用RSC RSC的缺点 总结一：RSC和RCC RSC对比SSR Next.js下RSC的工作流程 总结二：RSC和SSR 其它 什么是RSC React1…","timeToRead":2,"slug":"/react-rsc","route":"/react-rsc","pathName":"/leon-blog/react-rsc","url":"https://missmess.github.io/leon-blog/react-rsc"},{"title":"谈一谈React18的SSR","description":"介绍React18的SSR相关知识","coverImg":{"layout":"constrained","placeholder":{"fallback":"data:image/jpeg;base64,/9j/2wBDABALDA4MChAODQ4SERATGCgaGBYWGDEjJR0oOjM9PDkzODdASFxOQERXRTc4UG1RV19iZ2hnPk1xeXBkeFxlZ2P/2wBDARESEhgVGC8aGi9jQjhCY2NjY2NjY2NjY2NjY2NjY2NjY2NjY2NjY2NjY2NjY2NjY2NjY2NjY2NjY2NjY2NjY2P/wgARCAAMABQDASIAAhEBAxEB/8QAGAAAAgMAAAAAAAAAAAAAAAAAAAQBAwX/xAAVAQEBAAAAAAAAAAAAAAAAAAADBP/aAAwDAQACEAMQAAABboazHjQIBr//xAAbEAACAQUAAAAAAAAAAAAAAAAAAQIDBBAjMf/aAAgBAQABBQJsrS14u+n/xAAXEQADAQAAAAAAAAAAAAAAAAABAhAh/9oACAEDAQE/AU0z/8QAFhEAAwAAAAAAAAAAAAAAAAAAAhAx/9oACAECAQE/ASi//8QAGhAAAQUBAAAAAAAAAAAAAAAAEAABAhEhUf/aAAgBAQAGPwJV3DFh/8QAGhABAAIDAQAAAAAAAAAAAAAAAQARECFRkf/aAAgBAQABPyFB0nkouaXDpcN5KXH/2gAMAwEAAgADAAAAELQP/8QAFhEBAQEAAAAAAAAAAAAAAAAAARAR/9oACAEDAQE/EDiT/8QAFhEAAwAAAAAAAAAAAAAAAAAAARAR/9oACAECAQE/ECif/8QAHhABAQABAwUAAAAAAAAAAAAAAREhABAxQWFxgcH/2gAIAQEAAT8QlQHdP3VmI6Dpy48GiCGgwdsrYexZt//Z"},"backgroundColor":"transparent","images":{"fallback":{"src":"/leon-blog/static/4e049eb08e0645207ac2ff6babe990e0/70a21/react-ssr-cover.jpg","srcSet":"/leon-blog/static/4e049eb08e0645207ac2ff6babe990e0/2a6d8/react-ssr-cover.jpg 147w,\n/leon-blog/static/4e049eb08e0645207ac2ff6babe990e0/f5d63/react-ssr-cover.jpg 295w,\n/leon-blog/static/4e049eb08e0645207ac2ff6babe990e0/70a21/react-ssr-cover.jpg 589w,\n/leon-blog/static/4e049eb08e0645207ac2ff6babe990e0/a19e9/react-ssr-cover.jpg 1178w","sizes":"(min-width: 589px) 589px, 100vw"},"sources":[{"srcSet":"/leon-blog/static/4e049eb08e0645207ac2ff6babe990e0/34bea/react-ssr-cover.avif 147w,\n/leon-blog/static/4e049eb08e0645207ac2ff6babe990e0/24e48/react-ssr-cover.avif 295w,\n/leon-blog/static/4e049eb08e0645207ac2ff6babe990e0/b6890/react-ssr-cover.avif 589w,\n/leon-blog/static/4e049eb08e0645207ac2ff6babe990e0/319a1/react-ssr-cover.avif 1178w","type":"image/avif","sizes":"(min-width: 589px) 589px, 100vw"},{"srcSet":"/leon-blog/static/4e049eb08e0645207ac2ff6babe990e0/9862c/react-ssr-cover.webp 147w,\n/leon-blog/static/4e049eb08e0645207ac2ff6babe990e0/6e9d7/react-ssr-cover.webp 295w,\n/leon-blog/static/4e049eb08e0645207ac2ff6babe990e0/4b50c/react-ssr-cover.webp 589w,\n/leon-blog/static/4e049eb08e0645207ac2ff6babe990e0/bcd24/react-ssr-cover.webp 1178w","type":"image/webp","sizes":"(min-width: 589px) 589px, 100vw"}]},"width":589,"height":368},"coverImageAlt":"封面","datePublished":"2024-07-20T12:04:20.000Z","dateModified":"2024-07-20T12:04:20.000Z","category":"经验总结","tags":["前端","React","架构","造轮子","Next"],"excerpt":"最近笔者腾出了大把的时间，学习了一下React18。 导航 什么是SSR React18之前的旧SSR 手动实现旧SSR 为什么用Next.js React18的新SSR Suspense组件 流式传输Html 流式HTML + Suspense 选择性水合 + Suspense…","timeToRead":3,"slug":"/react-ssr","route":"/react-ssr","pathName":"/leon-blog/react-ssr","url":"https://missmess.github.io/leon-blog/react-ssr"},{"title":"谈一谈React18的批处理","description":"介绍React18的并发和批处理相关知识","coverImg":{"layout":"constrained","placeholder":{"fallback":"data:image/jpeg;base64,/9j/2wBDABALDA4MChAODQ4SERATGCgaGBYWGDEjJR0oOjM9PDkzODdASFxOQERXRTc4UG1RV19iZ2hnPk1xeXBkeFxlZ2P/2wBDARESEhgVGC8aGi9jQjhCY2NjY2NjY2NjY2NjY2NjY2NjY2NjY2NjY2NjY2NjY2NjY2NjY2NjY2NjY2NjY2NjY2P/wgARCAAKABQDASIAAhEBAxEB/8QAGAAAAwEBAAAAAAAAAAAAAAAAAAECAwX/xAAWAQEBAQAAAAAAAAAAAAAAAAADAAL/2gAMAwEAAhADEAAAAeclkhySZv/EABkQAQACAwAAAAAAAAAAAAAAAAERMQACEv/aAAgBAQABBQKWBOm2trz/xAAUEQEAAAAAAAAAAAAAAAAAAAAQ/9oACAEDAQE/AT//xAAUEQEAAAAAAAAAAAAAAAAAAAAQ/9oACAECAQE/AT//xAAZEAACAwEAAAAAAAAAAAAAAAAAECEiUYH/2gAIAQEABj8CLYQuL//EABsQAAICAwEAAAAAAAAAAAAAAAABETEQIUFx/9oACAEBAAE/IWxdkFYRnwUFXjH/2gAMAwEAAgADAAAAEKP/AP/EABcRAQADAAAAAAAAAAAAAAAAAAEQESH/2gAIAQMBAT8QS8j/xAAWEQADAAAAAAAAAAAAAAAAAAABECH/2gAIAQIBAT8QMX//xAAcEAEAAwACAwAAAAAAAAAAAAABABEhMUFRYfD/2gAIAQEAAT8Q4Q5WAQPCaL9qy5y7yEGo6n2PEtn/2Q=="},"backgroundColor":"transparent","images":{"fallback":{"src":"/leon-blog/static/b1d2ff9419b4177e3d87c06130565a38/56675/react18-feature.jpg","srcSet":"/leon-blog/static/b1d2ff9419b4177e3d87c06130565a38/9fa5a/react18-feature.jpg 184w,\n/leon-blog/static/b1d2ff9419b4177e3d87c06130565a38/2a971/react18-feature.jpg 367w,\n/leon-blog/static/b1d2ff9419b4177e3d87c06130565a38/56675/react18-feature.jpg 734w","sizes":"(min-width: 734px) 734px, 100vw"},"sources":[{"srcSet":"/leon-blog/static/b1d2ff9419b4177e3d87c06130565a38/9d028/react18-feature.avif 184w,\n/leon-blog/static/b1d2ff9419b4177e3d87c06130565a38/fcbd2/react18-feature.avif 367w,\n/leon-blog/static/b1d2ff9419b4177e3d87c06130565a38/61ef5/react18-feature.avif 734w","type":"image/avif","sizes":"(min-width: 734px) 734px, 100vw"},{"srcSet":"/leon-blog/static/b1d2ff9419b4177e3d87c06130565a38/ef27d/react18-feature.webp 184w,\n/leon-blog/static/b1d2ff9419b4177e3d87c06130565a38/6963a/react18-feature.webp 367w,\n/leon-blog/static/b1d2ff9419b4177e3d87c06130565a38/bce1f/react18-feature.webp 734w","type":"image/webp","sizes":"(min-width: 734px) 734px, 100vw"}]},"width":734,"height":368},"coverImageAlt":"封面","datePublished":"2024-06-24T19:28:20.000Z","dateModified":"2024-06-24T19:28:20.000Z","category":"经验总结","tags":["前端","React","架构","造轮子"],"excerpt":"最近笔者腾出了大把的时间，学习了一下React18。 导航 什么是批处理？ React18之前的批处理 React18的自动批处理 批处理原理 退出批处理 回首React过往的一些重大版本： React 16.0（2017年9月）：带来了全新的Fiber…","timeToRead":1,"slug":"/react-batch","route":"/react-batch","pathName":"/leon-blog/react-batch","url":"https://missmess.github.io/leon-blog/react-batch"},{"title":"React Fiber架构之工作循环","description":"介绍React16带来的全新fiber架构，其中的WorkLoop","coverImg":{"layout":"constrained","placeholder":{"fallback":"data:image/jpeg;base64,/9j/2wBDABALDA4MChAODQ4SERATGCgaGBYWGDEjJR0oOjM9PDkzODdASFxOQERXRTc4UG1RV19iZ2hnPk1xeXBkeFxlZ2P/2wBDARESEhgVGC8aGi9jQjhCY2NjY2NjY2NjY2NjY2NjY2NjY2NjY2NjY2NjY2NjY2NjY2NjY2NjY2NjY2NjY2NjY2P/wgARCAAKABQDASIAAhEBAxEB/8QAFwABAAMAAAAAAAAAAAAAAAAAAAECBf/EABYBAQEBAAAAAAAAAAAAAAAAAAABAv/aAAwDAQACEAMQAAABxpq1QP/EABYQAAMAAAAAAAAAAAAAAAAAAAABIP/aAAgBAQABBQIc/wD/xAAUEQEAAAAAAAAAAAAAAAAAAAAQ/9oACAEDAQE/AT//xAAUEQEAAAAAAAAAAAAAAAAAAAAQ/9oACAECAQE/AT//xAAUEAEAAAAAAAAAAAAAAAAAAAAg/9oACAEBAAY/Al//xAAaEAACAgMAAAAAAAAAAAAAAAABEQAhIEGR/9oACAEBAAE/IQndxNAdx//aAAwDAQACAAMAAAAQS+//xAAUEQEAAAAAAAAAAAAAAAAAAAAQ/9oACAEDAQE/ED//xAAUEQEAAAAAAAAAAAAAAAAAAAAQ/9oACAECAQE/ED//xAAcEAEAAgEFAAAAAAAAAAAAAAABABEhEDFBYYH/2gAIAQEAAT8QYKKXkWrmPC7EzycaO8//2Q=="},"backgroundColor":"transparent","images":{"fallback":{"src":"/leon-blog/static/da24c565e170845a9f10394ef98ce91a/38598/react-fiber.jpg","srcSet":"/leon-blog/static/da24c565e170845a9f10394ef98ce91a/3281a/react-fiber.jpg 186w,\n/leon-blog/static/da24c565e170845a9f10394ef98ce91a/3f3c9/react-fiber.jpg 372w,\n/leon-blog/static/da24c565e170845a9f10394ef98ce91a/38598/react-fiber.jpg 743w","sizes":"(min-width: 743px) 743px, 100vw"},"sources":[{"srcSet":"/leon-blog/static/da24c565e170845a9f10394ef98ce91a/1043a/react-fiber.avif 186w,\n/leon-blog/static/da24c565e170845a9f10394ef98ce91a/75542/react-fiber.avif 372w,\n/leon-blog/static/da24c565e170845a9f10394ef98ce91a/4b780/react-fiber.avif 743w","type":"image/avif","sizes":"(min-width: 743px) 743px, 100vw"},{"srcSet":"/leon-blog/static/da24c565e170845a9f10394ef98ce91a/b2901/react-fiber.webp 186w,\n/leon-blog/static/da24c565e170845a9f10394ef98ce91a/f2d3a/react-fiber.webp 372w,\n/leon-blog/static/da24c565e170845a9f10394ef98ce91a/16c74/react-fiber.webp 743w","type":"image/webp","sizes":"(min-width: 743px) 743px, 100vw"}]},"width":743,"height":368.00000000000006},"coverImageAlt":"封面","datePublished":"2023-04-06T19:58:30.000Z","dateModified":"2023-04-06T19:58:30.000Z","category":"经验总结","tags":["前端","React","架构","造轮子"],"excerpt":"在 React Fiber架构总览 中我们提到，React16的新Fiber架构，将老架构的 递归同步的更新 ，替换为 异步可中断的更新 。这个异步可中断指的就是工作循环的执行中断。 本次我们就主要讲一讲：为什么要使用workLoop…","timeToRead":1,"slug":"/react-workloop","route":"/react-workloop","pathName":"/leon-blog/react-workloop","url":"https://missmess.github.io/leon-blog/react-workloop"},{"title":"React Fiber架构总览","description":"介绍React16带来的全新fiber架构，它的设计总览","coverImg":{"layout":"constrained","placeholder":{"fallback":"data:image/jpeg;base64,/9j/2wBDABALDA4MChAODQ4SERATGCgaGBYWGDEjJR0oOjM9PDkzODdASFxOQERXRTc4UG1RV19iZ2hnPk1xeXBkeFxlZ2P/2wBDARESEhgVGC8aGi9jQjhCY2NjY2NjY2NjY2NjY2NjY2NjY2NjY2NjY2NjY2NjY2NjY2NjY2NjY2NjY2NjY2NjY2P/wgARCAAKABQDASIAAhEBAxEB/8QAFwABAAMAAAAAAAAAAAAAAAAAAAECBf/EABYBAQEBAAAAAAAAAAAAAAAAAAABAv/aAAwDAQACEAMQAAABxpq1QP/EABYQAAMAAAAAAAAAAAAAAAAAAAABIP/aAAgBAQABBQIc/wD/xAAUEQEAAAAAAAAAAAAAAAAAAAAQ/9oACAEDAQE/AT//xAAUEQEAAAAAAAAAAAAAAAAAAAAQ/9oACAECAQE/AT//xAAUEAEAAAAAAAAAAAAAAAAAAAAg/9oACAEBAAY/Al//xAAaEAACAgMAAAAAAAAAAAAAAAABEQAhIEGR/9oACAEBAAE/IQndxNAdx//aAAwDAQACAAMAAAAQS+//xAAUEQEAAAAAAAAAAAAAAAAAAAAQ/9oACAEDAQE/ED//xAAUEQEAAAAAAAAAAAAAAAAAAAAQ/9oACAECAQE/ED//xAAcEAEAAgEFAAAAAAAAAAAAAAABABEhEDFBYYH/2gAIAQEAAT8QYKKXkWrmPC7EzycaO8//2Q=="},"backgroundColor":"transparent","images":{"fallback":{"src":"/leon-blog/static/da24c565e170845a9f10394ef98ce91a/38598/react-fiber.jpg","srcSet":"/leon-blog/static/da24c565e170845a9f10394ef98ce91a/3281a/react-fiber.jpg 186w,\n/leon-blog/static/da24c565e170845a9f10394ef98ce91a/3f3c9/react-fiber.jpg 372w,\n/leon-blog/static/da24c565e170845a9f10394ef98ce91a/38598/react-fiber.jpg 743w","sizes":"(min-width: 743px) 743px, 100vw"},"sources":[{"srcSet":"/leon-blog/static/da24c565e170845a9f10394ef98ce91a/1043a/react-fiber.avif 186w,\n/leon-blog/static/da24c565e170845a9f10394ef98ce91a/75542/react-fiber.avif 372w,\n/leon-blog/static/da24c565e170845a9f10394ef98ce91a/4b780/react-fiber.avif 743w","type":"image/avif","sizes":"(min-width: 743px) 743px, 100vw"},{"srcSet":"/leon-blog/static/da24c565e170845a9f10394ef98ce91a/b2901/react-fiber.webp 186w,\n/leon-blog/static/da24c565e170845a9f10394ef98ce91a/f2d3a/react-fiber.webp 372w,\n/leon-blog/static/da24c565e170845a9f10394ef98ce91a/16c74/react-fiber.webp 743w","type":"image/webp","sizes":"(min-width: 743px) 743px, 100vw"}]},"width":743,"height":368.00000000000006},"coverImageAlt":"封面","datePublished":"2023-02-09T11:20:41.000Z","dateModified":"2023-02-09T11:20:41.000Z","category":"经验总结","tags":["前端","React","架构","造轮子"],"excerpt":"众所周知，React团队耗时2年多在React16发布了全新重构版本的Fiber架构，替代了原来的 Stack Recociler + Renderer…","timeToRead":2,"slug":"/react-fiber-struct","route":"/react-fiber-struct","pathName":"/leon-blog/react-fiber-struct","url":"https://missmess.github.io/leon-blog/react-fiber-struct"}]}}},"staticQueryHashes":["2792541146","2845918323"]}