{"componentChunkName":"component---themes-amaranth-src-gatsby-theme-advanced-templates-feed-index-tsx","path":"/tag/React","result":{"pageContext":{"totalCount":19,"pageCount":4,"pageIndex":0,"feedType":"tag","feedId":"React","feedPageMeta":{"current":0,"next":1,"nextCount":5,"posts":[{"title":"谈一谈React18的RSC","description":"介绍React18的RSC相关知识，参考：https://article.juejin.cn/post/7220061751399170103#heading-13和https://dev.to/jankoritak/server-components-vs-ssr-1g8c","coverImg":{"layout":"constrained","placeholder":{"fallback":"data:image/jpeg;base64,/9j/2wBDABALDA4MChAODQ4SERATGCgaGBYWGDEjJR0oOjM9PDkzODdASFxOQERXRTc4UG1RV19iZ2hnPk1xeXBkeFxlZ2P/2wBDARESEhgVGC8aGi9jQjhCY2NjY2NjY2NjY2NjY2NjY2NjY2NjY2NjY2NjY2NjY2NjY2NjY2NjY2NjY2NjY2NjY2P/wgARCAALABQDASIAAhEBAxEB/8QAGAABAAMBAAAAAAAAAAAAAAAAAAECAwX/xAAVAQEBAAAAAAAAAAAAAAAAAAAAAf/aAAwDAQACEAMQAAAB59M1QD//xAAYEAADAQEAAAAAAAAAAAAAAAABAgMQEf/aAAgBAQABBQJZlohd6c//xAAUEQEAAAAAAAAAAAAAAAAAAAAQ/9oACAEDAQE/AT//xAAUEQEAAAAAAAAAAAAAAAAAAAAQ/9oACAECAQE/AT//xAAZEAADAAMAAAAAAAAAAAAAAAACEBEAITH/2gAIAQEABj8CI9Qcr6v/xAAcEAACAgIDAAAAAAAAAAAAAAABEQAxECFBYZH/2gAIAQEAAT8hGHcRbc1cg1RhuMqzOx7j/9oADAMBAAIAAwAAABDTD//EABQRAQAAAAAAAAAAAAAAAAAAABD/2gAIAQMBAT8QP//EABQRAQAAAAAAAAAAAAAAAAAAABD/2gAIAQIBAT8QP//EABwQAQACAwADAAAAAAAAAAAAAAERIQAxQRBRcf/aAAgBAQABPxABABrExqK7gpaQYrcWa+ZsgC9GAIAPQ5o4slvH/9k="},"backgroundColor":"transparent","images":{"fallback":{"src":"/leon-blog/static/6890535e3478882b78f0403eb486168d/4710f/react-rsc-cover.jpg","srcSet":"/leon-blog/static/6890535e3478882b78f0403eb486168d/002be/react-rsc-cover.jpg 165w,\n/leon-blog/static/6890535e3478882b78f0403eb486168d/b4f54/react-rsc-cover.jpg 330w,\n/leon-blog/static/6890535e3478882b78f0403eb486168d/4710f/react-rsc-cover.jpg 659w,\n/leon-blog/static/6890535e3478882b78f0403eb486168d/eeb57/react-rsc-cover.jpg 1318w","sizes":"(min-width: 659px) 659px, 100vw"},"sources":[{"srcSet":"/leon-blog/static/6890535e3478882b78f0403eb486168d/79731/react-rsc-cover.avif 165w,\n/leon-blog/static/6890535e3478882b78f0403eb486168d/6ae0f/react-rsc-cover.avif 330w,\n/leon-blog/static/6890535e3478882b78f0403eb486168d/b9b98/react-rsc-cover.avif 659w,\n/leon-blog/static/6890535e3478882b78f0403eb486168d/4ddb9/react-rsc-cover.avif 1318w","type":"image/avif","sizes":"(min-width: 659px) 659px, 100vw"},{"srcSet":"/leon-blog/static/6890535e3478882b78f0403eb486168d/55a9a/react-rsc-cover.webp 165w,\n/leon-blog/static/6890535e3478882b78f0403eb486168d/39687/react-rsc-cover.webp 330w,\n/leon-blog/static/6890535e3478882b78f0403eb486168d/62d22/react-rsc-cover.webp 659w,\n/leon-blog/static/6890535e3478882b78f0403eb486168d/6c1b1/react-rsc-cover.webp 1318w","type":"image/webp","sizes":"(min-width: 659px) 659px, 100vw"}]},"width":659,"height":368},"coverImageAlt":"封面","datePublished":"2024-10-15T19:32:24.000Z","dateModified":"2024-10-15T19:32:24.000Z","category":"经验总结","tags":["前端","React","架构","造轮子","Next"],"excerpt":"最近笔者腾出了大把的时间，学习了一下React18。 导航 什么是RSC 客户端组件的缺点 服务器组件如何解决问题 使用RSC RSC的缺点 总结一：RSC和RCC RSC对比SSR Next.js下RSC的工作流程 总结二：RSC和SSR 其它 什么是RSC React1…","timeToRead":2,"slug":"/react-rsc","route":"/react-rsc","pathName":"/leon-blog/react-rsc","url":"https://missmess.github.io/leon-blog/react-rsc"},{"title":"谈一谈React18的SSR","description":"介绍React18的SSR相关知识","coverImg":{"layout":"constrained","placeholder":{"fallback":"data:image/jpeg;base64,/9j/2wBDABALDA4MChAODQ4SERATGCgaGBYWGDEjJR0oOjM9PDkzODdASFxOQERXRTc4UG1RV19iZ2hnPk1xeXBkeFxlZ2P/2wBDARESEhgVGC8aGi9jQjhCY2NjY2NjY2NjY2NjY2NjY2NjY2NjY2NjY2NjY2NjY2NjY2NjY2NjY2NjY2NjY2NjY2P/wgARCAAMABQDASIAAhEBAxEB/8QAGAAAAgMAAAAAAAAAAAAAAAAAAAQBAwX/xAAVAQEBAAAAAAAAAAAAAAAAAAADBP/aAAwDAQACEAMQAAABboazHjQIBr//xAAbEAACAQUAAAAAAAAAAAAAAAAAAQIDBBAjMf/aAAgBAQABBQJsrS14u+n/xAAXEQADAQAAAAAAAAAAAAAAAAABAhAh/9oACAEDAQE/AU0z/8QAFhEAAwAAAAAAAAAAAAAAAAAAAhAx/9oACAECAQE/ASi//8QAGhAAAQUBAAAAAAAAAAAAAAAAEAABAhEhUf/aAAgBAQAGPwJV3DFh/8QAGhABAAIDAQAAAAAAAAAAAAAAAQARECFRkf/aAAgBAQABPyFB0nkouaXDpcN5KXH/2gAMAwEAAgADAAAAELQP/8QAFhEBAQEAAAAAAAAAAAAAAAAAARAR/9oACAEDAQE/EDiT/8QAFhEAAwAAAAAAAAAAAAAAAAAAARAR/9oACAECAQE/ECif/8QAHhABAQABAwUAAAAAAAAAAAAAAREhABAxQWFxgcH/2gAIAQEAAT8QlQHdP3VmI6Dpy48GiCGgwdsrYexZt//Z"},"backgroundColor":"transparent","images":{"fallback":{"src":"/leon-blog/static/4e049eb08e0645207ac2ff6babe990e0/70a21/react-ssr-cover.jpg","srcSet":"/leon-blog/static/4e049eb08e0645207ac2ff6babe990e0/2a6d8/react-ssr-cover.jpg 147w,\n/leon-blog/static/4e049eb08e0645207ac2ff6babe990e0/f5d63/react-ssr-cover.jpg 295w,\n/leon-blog/static/4e049eb08e0645207ac2ff6babe990e0/70a21/react-ssr-cover.jpg 589w,\n/leon-blog/static/4e049eb08e0645207ac2ff6babe990e0/a19e9/react-ssr-cover.jpg 1178w","sizes":"(min-width: 589px) 589px, 100vw"},"sources":[{"srcSet":"/leon-blog/static/4e049eb08e0645207ac2ff6babe990e0/34bea/react-ssr-cover.avif 147w,\n/leon-blog/static/4e049eb08e0645207ac2ff6babe990e0/24e48/react-ssr-cover.avif 295w,\n/leon-blog/static/4e049eb08e0645207ac2ff6babe990e0/b6890/react-ssr-cover.avif 589w,\n/leon-blog/static/4e049eb08e0645207ac2ff6babe990e0/319a1/react-ssr-cover.avif 1178w","type":"image/avif","sizes":"(min-width: 589px) 589px, 100vw"},{"srcSet":"/leon-blog/static/4e049eb08e0645207ac2ff6babe990e0/9862c/react-ssr-cover.webp 147w,\n/leon-blog/static/4e049eb08e0645207ac2ff6babe990e0/6e9d7/react-ssr-cover.webp 295w,\n/leon-blog/static/4e049eb08e0645207ac2ff6babe990e0/4b50c/react-ssr-cover.webp 589w,\n/leon-blog/static/4e049eb08e0645207ac2ff6babe990e0/bcd24/react-ssr-cover.webp 1178w","type":"image/webp","sizes":"(min-width: 589px) 589px, 100vw"}]},"width":589,"height":368},"coverImageAlt":"封面","datePublished":"2024-07-20T12:04:20.000Z","dateModified":"2024-07-20T12:04:20.000Z","category":"经验总结","tags":["前端","React","架构","造轮子","Next"],"excerpt":"最近笔者腾出了大把的时间，学习了一下React18。 导航 什么是SSR React18之前的旧SSR 手动实现旧SSR 为什么用Next.js React18的新SSR Suspense组件 流式传输Html 流式HTML + Suspense 选择性水合 + Suspense…","timeToRead":3,"slug":"/react-ssr","route":"/react-ssr","pathName":"/leon-blog/react-ssr","url":"https://missmess.github.io/leon-blog/react-ssr"},{"title":"谈一谈React18的批处理","description":"介绍React18的并发和批处理相关知识","coverImg":{"layout":"constrained","placeholder":{"fallback":"data:image/jpeg;base64,/9j/2wBDABALDA4MChAODQ4SERATGCgaGBYWGDEjJR0oOjM9PDkzODdASFxOQERXRTc4UG1RV19iZ2hnPk1xeXBkeFxlZ2P/2wBDARESEhgVGC8aGi9jQjhCY2NjY2NjY2NjY2NjY2NjY2NjY2NjY2NjY2NjY2NjY2NjY2NjY2NjY2NjY2NjY2NjY2P/wgARCAAKABQDASIAAhEBAxEB/8QAGAAAAwEBAAAAAAAAAAAAAAAAAAECAwX/xAAWAQEBAQAAAAAAAAAAAAAAAAADAAL/2gAMAwEAAhADEAAAAeclkhySZv/EABkQAQACAwAAAAAAAAAAAAAAAAERMQACEv/aAAgBAQABBQKWBOm2trz/xAAUEQEAAAAAAAAAAAAAAAAAAAAQ/9oACAEDAQE/AT//xAAUEQEAAAAAAAAAAAAAAAAAAAAQ/9oACAECAQE/AT//xAAZEAACAwEAAAAAAAAAAAAAAAAAECEiUYH/2gAIAQEABj8CLYQuL//EABsQAAICAwEAAAAAAAAAAAAAAAABETEQIUFx/9oACAEBAAE/IWxdkFYRnwUFXjH/2gAMAwEAAgADAAAAEKP/AP/EABcRAQADAAAAAAAAAAAAAAAAAAEQESH/2gAIAQMBAT8QS8j/xAAWEQADAAAAAAAAAAAAAAAAAAABECH/2gAIAQIBAT8QMX//xAAcEAEAAwACAwAAAAAAAAAAAAABABEhMUFRYfD/2gAIAQEAAT8Q4Q5WAQPCaL9qy5y7yEGo6n2PEtn/2Q=="},"backgroundColor":"transparent","images":{"fallback":{"src":"/leon-blog/static/b1d2ff9419b4177e3d87c06130565a38/56675/react18-feature.jpg","srcSet":"/leon-blog/static/b1d2ff9419b4177e3d87c06130565a38/9fa5a/react18-feature.jpg 184w,\n/leon-blog/static/b1d2ff9419b4177e3d87c06130565a38/2a971/react18-feature.jpg 367w,\n/leon-blog/static/b1d2ff9419b4177e3d87c06130565a38/56675/react18-feature.jpg 734w","sizes":"(min-width: 734px) 734px, 100vw"},"sources":[{"srcSet":"/leon-blog/static/b1d2ff9419b4177e3d87c06130565a38/9d028/react18-feature.avif 184w,\n/leon-blog/static/b1d2ff9419b4177e3d87c06130565a38/fcbd2/react18-feature.avif 367w,\n/leon-blog/static/b1d2ff9419b4177e3d87c06130565a38/61ef5/react18-feature.avif 734w","type":"image/avif","sizes":"(min-width: 734px) 734px, 100vw"},{"srcSet":"/leon-blog/static/b1d2ff9419b4177e3d87c06130565a38/ef27d/react18-feature.webp 184w,\n/leon-blog/static/b1d2ff9419b4177e3d87c06130565a38/6963a/react18-feature.webp 367w,\n/leon-blog/static/b1d2ff9419b4177e3d87c06130565a38/bce1f/react18-feature.webp 734w","type":"image/webp","sizes":"(min-width: 734px) 734px, 100vw"}]},"width":734,"height":368},"coverImageAlt":"封面","datePublished":"2024-06-24T19:28:20.000Z","dateModified":"2024-06-24T19:28:20.000Z","category":"经验总结","tags":["前端","React","架构","造轮子"],"excerpt":"最近笔者腾出了大把的时间，学习了一下React18。 导航 什么是批处理？ React18之前的批处理 React18的自动批处理 批处理原理 退出批处理 回首React过往的一些重大版本： React 16.0（2017年9月）：带来了全新的Fiber…","timeToRead":1,"slug":"/react-batch","route":"/react-batch","pathName":"/leon-blog/react-batch","url":"https://missmess.github.io/leon-blog/react-batch"},{"title":"FastMind","description":"FastMind是一个AI大模型助手平台","coverImg":{"layout":"constrained","placeholder":{"fallback":"data:image/jpeg;base64,/9j/2wBDABALDA4MChAODQ4SERATGCgaGBYWGDEjJR0oOjM9PDkzODdASFxOQERXRTc4UG1RV19iZ2hnPk1xeXBkeFxlZ2P/2wBDARESEhgVGC8aGi9jQjhCY2NjY2NjY2NjY2NjY2NjY2NjY2NjY2NjY2NjY2NjY2NjY2NjY2NjY2NjY2NjY2NjY2P/wgARCAAKABQDASIAAhEBAxEB/8QAGAAAAgMAAAAAAAAAAAAAAAAAAAMBBAX/xAAUAQEAAAAAAAAAAAAAAAAAAAAA/9oADAMBAAIQAxAAAAHVsKcBIf/EABsQAAEEAwAAAAAAAAAAAAAAAAIAAQMQEjNB/9oACAEBAAEFAohfGg19X//EABQRAQAAAAAAAAAAAAAAAAAAABD/2gAIAQMBAT8BP//EABQRAQAAAAAAAAAAAAAAAAAAABD/2gAIAQIBAT8BP//EABkQAAIDAQAAAAAAAAAAAAAAAAEQAhIxgf/aAAgBAQAGPwKJscY4/wD/xAAcEAABAwUAAAAAAAAAAAAAAAAAETGBASFhocH/2gAIAQEAAT8hYWRaCRMmmOCjH//aAAwDAQACAAMAAAAQZA//xAAWEQEBAQAAAAAAAAAAAAAAAAABEDH/2gAIAQMBAT8QVdn/xAAUEQEAAAAAAAAAAAAAAAAAAAAQ/9oACAECAQE/ED//xAAbEAEAAgMBAQAAAAAAAAAAAAABABEhMZFBUf/aAAgBAQABPxC1s6fOdJWd/sFVj5GlSlEcJbYjRP/Z"},"backgroundColor":"transparent","images":{"fallback":{"src":"/leon-blog/static/9b6596944e6bd19b0a208a4d75f8b5f6/dba67/cover.jpg","srcSet":"/leon-blog/static/9b6596944e6bd19b0a208a4d75f8b5f6/891f5/cover.jpg 176w,\n/leon-blog/static/9b6596944e6bd19b0a208a4d75f8b5f6/19cc4/cover.jpg 352w,\n/leon-blog/static/9b6596944e6bd19b0a208a4d75f8b5f6/dba67/cover.jpg 704w,\n/leon-blog/static/9b6596944e6bd19b0a208a4d75f8b5f6/1f3b1/cover.jpg 1408w","sizes":"(min-width: 704px) 704px, 100vw"},"sources":[{"srcSet":"/leon-blog/static/9b6596944e6bd19b0a208a4d75f8b5f6/94818/cover.avif 176w,\n/leon-blog/static/9b6596944e6bd19b0a208a4d75f8b5f6/bd4f6/cover.avif 352w,\n/leon-blog/static/9b6596944e6bd19b0a208a4d75f8b5f6/2856f/cover.avif 704w,\n/leon-blog/static/9b6596944e6bd19b0a208a4d75f8b5f6/69a09/cover.avif 1408w","type":"image/avif","sizes":"(min-width: 704px) 704px, 100vw"},{"srcSet":"/leon-blog/static/9b6596944e6bd19b0a208a4d75f8b5f6/76df1/cover.webp 176w,\n/leon-blog/static/9b6596944e6bd19b0a208a4d75f8b5f6/d3e0a/cover.webp 352w,\n/leon-blog/static/9b6596944e6bd19b0a208a4d75f8b5f6/b4509/cover.webp 704w,\n/leon-blog/static/9b6596944e6bd19b0a208a4d75f8b5f6/816c4/cover.webp 1408w","type":"image/webp","sizes":"(min-width: 704px) 704px, 100vw"}]},"width":704,"height":368},"coverImageAlt":"FastMind工作台","datePublished":"2023-06-23T09:13:11.000Z","dateModified":"2023-06-23T09:13:11.000Z","category":"应用项目","tags":["前端","React","大模型","Antd","AI"],"excerpt":"FastMind 是一个免费可用的AI大语言模型 自建助手 平台，可以创建你自己想要的助手，并可以在平台内外分享。 访问地址： http://ai.siyisea.com 导航 主要功能 我的职责 技术实现 PC截图 H5截图 主要功能 AI大模型 接入llm提供商（gpt3.…","timeToRead":1,"slug":"/fast-mind","route":"/fast-mind","pathName":"/leon-blog/fast-mind","url":"https://missmess.github.io/leon-blog/fast-mind"},{"title":"AI聊天统一后台","description":"AI聊天后台为AI应用提供后台管理功能","coverImg":{"layout":"constrained","placeholder":{"fallback":"data:image/jpeg;base64,/9j/2wBDABALDA4MChAODQ4SERATGCgaGBYWGDEjJR0oOjM9PDkzODdASFxOQERXRTc4UG1RV19iZ2hnPk1xeXBkeFxlZ2P/2wBDARESEhgVGC8aGi9jQjhCY2NjY2NjY2NjY2NjY2NjY2NjY2NjY2NjY2NjY2NjY2NjY2NjY2NjY2NjY2NjY2NjY2P/wgARCAAKABQDASIAAhEBAxEB/8QAGAAAAgMAAAAAAAAAAAAAAAAAAAIBAwX/xAAUAQEAAAAAAAAAAAAAAAAAAAAA/9oADAMBAAIQAxAAAAHbHgQsD//EABgQAAMBAQAAAAAAAAAAAAAAAAACEgEg/9oACAEBAAEFAoUlSc4//8QAFBEBAAAAAAAAAAAAAAAAAAAAEP/aAAgBAwEBPwE//8QAFBEBAAAAAAAAAAAAAAAAAAAAEP/aAAgBAgEBPwE//8QAGRAAAwADAAAAAAAAAAAAAAAAAAExIDKR/9oACAEBAAY/AojVEXMP/8QAGhAAAgIDAAAAAAAAAAAAAAAAAAEQEVHB8f/aAAgBAQABPyF2ajkx5mY//9oADAMBAAIAAwAAABAz7//EABQRAQAAAAAAAAAAAAAAAAAAABD/2gAIAQMBAT8QP//EABURAQEAAAAAAAAAAAAAAAAAAAAR/9oACAECAQE/EFf/xAAdEAACAgEFAAAAAAAAAAAAAAAAEQEhMVGBscHR/9oACAEBAAE/EETrjSZeL4XSkunGjqRnYQf/2Q=="},"backgroundColor":"transparent","images":{"fallback":{"src":"/leon-blog/static/e71c085dce2a1254cea162e966b167ad/041b2/cover.jpg","srcSet":"/leon-blog/static/e71c085dce2a1254cea162e966b167ad/ad028/cover.jpg 177w,\n/leon-blog/static/e71c085dce2a1254cea162e966b167ad/da597/cover.jpg 354w,\n/leon-blog/static/e71c085dce2a1254cea162e966b167ad/041b2/cover.jpg 707w,\n/leon-blog/static/e71c085dce2a1254cea162e966b167ad/3de3b/cover.jpg 1414w","sizes":"(min-width: 707px) 707px, 100vw"},"sources":[{"srcSet":"/leon-blog/static/e71c085dce2a1254cea162e966b167ad/647d2/cover.avif 177w,\n/leon-blog/static/e71c085dce2a1254cea162e966b167ad/26062/cover.avif 354w,\n/leon-blog/static/e71c085dce2a1254cea162e966b167ad/7f9d6/cover.avif 707w,\n/leon-blog/static/e71c085dce2a1254cea162e966b167ad/da5ea/cover.avif 1414w","type":"image/avif","sizes":"(min-width: 707px) 707px, 100vw"},{"srcSet":"/leon-blog/static/e71c085dce2a1254cea162e966b167ad/55808/cover.webp 177w,\n/leon-blog/static/e71c085dce2a1254cea162e966b167ad/9b6a9/cover.webp 354w,\n/leon-blog/static/e71c085dce2a1254cea162e966b167ad/9baeb/cover.webp 707w,\n/leon-blog/static/e71c085dce2a1254cea162e966b167ad/cf4f5/cover.webp 1414w","type":"image/webp","sizes":"(min-width: 707px) 707px, 100vw"}]},"width":707,"height":368},"coverImageAlt":"后台概览","datePublished":"2023-06-16T19:22:38.000Z","dateModified":"2023-06-16T19:22:38.000Z","category":"应用项目","tags":["前端","React","Antd","Vite"],"excerpt":"AI聊天统一后台 为FastMind和AI女友项目，提供了统一的管理后台。 访问地址： http://ai.siyisea.com:8860 查看： FastMind 查看： GF's Heart 导航 主要功能 我的职责 技术实现 截图 主要功能 AI…","timeToRead":1,"slug":"/ai聊天统一后台","route":"/ai聊天统一后台","pathName":"/leon-blog/ai聊天统一后台","url":"https://missmess.github.io/leon-blog/ai聊天统一后台"}]}}},"staticQueryHashes":["2792541146","2845918323"]}