{"componentChunkName":"component---themes-amaranth-src-gatsby-theme-advanced-templates-feed-index-tsx","path":"/tag/架构","result":{"pageContext":{"totalCount":11,"pageCount":3,"pageIndex":0,"feedType":"tag","feedId":"架构","feedPageMeta":{"current":0,"next":1,"nextCount":5,"posts":[{"title":"React Fiber架构之工作循环","description":"介绍React16带来的全新fiber架构，其中的WorkLoop","coverImg":{"layout":"constrained","placeholder":{"fallback":"data:image/jpeg;base64,/9j/2wBDABALDA4MChAODQ4SERATGCgaGBYWGDEjJR0oOjM9PDkzODdASFxOQERXRTc4UG1RV19iZ2hnPk1xeXBkeFxlZ2P/2wBDARESEhgVGC8aGi9jQjhCY2NjY2NjY2NjY2NjY2NjY2NjY2NjY2NjY2NjY2NjY2NjY2NjY2NjY2NjY2NjY2NjY2P/wgARCAAKABQDASIAAhEBAxEB/8QAFwABAAMAAAAAAAAAAAAAAAAAAAECBf/EABYBAQEBAAAAAAAAAAAAAAAAAAABAv/aAAwDAQACEAMQAAABxpq1QP/EABYQAAMAAAAAAAAAAAAAAAAAAAABIP/aAAgBAQABBQIc/wD/xAAUEQEAAAAAAAAAAAAAAAAAAAAQ/9oACAEDAQE/AT//xAAUEQEAAAAAAAAAAAAAAAAAAAAQ/9oACAECAQE/AT//xAAUEAEAAAAAAAAAAAAAAAAAAAAg/9oACAEBAAY/Al//xAAaEAACAgMAAAAAAAAAAAAAAAABEQAhIEGR/9oACAEBAAE/IQndxNAdx//aAAwDAQACAAMAAAAQS+//xAAUEQEAAAAAAAAAAAAAAAAAAAAQ/9oACAEDAQE/ED//xAAUEQEAAAAAAAAAAAAAAAAAAAAQ/9oACAECAQE/ED//xAAcEAEAAgEFAAAAAAAAAAAAAAABABEhEDFBYYH/2gAIAQEAAT8QYKKXkWrmPC7EzycaO8//2Q=="},"backgroundColor":"transparent","images":{"fallback":{"src":"/leon-blog/static/da24c565e170845a9f10394ef98ce91a/38598/react-fiber.jpg","srcSet":"/leon-blog/static/da24c565e170845a9f10394ef98ce91a/3281a/react-fiber.jpg 186w,\n/leon-blog/static/da24c565e170845a9f10394ef98ce91a/3f3c9/react-fiber.jpg 372w,\n/leon-blog/static/da24c565e170845a9f10394ef98ce91a/38598/react-fiber.jpg 743w","sizes":"(min-width: 743px) 743px, 100vw"},"sources":[{"srcSet":"/leon-blog/static/da24c565e170845a9f10394ef98ce91a/1043a/react-fiber.avif 186w,\n/leon-blog/static/da24c565e170845a9f10394ef98ce91a/75542/react-fiber.avif 372w,\n/leon-blog/static/da24c565e170845a9f10394ef98ce91a/4b780/react-fiber.avif 743w","type":"image/avif","sizes":"(min-width: 743px) 743px, 100vw"},{"srcSet":"/leon-blog/static/da24c565e170845a9f10394ef98ce91a/b2901/react-fiber.webp 186w,\n/leon-blog/static/da24c565e170845a9f10394ef98ce91a/f2d3a/react-fiber.webp 372w,\n/leon-blog/static/da24c565e170845a9f10394ef98ce91a/16c74/react-fiber.webp 743w","type":"image/webp","sizes":"(min-width: 743px) 743px, 100vw"}]},"width":743,"height":368.00000000000006},"coverImageAlt":"封面","datePublished":"2023-04-06T19:58:30.000Z","dateModified":"2023-04-06T19:58:30.000Z","category":"经验总结","tags":["前端","React","架构","造轮子"],"excerpt":"众所周知，React16带来了全新重构版本的Fiber架构，替代了原来的 Stack Recociler + Renderer 的架构组合。最主要的升级目标是，将老架构的 递归同步的更新 ，替换为 异步可中断的更新 。 React中最主要的部分就是Reconciler…","timeToRead":1,"slug":"/react-workloop","route":"/react-workloop","pathName":"/leon-blog/react-workloop","url":"https://missmess.github.io/leon-blog/react-workloop"},{"title":"Webpack是如何处理ESM的","description":"介绍一段import和require的代码在webpack中如何被打包","coverImg":{"layout":"constrained","placeholder":{"fallback":"data:image/jpeg;base64,/9j/2wBDABALDA4MChAODQ4SERATGCgaGBYWGDEjJR0oOjM9PDkzODdASFxOQERXRTc4UG1RV19iZ2hnPk1xeXBkeFxlZ2P/2wBDARESEhgVGC8aGi9jQjhCY2NjY2NjY2NjY2NjY2NjY2NjY2NjY2NjY2NjY2NjY2NjY2NjY2NjY2NjY2NjY2NjY2P/wgARCAAKABQDASIAAhEBAxEB/8QAGAAAAwEBAAAAAAAAAAAAAAAAAAIDAQX/xAAWAQEBAQAAAAAAAAAAAAAAAAAAAQL/2gAMAwEAAhADEAAAAedaK3LGh//EABkQAAIDAQAAAAAAAAAAAAAAAAABAgMQEv/aAAgBAQABBQIshzjxH//EABQRAQAAAAAAAAAAAAAAAAAAABD/2gAIAQMBAT8BP//EABQRAQAAAAAAAAAAAAAAAAAAABD/2gAIAQIBAT8BP//EABgQAAIDAAAAAAAAAAAAAAAAAAABESAh/9oACAEBAAY/AhbNf//EABkQAAMAAwAAAAAAAAAAAAAAAAABMRARIf/aAAgBAQABPyGQau3YSKxB/9oADAMBAAIAAwAAABBYP//EABQRAQAAAAAAAAAAAAAAAAAAABD/2gAIAQMBAT8QP//EABQRAQAAAAAAAAAAAAAAAAAAABD/2gAIAQIBAT8QP//EABwQAQADAAIDAAAAAAAAAAAAAAEAESExQXGB0f/aAAgBAQABPxBLCtuNwduVvyKll+iJVsteVawvqc3mf//Z"},"backgroundColor":"transparent","images":{"fallback":{"src":"/leon-blog/static/eb777c876db5fcd5b1f3e2bec74894d4/fff17/webpack-package.jpg","srcSet":"/leon-blog/static/eb777c876db5fcd5b1f3e2bec74894d4/9fa5a/webpack-package.jpg 184w,\n/leon-blog/static/eb777c876db5fcd5b1f3e2bec74894d4/63e75/webpack-package.jpg 368w,\n/leon-blog/static/eb777c876db5fcd5b1f3e2bec74894d4/fff17/webpack-package.jpg 736w,\n/leon-blog/static/eb777c876db5fcd5b1f3e2bec74894d4/da7d9/webpack-package.jpg 1472w","sizes":"(min-width: 736px) 736px, 100vw"},"sources":[{"srcSet":"/leon-blog/static/eb777c876db5fcd5b1f3e2bec74894d4/9d028/webpack-package.avif 184w,\n/leon-blog/static/eb777c876db5fcd5b1f3e2bec74894d4/c6ee4/webpack-package.avif 368w,\n/leon-blog/static/eb777c876db5fcd5b1f3e2bec74894d4/b4627/webpack-package.avif 736w,\n/leon-blog/static/eb777c876db5fcd5b1f3e2bec74894d4/42b07/webpack-package.avif 1472w","type":"image/avif","sizes":"(min-width: 736px) 736px, 100vw"},{"srcSet":"/leon-blog/static/eb777c876db5fcd5b1f3e2bec74894d4/ef27d/webpack-package.webp 184w,\n/leon-blog/static/eb777c876db5fcd5b1f3e2bec74894d4/4ae45/webpack-package.webp 368w,\n/leon-blog/static/eb777c876db5fcd5b1f3e2bec74894d4/20e6b/webpack-package.webp 736w,\n/leon-blog/static/eb777c876db5fcd5b1f3e2bec74894d4/79f02/webpack-package.webp 1472w","type":"image/webp","sizes":"(min-width: 736px) 736px, 100vw"}]},"width":736,"height":368},"coverImageAlt":"封面","datePublished":"2023-02-08T21:52:32.000Z","dateModified":"2023-02-08T21:52:32.000Z","category":"经验总结","tags":["前端","架构","造轮子"],"excerpt":"周所周知，ES6引入了官方的模块化方案 import 和 export 。在此之前，js想要实现模块化开发，需要依赖于非官方方案。 模块化历史 最早期：IIFE 最开始为了避免在全局作用域执行代码，开发者使用IIFE将代码封装在函数作用域内。 CommonJs…","timeToRead":1,"slug":"/webpack是如何处理-esm的","route":"/webpack是如何处理-esm的","pathName":"/leon-blog/webpack是如何处理-esm的","url":"https://missmess.github.io/leon-blog/webpack是如何处理-esm的"},{"title":"一文详解前端工程化基础架构","description":"详细介绍完整的前端工程化建设所包含的工具、模块、框架、库","coverImg":{"layout":"constrained","placeholder":{"fallback":"data:image/jpeg;base64,/9j/2wBDABALDA4MChAODQ4SERATGCgaGBYWGDEjJR0oOjM9PDkzODdASFxOQERXRTc4UG1RV19iZ2hnPk1xeXBkeFxlZ2P/2wBDARESEhgVGC8aGi9jQjhCY2NjY2NjY2NjY2NjY2NjY2NjY2NjY2NjY2NjY2NjY2NjY2NjY2NjY2NjY2NjY2NjY2P/wgARCAAKABQDASIAAhEBAxEB/8QAFwABAAMAAAAAAAAAAAAAAAAAAAECBf/EABUBAQEAAAAAAAAAAAAAAAAAAAAB/9oADAMBAAIQAxAAAAHbIqwj/8QAFBABAAAAAAAAAAAAAAAAAAAAIP/aAAgBAQABBQJf/8QAFBEBAAAAAAAAAAAAAAAAAAAAEP/aAAgBAwEBPwE//8QAFBEBAAAAAAAAAAAAAAAAAAAAEP/aAAgBAgEBPwE//8QAFBABAAAAAAAAAAAAAAAAAAAAIP/aAAgBAQAGPwJf/8QAFxAAAwEAAAAAAAAAAAAAAAAAAAEREP/aAAgBAQABPyGEQtR//9oADAMBAAIAAwAAABCXP//EABYRAAMAAAAAAAAAAAAAAAAAAAEQEf/aAAgBAwEBPxCBf//EABcRAAMBAAAAAAAAAAAAAAAAAAABEVH/2gAIAQIBAT8Qj0j0/8QAHBAAAgICAwAAAAAAAAAAAAAAAAERMSGRQXHh/9oACAEBAAE/EGk8bOjYqj0aWRpTRQ//2Q=="},"backgroundColor":"transparent","images":{"fallback":{"src":"/leon-blog/static/a0de84897a621c2f46fec7062a4747f7/fff17/fe_infra.jpg","srcSet":"/leon-blog/static/a0de84897a621c2f46fec7062a4747f7/9fa5a/fe_infra.jpg 184w,\n/leon-blog/static/a0de84897a621c2f46fec7062a4747f7/63e75/fe_infra.jpg 368w,\n/leon-blog/static/a0de84897a621c2f46fec7062a4747f7/fff17/fe_infra.jpg 736w","sizes":"(min-width: 736px) 736px, 100vw"},"sources":[{"srcSet":"/leon-blog/static/a0de84897a621c2f46fec7062a4747f7/9d028/fe_infra.avif 184w,\n/leon-blog/static/a0de84897a621c2f46fec7062a4747f7/c6ee4/fe_infra.avif 368w,\n/leon-blog/static/a0de84897a621c2f46fec7062a4747f7/b4627/fe_infra.avif 736w","type":"image/avif","sizes":"(min-width: 736px) 736px, 100vw"},{"srcSet":"/leon-blog/static/a0de84897a621c2f46fec7062a4747f7/ef27d/fe_infra.webp 184w,\n/leon-blog/static/a0de84897a621c2f46fec7062a4747f7/4ae45/fe_infra.webp 368w,\n/leon-blog/static/a0de84897a621c2f46fec7062a4747f7/20e6b/fe_infra.webp 736w","type":"image/webp","sizes":"(min-width: 736px) 736px, 100vw"}]},"width":736,"height":368},"coverImageAlt":"封面","datePublished":"2023-01-10T22:20:40.000Z","dateModified":"2023-01-10T22:20:40.000Z","category":"经验总结","tags":["前端","架构","微前端","低代码","模块联邦","组件化"],"excerpt":"…","timeToRead":2,"slug":"/fe-infra","route":"/fe-infra","pathName":"/leon-blog/fe-infra","url":"https://missmess.github.io/leon-blog/fe-infra"},{"title":"渲染流程：Vue vs React","description":"对比Vue2和React15渲染流程中的原理和差异","coverImg":{"layout":"constrained","placeholder":{"fallback":"data:image/jpeg;base64,/9j/2wBDABALDA4MChAODQ4SERATGCgaGBYWGDEjJR0oOjM9PDkzODdASFxOQERXRTc4UG1RV19iZ2hnPk1xeXBkeFxlZ2P/2wBDARESEhgVGC8aGi9jQjhCY2NjY2NjY2NjY2NjY2NjY2NjY2NjY2NjY2NjY2NjY2NjY2NjY2NjY2NjY2NjY2NjY2P/wgARCAALABQDASIAAhEBAxEB/8QAGAAAAwEBAAAAAAAAAAAAAAAAAAIDAQT/xAAVAQEBAAAAAAAAAAAAAAAAAAABBP/aAAwDAQACEAMQAAABjHOdmUYaP//EABoQAAICAwAAAAAAAAAAAAAAAAECABEDECL/2gAIAQEAAQUCBmTtmWje/wD/xAAYEQACAwAAAAAAAAAAAAAAAAACAxARIf/aAAgBAwEBPwFYbcf/xAAVEQEBAAAAAAAAAAAAAAAAAAAAEf/aAAgBAgEBPwFX/8QAGBAAAgMAAAAAAAAAAAAAAAAAAAERICH/2gAIAQEABj8CEpyv/8QAGRAAAwEBAQAAAAAAAAAAAAAAAAERIRBR/9oACAEBAAE/IcLSIuPBDUtKnf/aAAwDAQACAAMAAAAQgw//xAAXEQADAQAAAAAAAAAAAAAAAAABEBFR/9oACAEDAQE/EBVhf//EABYRAQEBAAAAAAAAAAAAAAAAAAEREP/aAAgBAgEBPxAI3H//xAAbEAEAAgMBAQAAAAAAAAAAAAABESEAQYEQMf/aAAgBAQABPxDSI+JuctaBm1PcV+A04ombCDnv/9k="},"backgroundColor":"transparent","images":{"fallback":{"src":"/leon-blog/static/569bdc688231d02bc094191ee14f8ee4/4710f/vuevsreact.jpg","srcSet":"/leon-blog/static/569bdc688231d02bc094191ee14f8ee4/002be/vuevsreact.jpg 165w,\n/leon-blog/static/569bdc688231d02bc094191ee14f8ee4/b4f54/vuevsreact.jpg 330w,\n/leon-blog/static/569bdc688231d02bc094191ee14f8ee4/4710f/vuevsreact.jpg 659w,\n/leon-blog/static/569bdc688231d02bc094191ee14f8ee4/eeb57/vuevsreact.jpg 1318w","sizes":"(min-width: 659px) 659px, 100vw"},"sources":[{"srcSet":"/leon-blog/static/569bdc688231d02bc094191ee14f8ee4/79731/vuevsreact.avif 165w,\n/leon-blog/static/569bdc688231d02bc094191ee14f8ee4/6ae0f/vuevsreact.avif 330w,\n/leon-blog/static/569bdc688231d02bc094191ee14f8ee4/b9b98/vuevsreact.avif 659w,\n/leon-blog/static/569bdc688231d02bc094191ee14f8ee4/4ddb9/vuevsreact.avif 1318w","type":"image/avif","sizes":"(min-width: 659px) 659px, 100vw"},{"srcSet":"/leon-blog/static/569bdc688231d02bc094191ee14f8ee4/55a9a/vuevsreact.webp 165w,\n/leon-blog/static/569bdc688231d02bc094191ee14f8ee4/39687/vuevsreact.webp 330w,\n/leon-blog/static/569bdc688231d02bc094191ee14f8ee4/62d22/vuevsreact.webp 659w,\n/leon-blog/static/569bdc688231d02bc094191ee14f8ee4/6c1b1/vuevsreact.webp 1318w","type":"image/webp","sizes":"(min-width: 659px) 659px, 100vw"}]},"width":659,"height":368},"coverImageAlt":"cover","datePublished":"2023-01-04T08:05:58.604Z","dateModified":"2023-01-04T08:05:58.610Z","category":"经验总结","tags":["前端","架构","Vue2","React"],"excerpt":"本文主要从渲染流程中对比Vue和React的原理和结构差异。其中Vue使用的是Vue2，React是React15。 架构 Vue Vue中，每个组件都有一个Vue实例。渲染、挂载、卸载、子组件管理、响应式都在这个实例内进行。所有功能以实例为载体实现。 每个Vue…","timeToRead":1,"slug":"/vue-react-render","route":"/vue-react-render","pathName":"/leon-blog/vue-react-render","url":"https://missmess.github.io/leon-blog/vue-react-render"},{"title":"【造轮子】Vue双端diff算法","description":"结合之前手写的的Vue，加上diff算法实现差量更新dom","coverImg":{"layout":"constrained","placeholder":{"fallback":"data:image/jpeg;base64,/9j/2wBDABALDA4MChAODQ4SERATGCgaGBYWGDEjJR0oOjM9PDkzODdASFxOQERXRTc4UG1RV19iZ2hnPk1xeXBkeFxlZ2P/2wBDARESEhgVGC8aGi9jQjhCY2NjY2NjY2NjY2NjY2NjY2NjY2NjY2NjY2NjY2NjY2NjY2NjY2NjY2NjY2NjY2NjY2P/wgARCAAKABQDASIAAhEBAxEB/8QAFwABAQEBAAAAAAAAAAAAAAAAAAECBf/EABQBAQAAAAAAAAAAAAAAAAAAAAD/2gAMAwEAAhADEAAAAe9NAo//xAAVEAEBAAAAAAAAAAAAAAAAAAABIP/aAAgBAQABBQJr/8QAFBEBAAAAAAAAAAAAAAAAAAAAEP/aAAgBAwEBPwE//8QAFBEBAAAAAAAAAAAAAAAAAAAAEP/aAAgBAgEBPwE//8QAFBABAAAAAAAAAAAAAAAAAAAAIP/aAAgBAQAGPwJf/8QAGRAAAgMBAAAAAAAAAAAAAAAAAAEQMUEh/9oACAEBAAE/IUoafLjTY//aAAwDAQACAAMAAAAQAw//xAAUEQEAAAAAAAAAAAAAAAAAAAAQ/9oACAEDAQE/ED//xAAUEQEAAAAAAAAAAAAAAAAAAAAQ/9oACAECAQE/ED//xAAaEAEAAgMBAAAAAAAAAAAAAAABETEAECFR/9oACAEBAAE/EGWM8eximFH3TTGmv//Z"},"backgroundColor":"transparent","images":{"fallback":{"src":"/leon-blog/static/41f9f7e66245a805f0e2669c3ee51465/c75c8/vue-diff.jpg","srcSet":"/leon-blog/static/41f9f7e66245a805f0e2669c3ee51465/4a515/vue-diff.jpg 172w,\n/leon-blog/static/41f9f7e66245a805f0e2669c3ee51465/818fc/vue-diff.jpg 344w,\n/leon-blog/static/41f9f7e66245a805f0e2669c3ee51465/c75c8/vue-diff.jpg 688w","sizes":"(min-width: 688px) 688px, 100vw"},"sources":[{"srcSet":"/leon-blog/static/41f9f7e66245a805f0e2669c3ee51465/98980/vue-diff.avif 172w,\n/leon-blog/static/41f9f7e66245a805f0e2669c3ee51465/2a756/vue-diff.avif 344w,\n/leon-blog/static/41f9f7e66245a805f0e2669c3ee51465/44a4e/vue-diff.avif 688w","type":"image/avif","sizes":"(min-width: 688px) 688px, 100vw"},{"srcSet":"/leon-blog/static/41f9f7e66245a805f0e2669c3ee51465/24a77/vue-diff.webp 172w,\n/leon-blog/static/41f9f7e66245a805f0e2669c3ee51465/5f47c/vue-diff.webp 344w,\n/leon-blog/static/41f9f7e66245a805f0e2669c3ee51465/ee976/vue-diff.webp 688w","type":"image/webp","sizes":"(min-width: 688px) 688px, 100vw"}]},"width":688,"height":344},"coverImageAlt":"封面","datePublished":"2022-09-28T12:52:49.000Z","dateModified":"2022-09-28T12:52:49.000Z","category":"经验总结","tags":["前端","Vue2","架构","造轮子"],"excerpt":"去年抽空花了半天时间，手敲了个 Vue的简易版 ，能够实现Vue的常规使用、响应式、虚拟dom、组件化等。但是布局渲染部分，是使用的虚拟dom转换为真实dom，然后全量插入到Vue的根节点。每次刷新都是全量，这个性能可见一斑。 这次花点时间，在原来版本的基础上，尝试加上VNode…","timeToRead":1,"slug":"/vue-demo-diff","route":"/vue-demo-diff","pathName":"/leon-blog/vue-demo-diff","url":"https://missmess.github.io/leon-blog/vue-demo-diff"}]}}},"staticQueryHashes":["2792541146","2845918323"]}