{"componentChunkName":"component---themes-amaranth-src-gatsby-theme-advanced-templates-feed-index-tsx","path":"/tag/Vue2","result":{"pageContext":{"totalCount":6,"pageCount":2,"pageIndex":0,"feedType":"tag","feedId":"Vue2","feedPageMeta":{"current":0,"next":1,"nextCount":1,"posts":[{"title":"CSS即时通（App+后台）","description":"CSS即时通为集团内部通讯和办公app","coverImg":{"layout":"constrained","placeholder":{"fallback":"data:image/jpeg;base64,/9j/2wBDABALDA4MChAODQ4SERATGCgaGBYWGDEjJR0oOjM9PDkzODdASFxOQERXRTc4UG1RV19iZ2hnPk1xeXBkeFxlZ2P/2wBDARESEhgVGC8aGi9jQjhCY2NjY2NjY2NjY2NjY2NjY2NjY2NjY2NjY2NjY2NjY2NjY2NjY2NjY2NjY2NjY2NjY2P/wgARCAAKABQDASIAAhEBAxEB/8QAFwAAAwEAAAAAAAAAAAAAAAAAAAIEBf/EABUBAQEAAAAAAAAAAAAAAAAAAAIB/9oADAMBAAIQAxAAAAGI25mGGFP/xAAaEAACAwEBAAAAAAAAAAAAAAAAAQIDEhMh/9oACAEBAAEFAubM+VUQxAuSGf/EABQRAQAAAAAAAAAAAAAAAAAAABD/2gAIAQMBAT8BP//EABQRAQAAAAAAAAAAAAAAAAAAABD/2gAIAQIBAT8BP//EABkQAAIDAQAAAAAAAAAAAAAAAAEQABIxcf/aAAgBAQAGPwLChbWOT//EABoQAAIDAQEAAAAAAAAAAAAAAAARASExUbH/2gAIAQEAAT8hpdXUTCqvpAVcr0lSGMjDwH//2gAMAwEAAgADAAAAEJzP/8QAFREBAQAAAAAAAAAAAAAAAAAAABH/2gAIAQMBAT8QV//EABcRAAMBAAAAAAAAAAAAAAAAAAABEVH/2gAIAQIBAT8QRHp//8QAGxABAAMBAQEBAAAAAAAAAAAAAQARITHwQZH/2gAIAQEAAT8QEJsNaV+ypt2r8V64riHpFDEtZp6X3IDGWM5Fnhk//9k="},"backgroundColor":"transparent","images":{"fallback":{"src":"/leon-blog/static/b87a048b248279d79fc4611a699e5d89/923d1/cover.jpg","srcSet":"/leon-blog/static/b87a048b248279d79fc4611a699e5d89/f6d4d/cover.jpg 187w,\n/leon-blog/static/b87a048b248279d79fc4611a699e5d89/afab3/cover.jpg 375w,\n/leon-blog/static/b87a048b248279d79fc4611a699e5d89/923d1/cover.jpg 749w","sizes":"(min-width: 749px) 749px, 100vw"},"sources":[{"srcSet":"/leon-blog/static/b87a048b248279d79fc4611a699e5d89/776cd/cover.avif 187w,\n/leon-blog/static/b87a048b248279d79fc4611a699e5d89/4e433/cover.avif 375w,\n/leon-blog/static/b87a048b248279d79fc4611a699e5d89/8cb79/cover.avif 749w","type":"image/avif","sizes":"(min-width: 749px) 749px, 100vw"},{"srcSet":"/leon-blog/static/b87a048b248279d79fc4611a699e5d89/e009f/cover.webp 187w,\n/leon-blog/static/b87a048b248279d79fc4611a699e5d89/9a123/cover.webp 375w,\n/leon-blog/static/b87a048b248279d79fc4611a699e5d89/b31e0/cover.webp 749w","type":"image/webp","sizes":"(min-width: 749px) 749px, 100vw"}]},"width":749,"height":367.99999999999994},"coverImageAlt":"封面","datePublished":"2023-10-27T13:44:33.000Z","dateModified":"2023-10-27T13:44:33.000Z","category":"应用项目","tags":["Android端","Java","前端","Vue2","Vant","Hybrid"],"excerpt":"CSS即时通为集团内部通讯和办公app。 导航 主要功能 我的职责 技术实现 员工端App截图 管理端App截图 管理后台截图 主要功能 实时告警传达到对应组成员，app弹出系统级通知弹窗。 查看组织架构通讯录。 发起OA…","timeToRead":1,"slug":"/css即时通（-app-后台）","route":"/css即时通（-app-后台）","pathName":"/leon-blog/css即时通（-app-后台）","url":"https://missmess.github.io/leon-blog/css即时通（-app-后台）"},{"title":"云流","description":"云流是低代码B端数据平台","coverImg":{"layout":"constrained","placeholder":{"fallback":"data:image/jpeg;base64,/9j/2wBDABALDA4MChAODQ4SERATGCgaGBYWGDEjJR0oOjM9PDkzODdASFxOQERXRTc4UG1RV19iZ2hnPk1xeXBkeFxlZ2P/2wBDARESEhgVGC8aGi9jQjhCY2NjY2NjY2NjY2NjY2NjY2NjY2NjY2NjY2NjY2NjY2NjY2NjY2NjY2NjY2NjY2NjY2P/wgARCAAKABQDASIAAhEBAxEB/8QAFgABAQEAAAAAAAAAAAAAAAAAAAMF/8QAFQEBAQAAAAAAAAAAAAAAAAAAAAH/2gAMAwEAAhADEAAAAdi0qoC//8QAFhAAAwAAAAAAAAAAAAAAAAAAAxAz/9oACAEBAAEFAgyQpL//xAAUEQEAAAAAAAAAAAAAAAAAAAAQ/9oACAEDAQE/AT//xAAUEQEAAAAAAAAAAAAAAAAAAAAQ/9oACAECAQE/AT//xAAWEAADAAAAAAAAAAAAAAAAAAACEHH/2gAIAQEABj8CCMI//8QAGxAAAQQDAAAAAAAAAAAAAAAAEAABIbExcaH/2gAIAQEAAT8hhq0suOLR/9oADAMBAAIAAwAAABC/z//EABQRAQAAAAAAAAAAAAAAAAAAABD/2gAIAQMBAT8QP//EABYRAAMAAAAAAAAAAAAAAAAAAAEQMf/aAAgBAgEBPxA1f//EABsQAAMAAgMAAAAAAAAAAAAAAAERIQAQQVHw/9oACAEBAAE/EACa7xzGIMVE1Pjjf//Z"},"backgroundColor":"transparent","images":{"fallback":{"src":"/leon-blog/static/b81b450d344d4380aa1e14c693215564/4bfa0/dashboard.jpg","srcSet":"/leon-blog/static/b81b450d344d4380aa1e14c693215564/891f5/dashboard.jpg 176w,\n/leon-blog/static/b81b450d344d4380aa1e14c693215564/e8926/dashboard.jpg 353w,\n/leon-blog/static/b81b450d344d4380aa1e14c693215564/4bfa0/dashboard.jpg 705w,\n/leon-blog/static/b81b450d344d4380aa1e14c693215564/62351/dashboard.jpg 1410w","sizes":"(min-width: 705px) 705px, 100vw"},"sources":[{"srcSet":"/leon-blog/static/b81b450d344d4380aa1e14c693215564/94818/dashboard.avif 176w,\n/leon-blog/static/b81b450d344d4380aa1e14c693215564/e6b06/dashboard.avif 353w,\n/leon-blog/static/b81b450d344d4380aa1e14c693215564/a9331/dashboard.avif 705w,\n/leon-blog/static/b81b450d344d4380aa1e14c693215564/99654/dashboard.avif 1410w","type":"image/avif","sizes":"(min-width: 705px) 705px, 100vw"},{"srcSet":"/leon-blog/static/b81b450d344d4380aa1e14c693215564/76df1/dashboard.webp 176w,\n/leon-blog/static/b81b450d344d4380aa1e14c693215564/21f4f/dashboard.webp 353w,\n/leon-blog/static/b81b450d344d4380aa1e14c693215564/51247/dashboard.webp 705w,\n/leon-blog/static/b81b450d344d4380aa1e14c693215564/aa183/dashboard.webp 1410w","type":"image/webp","sizes":"(min-width: 705px) 705px, 100vw"}]},"width":705,"height":368},"coverImageAlt":"云流工作台","datePublished":"2023-03-11T09:40:09.000Z","dateModified":"2023-03-11T09:40:09.000Z","category":"应用项目","tags":["前端","Vue2","ElementUI","低代码"],"excerpt":"云流 是低代码的B端管理后台+数据平台产品。 访问地址： http://114.55.92.229/backstage/ 参考： yudao…","timeToRead":1,"slug":"/云流","route":"/云流","pathName":"/leon-blog/云流","url":"https://missmess.github.io/leon-blog/云流"},{"title":"min-ruoyi","description":"ruoyi-vue优化后的最简版本，可以作为常用后台的脚手架","coverImg":{"layout":"constrained","placeholder":{"fallback":"data:image/jpeg;base64,/9j/2wBDABALDA4MChAODQ4SERATGCgaGBYWGDEjJR0oOjM9PDkzODdASFxOQERXRTc4UG1RV19iZ2hnPk1xeXBkeFxlZ2P/2wBDARESEhgVGC8aGi9jQjhCY2NjY2NjY2NjY2NjY2NjY2NjY2NjY2NjY2NjY2NjY2NjY2NjY2NjY2NjY2NjY2NjY2P/wgARCAAKABQDASIAAhEBAxEB/8QAFgABAQEAAAAAAAAAAAAAAAAAAAQF/8QAFgEBAQEAAAAAAAAAAAAAAAAAAgAB/9oADAMBAAIQAxAAAAGnREQ2/8QAGBAAAgMAAAAAAAAAAAAAAAAAAhEEIDL/2gAIAQEAAQUClNBmn//EABQRAQAAAAAAAAAAAAAAAAAAABD/2gAIAQMBAT8BP//EABQRAQAAAAAAAAAAAAAAAAAAABD/2gAIAQIBAT8BP//EABwQAAEDBQAAAAAAAAAAAAAAAAIAARESICExQf/aAAgBAQAGPwIYOlN3G7f/xAAbEAACAQUAAAAAAAAAAAAAAAABIQARIDFhcf/aAAgBAQABPyFKUm8Vm2jq3//aAAwDAQACAAMAAAAQCA//xAAVEQEBAAAAAAAAAAAAAAAAAAABEP/aAAgBAwEBPxAn/8QAFhEAAwAAAAAAAAAAAAAAAAAAARAh/9oACAECAQE/EDV//8QAGxABAQADAAMAAAAAAAAAAAAAEQEAEDEhUXH/2gAIAQEAAT8QESXFqk9YBqfB4d0S9mGv/9k="},"backgroundColor":"transparent","images":{"fallback":{"src":"/leon-blog/static/0df1386c1ae5988f8bf01e978867242a/dba67/cover.jpg","srcSet":"/leon-blog/static/0df1386c1ae5988f8bf01e978867242a/891f5/cover.jpg 176w,\n/leon-blog/static/0df1386c1ae5988f8bf01e978867242a/19cc4/cover.jpg 352w,\n/leon-blog/static/0df1386c1ae5988f8bf01e978867242a/dba67/cover.jpg 704w","sizes":"(min-width: 704px) 704px, 100vw"},"sources":[{"srcSet":"/leon-blog/static/0df1386c1ae5988f8bf01e978867242a/94818/cover.avif 176w,\n/leon-blog/static/0df1386c1ae5988f8bf01e978867242a/bd4f6/cover.avif 352w,\n/leon-blog/static/0df1386c1ae5988f8bf01e978867242a/2856f/cover.avif 704w","type":"image/avif","sizes":"(min-width: 704px) 704px, 100vw"},{"srcSet":"/leon-blog/static/0df1386c1ae5988f8bf01e978867242a/76df1/cover.webp 176w,\n/leon-blog/static/0df1386c1ae5988f8bf01e978867242a/d3e0a/cover.webp 352w,\n/leon-blog/static/0df1386c1ae5988f8bf01e978867242a/b4509/cover.webp 704w","type":"image/webp","sizes":"(min-width: 704px) 704px, 100vw"}]},"width":704,"height":368},"coverImageAlt":"封面","datePublished":"2023-01-04T20:09:19.000Z","dateModified":"2023-01-04T20:09:19.000Z","category":"框架工具","tags":["前端","Vue2","脚手架","开源","低代码"],"excerpt":"min-ruoyi是将ruoyi-vue优化后的最简版本，可以作为ruoyi后台管理项目的启动脚手架 gitee仓库： https://gitee.com/missmess/min-ruoyi-vue2-ui-starter 有什么变化？ 官方的ruoyi-vue…","timeToRead":1,"slug":"/min-ruoyi","route":"/min-ruoyi","pathName":"/leon-blog/min-ruoyi","url":"https://missmess.github.io/leon-blog/min-ruoyi"},{"title":"优优小班-AI标注平台","description":"用于老师、学生音视频标注","coverImg":{"layout":"constrained","placeholder":{"fallback":"data:image/jpeg;base64,/9j/2wBDABALDA4MChAODQ4SERATGCgaGBYWGDEjJR0oOjM9PDkzODdASFxOQERXRTc4UG1RV19iZ2hnPk1xeXBkeFxlZ2P/2wBDARESEhgVGC8aGi9jQjhCY2NjY2NjY2NjY2NjY2NjY2NjY2NjY2NjY2NjY2NjY2NjY2NjY2NjY2NjY2NjY2NjY2P/wgARCAAKABQDASIAAhEBAxEB/8QAFwAAAwEAAAAAAAAAAAAAAAAAAAMEAv/EABUBAQEAAAAAAAAAAAAAAAAAAAEA/9oADAMBAAIQAxAAAAGvU7BcJI//xAAZEAEBAQADAAAAAAAAAAAAAAABEQIhMUH/2gAIAQEAAQUCJPMdKzDxlZ//xAAUEQEAAAAAAAAAAAAAAAAAAAAQ/9oACAEDAQE/AT//xAAUEQEAAAAAAAAAAAAAAAAAAAAQ/9oACAECAQE/AT//xAAaEAADAAMBAAAAAAAAAAAAAAAAASEQMUHw/9oACAEBAAY/Al0u8K+gxU//xAAdEAACAgIDAQAAAAAAAAAAAAABMQARYZEhQVHB/9oACAEBAAE/IWFaYlgCKHhaxPGtDyNDcGYWPkaiHeJ//9oADAMBAAIAAwAAABAQ/wD/xAAUEQEAAAAAAAAAAAAAAAAAAAAQ/9oACAEDAQE/ED//xAAUEQEAAAAAAAAAAAAAAAAAAAAQ/9oACAECAQE/ED//xAAdEAACAgMAAwAAAAAAAAAAAAABEQAhMUFRYXGh/9oACAEBAAE/EDNoBAdWOLiEjIBs93iKLNbFlMwUACGKbsGv9x4n6ZnE/9k="},"backgroundColor":"transparent","images":{"fallback":{"src":"/leon-blog/static/90be46c143f793d2db59bde3f2905ca9/a5027/aitag.jpg","srcSet":"/leon-blog/static/90be46c143f793d2db59bde3f2905ca9/9fa5a/aitag.jpg 184w,\n/leon-blog/static/90be46c143f793d2db59bde3f2905ca9/0b64e/aitag.jpg 369w,\n/leon-blog/static/90be46c143f793d2db59bde3f2905ca9/a5027/aitag.jpg 737w","sizes":"(min-width: 737px) 737px, 100vw"},"sources":[{"srcSet":"/leon-blog/static/90be46c143f793d2db59bde3f2905ca9/9d028/aitag.avif 184w,\n/leon-blog/static/90be46c143f793d2db59bde3f2905ca9/6964f/aitag.avif 369w,\n/leon-blog/static/90be46c143f793d2db59bde3f2905ca9/a4fd3/aitag.avif 737w","type":"image/avif","sizes":"(min-width: 737px) 737px, 100vw"},{"srcSet":"/leon-blog/static/90be46c143f793d2db59bde3f2905ca9/ef27d/aitag.webp 184w,\n/leon-blog/static/90be46c143f793d2db59bde3f2905ca9/696e0/aitag.webp 369w,\n/leon-blog/static/90be46c143f793d2db59bde3f2905ca9/abd43/aitag.webp 737w","type":"image/webp","sizes":"(min-width: 737px) 737px, 100vw"}]},"width":737,"height":368},"coverImageAlt":"封面","datePublished":"2020-06-12T23:10:09.000Z","dateModified":"2020-06-12T23:10:09.000Z","category":"应用项目","tags":["Android端","后端","Node.js","Express","脚本","前端","Vue2"],"excerpt":"AI标注平台用于标注人员对老师和学生音频转文字标注、学生图像在框识别标注。 标注平台及配套设施包括： AI标注平台web端 标注平台web端，用于标注人员在线上直接标注和查看标注结果。支持老师和学生音频转文字标注，支持学生图像在框识别标注。 交互形式为类似windows…","timeToRead":1,"slug":"/优优小班-ai标注平台","route":"/优优小班-ai标注平台","pathName":"/leon-blog/优优小班-ai标注平台","url":"https://missmess.github.io/leon-blog/优优小班-ai标注平台"},{"title":"优优小班课公众号","description":"优优小班课-微信公众号项目","coverImg":{"layout":"constrained","placeholder":{"fallback":"data:image/jpeg;base64,/9j/2wBDABALDA4MChAODQ4SERATGCgaGBYWGDEjJR0oOjM9PDkzODdASFxOQERXRTc4UG1RV19iZ2hnPk1xeXBkeFxlZ2P/2wBDARESEhgVGC8aGi9jQjhCY2NjY2NjY2NjY2NjY2NjY2NjY2NjY2NjY2NjY2NjY2NjY2NjY2NjY2NjY2NjY2NjY2P/wgARCAAKABQDASIAAhEBAxEB/8QAFwAAAwEAAAAAAAAAAAAAAAAAAAIDBf/EABYBAQEBAAAAAAAAAAAAAAAAAAEDBP/aAAwDAQACEAMQAAAB10oYKTHB/8QAFhAAAwAAAAAAAAAAAAAAAAAAACAh/9oACAEBAAEFAir/AP/EABQRAQAAAAAAAAAAAAAAAAAAABD/2gAIAQMBAT8BP//EABQRAQAAAAAAAAAAAAAAAAAAABD/2gAIAQIBAT8BP//EABYQAAMAAAAAAAAAAAAAAAAAAAAgQf/aAAgBAQAGPwIi/wD/xAAaEAACAgMAAAAAAAAAAAAAAAAAAREgITFx/9oACAEBAAE/IWb5cODp/9oADAMBAAIAAwAAABDP/wD/xAAVEQEBAAAAAAAAAAAAAAAAAAAAEf/aAAgBAwEBPxBX/8QAFREBAQAAAAAAAAAAAAAAAAAAABH/2gAIAQIBAT8QR//EABoQAAIDAQEAAAAAAAAAAAAAAAERACFhEDH/2gAIAQEAAT8Q8UQ9iRoInALrpE//2Q=="},"backgroundColor":"transparent","images":{"fallback":{"src":"/leon-blog/static/822b68624be567da7ce38cbfcb473eb7/fff17/public_cover.jpg","srcSet":"/leon-blog/static/822b68624be567da7ce38cbfcb473eb7/9fa5a/public_cover.jpg 184w,\n/leon-blog/static/822b68624be567da7ce38cbfcb473eb7/63e75/public_cover.jpg 368w,\n/leon-blog/static/822b68624be567da7ce38cbfcb473eb7/fff17/public_cover.jpg 736w","sizes":"(min-width: 736px) 736px, 100vw"},"sources":[{"srcSet":"/leon-blog/static/822b68624be567da7ce38cbfcb473eb7/9d028/public_cover.avif 184w,\n/leon-blog/static/822b68624be567da7ce38cbfcb473eb7/c6ee4/public_cover.avif 368w,\n/leon-blog/static/822b68624be567da7ce38cbfcb473eb7/b4627/public_cover.avif 736w","type":"image/avif","sizes":"(min-width: 736px) 736px, 100vw"},{"srcSet":"/leon-blog/static/822b68624be567da7ce38cbfcb473eb7/ef27d/public_cover.webp 184w,\n/leon-blog/static/822b68624be567da7ce38cbfcb473eb7/4ae45/public_cover.webp 368w,\n/leon-blog/static/822b68624be567da7ce38cbfcb473eb7/20e6b/public_cover.webp 736w","type":"image/webp","sizes":"(min-width: 736px) 736px, 100vw"}]},"width":736,"height":368},"coverImageAlt":"封面","datePublished":"2019-10-28T13:49:02.000Z","dateModified":"2019-10-28T13:49:02.000Z","category":"应用项目","tags":["前端","Vue2","Vant","公众号"],"excerpt":"…","timeToRead":1,"slug":"/优优小班课公众号","route":"/优优小班课公众号","pathName":"/leon-blog/优优小班课公众号","url":"https://missmess.github.io/leon-blog/优优小班课公众号"}]}}},"staticQueryHashes":["2792541146","2845918323"]}