{"componentChunkName":"component---themes-amaranth-src-gatsby-theme-advanced-templates-feed-index-tsx","path":"/tag/Android端","result":{"pageContext":{"totalCount":19,"pageCount":4,"pageIndex":0,"feedType":"tag","feedId":"Android端","feedPageMeta":{"current":0,"next":1,"nextCount":5,"posts":[{"title":"秒聊","description":"秒聊是附近陌生人交友APP","coverImg":{"layout":"constrained","placeholder":{"fallback":"data:image/jpeg;base64,/9j/2wBDABALDA4MChAODQ4SERATGCgaGBYWGDEjJR0oOjM9PDkzODdASFxOQERXRTc4UG1RV19iZ2hnPk1xeXBkeFxlZ2P/2wBDARESEhgVGC8aGi9jQjhCY2NjY2NjY2NjY2NjY2NjY2NjY2NjY2NjY2NjY2NjY2NjY2NjY2NjY2NjY2NjY2NjY2P/wgARCAAKABQDASIAAhEBAxEB/8QAFgABAQEAAAAAAAAAAAAAAAAABAAD/8QAFgEBAQEAAAAAAAAAAAAAAAAABAED/9oADAMBAAIQAxAAAAFpGmVoW0kT/8QAFxABAQEBAAAAAAAAAAAAAAAAAQIQIf/aAAgBAQABBQJOVLJl5//EABURAQEAAAAAAAAAAAAAAAAAAAEQ/9oACAEDAQE/ASf/xAAWEQADAAAAAAAAAAAAAAAAAAACEDH/2gAIAQIBAT8BGr//xAAWEAADAAAAAAAAAAAAAAAAAAAAICH/2gAIAQEABj8CKv8A/8QAGhABAAIDAQAAAAAAAAAAAAAAAQARECFBUf/aAAgBAQABPyGyClGvXHIldsZ//9oADAMBAAIAAwAAABBvH//EABcRAAMBAAAAAAAAAAAAAAAAAAABMUH/2gAIAQMBAT8QXB0//8QAFhEAAwAAAAAAAAAAAAAAAAAAAAER/9oACAECAQE/EGqFP//EABkQAQADAQEAAAAAAAAAAAAAAAEAETEhQf/aAAgBAQABPxBkDXkERCwDX2K3GKQiDwWAvJ//2Q=="},"backgroundColor":"transparent","images":{"fallback":{"src":"/leon-blog/static/5161908bbf11a18163ab53c3ac14a899/b8370/cover.jpg","srcSet":"/leon-blog/static/5161908bbf11a18163ab53c3ac14a899/fd641/cover.jpg 183w,\n/leon-blog/static/5161908bbf11a18163ab53c3ac14a899/a7075/cover.jpg 365w,\n/leon-blog/static/5161908bbf11a18163ab53c3ac14a899/b8370/cover.jpg 730w","sizes":"(min-width: 730px) 730px, 100vw"},"sources":[{"srcSet":"/leon-blog/static/5161908bbf11a18163ab53c3ac14a899/bd419/cover.avif 183w,\n/leon-blog/static/5161908bbf11a18163ab53c3ac14a899/474b1/cover.avif 365w,\n/leon-blog/static/5161908bbf11a18163ab53c3ac14a899/a15e0/cover.avif 730w","type":"image/avif","sizes":"(min-width: 730px) 730px, 100vw"},{"srcSet":"/leon-blog/static/5161908bbf11a18163ab53c3ac14a899/1be9d/cover.webp 183w,\n/leon-blog/static/5161908bbf11a18163ab53c3ac14a899/0eba5/cover.webp 365w,\n/leon-blog/static/5161908bbf11a18163ab53c3ac14a899/6127a/cover.webp 730w","type":"image/webp","sizes":"(min-width: 730px) 730px, 100vw"}]},"width":730,"height":366},"coverImageAlt":"封面","datePublished":"2023-12-29T10:07:49.000Z","dateModified":"2023-12-29T10:07:49.000Z","category":"应用项目","tags":["Android端","Uniapp","跨平台"],"excerpt":"秒聊 主打附近陌生人聊天交友。秒聊牵线能为你智能推荐最匹配你的异性，同城交友秒连接。 APP下载： http://miaoliao.siyisea.com/appdl/index.html…","timeToRead":1,"slug":"/秒聊","route":"/秒聊","pathName":"/leon-blog/秒聊","url":"https://miss2mess.github.io/leon-blog/秒聊"},{"title":"CSS即时通（App+后台）","description":"CSS即时通为集团内部通讯和办公app","coverImg":{"layout":"constrained","placeholder":{"fallback":"data:image/jpeg;base64,/9j/2wBDABALDA4MChAODQ4SERATGCgaGBYWGDEjJR0oOjM9PDkzODdASFxOQERXRTc4UG1RV19iZ2hnPk1xeXBkeFxlZ2P/2wBDARESEhgVGC8aGi9jQjhCY2NjY2NjY2NjY2NjY2NjY2NjY2NjY2NjY2NjY2NjY2NjY2NjY2NjY2NjY2NjY2NjY2P/wgARCAAKABQDASIAAhEBAxEB/8QAFwAAAwEAAAAAAAAAAAAAAAAAAAIEBf/EABUBAQEAAAAAAAAAAAAAAAAAAAIB/9oADAMBAAIQAxAAAAGI25mGGFP/xAAaEAACAwEBAAAAAAAAAAAAAAAAAQIDEhMh/9oACAEBAAEFAubM+VUQxAuSGf/EABQRAQAAAAAAAAAAAAAAAAAAABD/2gAIAQMBAT8BP//EABQRAQAAAAAAAAAAAAAAAAAAABD/2gAIAQIBAT8BP//EABkQAAIDAQAAAAAAAAAAAAAAAAEQABIxcf/aAAgBAQAGPwLChbWOT//EABoQAAIDAQEAAAAAAAAAAAAAAAARASExUbH/2gAIAQEAAT8hpdXUTCqvpAVcr0lSGMjDwH//2gAMAwEAAgADAAAAEJzP/8QAFREBAQAAAAAAAAAAAAAAAAAAABH/2gAIAQMBAT8QV//EABcRAAMBAAAAAAAAAAAAAAAAAAABEVH/2gAIAQIBAT8QRHp//8QAGxABAAMBAQEBAAAAAAAAAAAAAQARITHwQZH/2gAIAQEAAT8QEJsNaV+ypt2r8V64riHpFDEtZp6X3IDGWM5Fnhk//9k="},"backgroundColor":"transparent","images":{"fallback":{"src":"/leon-blog/static/b87a048b248279d79fc4611a699e5d89/923d1/cover.jpg","srcSet":"/leon-blog/static/b87a048b248279d79fc4611a699e5d89/f6d4d/cover.jpg 187w,\n/leon-blog/static/b87a048b248279d79fc4611a699e5d89/afab3/cover.jpg 375w,\n/leon-blog/static/b87a048b248279d79fc4611a699e5d89/923d1/cover.jpg 749w","sizes":"(min-width: 749px) 749px, 100vw"},"sources":[{"srcSet":"/leon-blog/static/b87a048b248279d79fc4611a699e5d89/776cd/cover.avif 187w,\n/leon-blog/static/b87a048b248279d79fc4611a699e5d89/4e433/cover.avif 375w,\n/leon-blog/static/b87a048b248279d79fc4611a699e5d89/8cb79/cover.avif 749w","type":"image/avif","sizes":"(min-width: 749px) 749px, 100vw"},{"srcSet":"/leon-blog/static/b87a048b248279d79fc4611a699e5d89/e009f/cover.webp 187w,\n/leon-blog/static/b87a048b248279d79fc4611a699e5d89/9a123/cover.webp 375w,\n/leon-blog/static/b87a048b248279d79fc4611a699e5d89/b31e0/cover.webp 749w","type":"image/webp","sizes":"(min-width: 749px) 749px, 100vw"}]},"width":749,"height":367.99999999999994},"coverImageAlt":"封面","datePublished":"2023-10-27T13:44:33.000Z","dateModified":"2023-10-27T13:44:33.000Z","category":"应用项目","tags":["Android端","Java","前端","Vue2","Vant","Hybrid"],"excerpt":"CSS即时通为集团内部通讯和办公app。 导航 主要功能 我的职责 技术实现 员工端App截图 管理端App截图 管理后台截图 主要功能 实时告警传达到对应组成员，app弹出系统级通知弹窗。 查看组织架构通讯录。 发起OA…","timeToRead":1,"slug":"/css即时通（-app-后台）","route":"/css即时通（-app-后台）","pathName":"/leon-blog/css即时通（-app-后台）","url":"https://miss2mess.github.io/leon-blog/css即时通（-app-后台）"},{"title":"社交百科","description":"答题得奖励，奖励可提现","coverImg":{"layout":"constrained","placeholder":{"fallback":"data:image/jpeg;base64,/9j/2wBDABALDA4MChAODQ4SERATGCgaGBYWGDEjJR0oOjM9PDkzODdASFxOQERXRTc4UG1RV19iZ2hnPk1xeXBkeFxlZ2P/2wBDARESEhgVGC8aGi9jQjhCY2NjY2NjY2NjY2NjY2NjY2NjY2NjY2NjY2NjY2NjY2NjY2NjY2NjY2NjY2NjY2NjY2P/wgARCAAKABQDASIAAhEBAxEB/8QAGAAAAgMAAAAAAAAAAAAAAAAAAAIDBAX/xAAVAQEBAAAAAAAAAAAAAAAAAAABAv/aAAwDAQACEAMQAAAB04rJUIOJ/8QAGBAAAgMAAAAAAAAAAAAAAAAAAQIRIDH/2gAIAQEAAQUCOJJr/8QAFhEBAQEAAAAAAAAAAAAAAAAAERAh/9oACAEDAQE/AXCf/8QAFBEBAAAAAAAAAAAAAAAAAAAAEP/aAAgBAgEBPwE//8QAFBABAAAAAAAAAAAAAAAAAAAAIP/aAAgBAQAGPwJf/8QAGRAAAgMBAAAAAAAAAAAAAAAAAREAITEg/9oACAEBAAE/IQRLYRC7oHFcXH//2gAMAwEAAgADAAAAEHTP/8QAFxEBAQEBAAAAAAAAAAAAAAAAAQARMf/aAAgBAwEBPxAAsdsv/8QAFhEBAQEAAAAAAAAAAAAAAAAAEQEA/9oACAECAQE/EK2rnf/EABsQAQACAgMAAAAAAAAAAAAAAAEAERAhMVFx/9oACAEBAAE/EEQLAodsPmHcNSuyecc4/9k="},"backgroundColor":"transparent","images":{"fallback":{"src":"/leon-blog/static/a7277484fc3f474a421690674c09c3e8/1a18e/cover.jpg","srcSet":"/leon-blog/static/a7277484fc3f474a421690674c09c3e8/38847/cover.jpg 185w,\n/leon-blog/static/a7277484fc3f474a421690674c09c3e8/0b64e/cover.jpg 369w,\n/leon-blog/static/a7277484fc3f474a421690674c09c3e8/1a18e/cover.jpg 738w,\n/leon-blog/static/a7277484fc3f474a421690674c09c3e8/6f66e/cover.jpg 1476w","sizes":"(min-width: 738px) 738px, 100vw"},"sources":[{"srcSet":"/leon-blog/static/a7277484fc3f474a421690674c09c3e8/e48a9/cover.avif 185w,\n/leon-blog/static/a7277484fc3f474a421690674c09c3e8/6964f/cover.avif 369w,\n/leon-blog/static/a7277484fc3f474a421690674c09c3e8/09253/cover.avif 738w,\n/leon-blog/static/a7277484fc3f474a421690674c09c3e8/4b69b/cover.avif 1476w","type":"image/avif","sizes":"(min-width: 738px) 738px, 100vw"},{"srcSet":"/leon-blog/static/a7277484fc3f474a421690674c09c3e8/3edfa/cover.webp 185w,\n/leon-blog/static/a7277484fc3f474a421690674c09c3e8/696e0/cover.webp 369w,\n/leon-blog/static/a7277484fc3f474a421690674c09c3e8/b1703/cover.webp 738w,\n/leon-blog/static/a7277484fc3f474a421690674c09c3e8/97584/cover.webp 1476w","type":"image/webp","sizes":"(min-width: 738px) 738px, 100vw"}]},"width":738,"height":368},"coverImageAlt":"封面","datePublished":"2022-12-03T21:11:05.000Z","dateModified":"2022-12-03T21:11:05.000Z","category":"应用项目","tags":["跨平台","Flutter","dart","Android端","iOS端"],"excerpt":"社交百科是一个知识答题类的网赚app…","timeToRead":1,"slug":"/社交百科","route":"/社交百科","pathName":"/leon-blog/社交百科","url":"https://miss2mess.github.io/leon-blog/社交百科"},{"title":"和平守护者","description":"和平守护者","coverImg":{"layout":"constrained","placeholder":{"fallback":"data:image/jpeg;base64,/9j/2wBDABALDA4MChAODQ4SERATGCgaGBYWGDEjJR0oOjM9PDkzODdASFxOQERXRTc4UG1RV19iZ2hnPk1xeXBkeFxlZ2P/2wBDARESEhgVGC8aGi9jQjhCY2NjY2NjY2NjY2NjY2NjY2NjY2NjY2NjY2NjY2NjY2NjY2NjY2NjY2NjY2NjY2NjY2P/wgARCAAKABQDASIAAhEBAxEB/8QAFQABAQAAAAAAAAAAAAAAAAAAAgD/xAAWAQEBAQAAAAAAAAAAAAAAAAABBAX/2gAMAwEAAhADEAAAAWjV54nJ/8QAGRAAAgMBAAAAAAAAAAAAAAAAAAECERIg/9oACAEBAAEFAkkZgVx//8QAFREBAQAAAAAAAAAAAAAAAAAAEBH/2gAIAQMBAT8Bp//EABQRAQAAAAAAAAAAAAAAAAAAABD/2gAIAQIBAT8BP//EABkQAAEFAAAAAAAAAAAAAAAAAAABICEyof/aAAgBAQAGPwKVLY3/xAAZEAACAwEAAAAAAAAAAAAAAAABIQAgQYH/2gAIAQEAAT8hPy5AhhU//9oADAMBAAIAAwAAABAY7//EABYRAQEBAAAAAAAAAAAAAAAAAAEQQf/aAAgBAwEBPxABk//EABcRAAMBAAAAAAAAAAAAAAAAAAABEVH/2gAIAQIBAT8Qd0p//8QAGhABAQACAwAAAAAAAAAAAAAAAREAIDFBUf/aAAgBAQABPxA5VYkCqd4pq7nxq//Z"},"backgroundColor":"transparent","images":{"fallback":{"src":"/leon-blog/static/3cd55b97749486bcd911c7844efc8d24/56675/cover.jpg","srcSet":"/leon-blog/static/3cd55b97749486bcd911c7844efc8d24/9fa5a/cover.jpg 184w,\n/leon-blog/static/3cd55b97749486bcd911c7844efc8d24/2a971/cover.jpg 367w,\n/leon-blog/static/3cd55b97749486bcd911c7844efc8d24/56675/cover.jpg 734w","sizes":"(min-width: 734px) 734px, 100vw"},"sources":[{"srcSet":"/leon-blog/static/3cd55b97749486bcd911c7844efc8d24/9d028/cover.avif 184w,\n/leon-blog/static/3cd55b97749486bcd911c7844efc8d24/fcbd2/cover.avif 367w,\n/leon-blog/static/3cd55b97749486bcd911c7844efc8d24/61ef5/cover.avif 734w","type":"image/avif","sizes":"(min-width: 734px) 734px, 100vw"},{"srcSet":"/leon-blog/static/3cd55b97749486bcd911c7844efc8d24/ef27d/cover.webp 184w,\n/leon-blog/static/3cd55b97749486bcd911c7844efc8d24/6963a/cover.webp 367w,\n/leon-blog/static/3cd55b97749486bcd911c7844efc8d24/bce1f/cover.webp 734w","type":"image/webp","sizes":"(min-width: 734px) 734px, 100vw"}]},"width":734,"height":368},"coverImageAlt":"封面","datePublished":"2021-09-03T10:49:39.000Z","dateModified":"2021-09-03T10:49:39.000Z","category":"应用项目","tags":["跨平台","Android端","iOS端","Flutter","dart","游戏","Koa","Node.js"],"excerpt":"Flutter制作的跨平台小游戏。通过点击天空来的陨石来保护家园。 技术实现 使用flutter开发，material主题。 背景音乐使用audioPlayer。 动画使用AnimationController。 server端使用koa2框架开发接口，mysql…","timeToRead":1,"slug":"/和平守护者","route":"/和平守护者","pathName":"/leon-blog/和平守护者","url":"https://miss2mess.github.io/leon-blog/和平守护者"},{"title":"天天花园","description":"天天花园是一款种花网赚类休闲游戏","coverImg":{"layout":"constrained","placeholder":{"fallback":"data:image/jpeg;base64,/9j/2wBDABALDA4MChAODQ4SERATGCgaGBYWGDEjJR0oOjM9PDkzODdASFxOQERXRTc4UG1RV19iZ2hnPk1xeXBkeFxlZ2P/2wBDARESEhgVGC8aGi9jQjhCY2NjY2NjY2NjY2NjY2NjY2NjY2NjY2NjY2NjY2NjY2NjY2NjY2NjY2NjY2NjY2NjY2P/wgARCAALABQDASIAAhEBAxEB/8QAFwABAQEBAAAAAAAAAAAAAAAAAAIDBP/EABYBAQEBAAAAAAAAAAAAAAAAAAIABP/aAAwDAQACEAMQAAAB7VVZJamf/8QAGBAAAwEBAAAAAAAAAAAAAAAAAAERAhL/2gAIAQEAAQUCqKhKnGTjIlF//8QAFxEAAwEAAAAAAAAAAAAAAAAAAAEREv/aAAgBAwEBPwFYIj//xAAYEQACAwAAAAAAAAAAAAAAAAAAAQISQf/aAAgBAgEBPwFuWFmf/8QAFhABAQEAAAAAAAAAAAAAAAAAEDEA/9oACAEBAAY/AmaH/8QAGRAAAwEBAQAAAAAAAAAAAAAAAAERITGh/9oACAEBAAE/IdIW4iDBsbb6PIIgj//aAAwDAQACAAMAAAAQaw//xAAZEQACAwEAAAAAAAAAAAAAAAAAAREhMaH/2gAIAQMBAT8QeFzwbHWH/8QAFxEAAwEAAAAAAAAAAAAAAAAAAAEhEf/aAAgBAgEBPxBusLKn/8QAHBABAQACAgMAAAAAAAAAAAAAAREAITFBUXGB/9oACAEBAAE/EJaLaHswDeQ1fOUHoxwEC8tuMXX6cJDAz//Z"},"backgroundColor":"transparent","images":{"fallback":{"src":"/leon-blog/static/8f8e3cc986ad2a11461468d610071b53/2b40b/cover.jpg","srcSet":"/leon-blog/static/8f8e3cc986ad2a11461468d610071b53/2a0f7/cover.jpg 173w,\n/leon-blog/static/8f8e3cc986ad2a11461468d610071b53/27865/cover.jpg 347w,\n/leon-blog/static/8f8e3cc986ad2a11461468d610071b53/2b40b/cover.jpg 693w","sizes":"(min-width: 693px) 693px, 100vw"},"sources":[{"srcSet":"/leon-blog/static/8f8e3cc986ad2a11461468d610071b53/97b7c/cover.avif 173w,\n/leon-blog/static/8f8e3cc986ad2a11461468d610071b53/7b270/cover.avif 347w,\n/leon-blog/static/8f8e3cc986ad2a11461468d610071b53/5a984/cover.avif 693w","type":"image/avif","sizes":"(min-width: 693px) 693px, 100vw"},{"srcSet":"/leon-blog/static/8f8e3cc986ad2a11461468d610071b53/a378c/cover.webp 173w,\n/leon-blog/static/8f8e3cc986ad2a11461468d610071b53/51f2b/cover.webp 347w,\n/leon-blog/static/8f8e3cc986ad2a11461468d610071b53/c61dc/cover.webp 693w","type":"image/webp","sizes":"(min-width: 693px) 693px, 100vw"}]},"width":693,"height":368},"coverImageAlt":"封面","datePublished":"2021-07-09T10:18:23.000Z","dateModified":"2021-07-09T10:18:23.000Z","category":"应用项目","tags":["Unity","Android端","Java","游戏"],"excerpt":"天天花园是一款种花网赚类休闲游戏。 主要功能 种花玩法，为花浇水、投入阳光。一定时间后可升级花。不断升级得现金奖励。 累计经验值可提升王冠等级，升级后可得现金奖励。 现金转盘等其他玩法。 现金奖励累积到一定程度可以提现。支持微信支付。 app…","timeToRead":1,"slug":"/天天花园","route":"/天天花园","pathName":"/leon-blog/天天花园","url":"https://miss2mess.github.io/leon-blog/天天花园"}]}}},"staticQueryHashes":["2792541146","2845918323"]}