{"componentChunkName":"component---themes-amaranth-src-gatsby-theme-advanced-templates-feed-index-tsx","path":"/tag/Vite","result":{"pageContext":{"totalCount":12,"pageCount":3,"pageIndex":0,"feedType":"tag","feedId":"Vite","feedPageMeta":{"current":0,"next":1,"nextCount":5,"posts":[{"title":"秒聊-H5页","description":"秒聊H5页包含微信分享、微信邀请、app下载、帮助与问答、在线客服等页面","coverImg":{"layout":"constrained","placeholder":{"fallback":"data:image/jpeg;base64,/9j/2wBDABALDA4MChAODQ4SERATGCgaGBYWGDEjJR0oOjM9PDkzODdASFxOQERXRTc4UG1RV19iZ2hnPk1xeXBkeFxlZ2P/2wBDARESEhgVGC8aGi9jQjhCY2NjY2NjY2NjY2NjY2NjY2NjY2NjY2NjY2NjY2NjY2NjY2NjY2NjY2NjY2NjY2NjY2P/wgARCAAKABQDASIAAhEBAxEB/8QAGAAAAgMAAAAAAAAAAAAAAAAAAAMCBAX/xAAWAQEBAQAAAAAAAAAAAAAAAAACAwT/2gAMAwEAAhADEAAAAa82vq88DQ//xAAcEAABAwUAAAAAAAAAAAAAAAACAAEDEBEiMTL/2gAIAQEAAQUCBsjitSHQ8r//xAAXEQADAQAAAAAAAAAAAAAAAAAAAREx/9oACAEDAQE/AVsKf//EABkRAAEFAAAAAAAAAAAAAAAAAAACAxESIf/aAAgBAgEBPwF1eyWP/8QAHBAAAQQDAQAAAAAAAAAAAAAAAQAQETECEiJx/9oACAEBAAY/AusZlbWKDFH1v//EABsQAQEBAAIDAAAAAAAAAAAAAAERACFRMUFx/9oACAEBAAE/IeFEGFwNdpHr7mjEm5W9JNytnlb3v//aAAwDAQACAAMAAAAQnP8A/8QAFxEBAAMAAAAAAAAAAAAAAAAAABEhof/aAAgBAwEBPxDBKj//xAAYEQADAQEAAAAAAAAAAAAAAAAAARFBYf/aAAgBAgEBPxCElqvYJz//xAAdEAEAAgICAwAAAAAAAAAAAAABABEhQTFxUWHB/9oACAEBAAE/ECowIOtoxECUG3lfPUNoI5HUaFWZDWNTA5Fee5ahKqte5//Z"},"backgroundColor":"transparent","images":{"fallback":{"src":"/leon-blog/static/838e0e7a94d5a634e9ebbc9ef66b175a/fff17/cover.jpg","srcSet":"/leon-blog/static/838e0e7a94d5a634e9ebbc9ef66b175a/9fa5a/cover.jpg 184w,\n/leon-blog/static/838e0e7a94d5a634e9ebbc9ef66b175a/63e75/cover.jpg 368w,\n/leon-blog/static/838e0e7a94d5a634e9ebbc9ef66b175a/fff17/cover.jpg 736w","sizes":"(min-width: 736px) 736px, 100vw"},"sources":[{"srcSet":"/leon-blog/static/838e0e7a94d5a634e9ebbc9ef66b175a/9d028/cover.avif 184w,\n/leon-blog/static/838e0e7a94d5a634e9ebbc9ef66b175a/c6ee4/cover.avif 368w,\n/leon-blog/static/838e0e7a94d5a634e9ebbc9ef66b175a/b4627/cover.avif 736w","type":"image/avif","sizes":"(min-width: 736px) 736px, 100vw"},{"srcSet":"/leon-blog/static/838e0e7a94d5a634e9ebbc9ef66b175a/ef27d/cover.webp 184w,\n/leon-blog/static/838e0e7a94d5a634e9ebbc9ef66b175a/4ae45/cover.webp 368w,\n/leon-blog/static/838e0e7a94d5a634e9ebbc9ef66b175a/20e6b/cover.webp 736w","type":"image/webp","sizes":"(min-width: 736px) 736px, 100vw"}]},"width":736,"height":368},"coverImageAlt":"封面","datePublished":"2023-12-20T13:18:20.000Z","dateModified":"2023-12-20T13:18:20.000Z","category":"应用项目","tags":["前端","Vue3","Vant","Vite"],"excerpt":"秒聊-H5页是开发秒聊H5页面的项目，包含微信分享、微信邀请、app下载、帮助与问答、在线客服、H5活动等页面。 访问地址： http://miaoliao.siyisea.com/share-for-user?id=i2gqmws2k&share_userid=82gqmws…","timeToRead":1,"slug":"/秒聊-h-5-页","route":"/秒聊-h-5-页","pathName":"/leon-blog/秒聊-h-5-页","url":"https://miss2mess.github.io/leon-blog/秒聊-h-5-页"},{"title":"麒小佑（小程序+后台）","description":"在线小儿推拿穴方生成小程序","coverImg":{"layout":"constrained","placeholder":{"fallback":"data:image/jpeg;base64,/9j/2wBDABALDA4MChAODQ4SERATGCgaGBYWGDEjJR0oOjM9PDkzODdASFxOQERXRTc4UG1RV19iZ2hnPk1xeXBkeFxlZ2P/2wBDARESEhgVGC8aGi9jQjhCY2NjY2NjY2NjY2NjY2NjY2NjY2NjY2NjY2NjY2NjY2NjY2NjY2NjY2NjY2NjY2NjY2P/wgARCAAKABQDASIAAhEBAxEB/8QAFwAAAwEAAAAAAAAAAAAAAAAAAAIDBf/EABUBAQEAAAAAAAAAAAAAAAAAAAAB/9oADAMBAAIQAxAAAAHdjUsYUP/EABgQAAIDAAAAAAAAAAAAAAAAAAACAxEg/9oACAEBAAEFAiNrz//EABQRAQAAAAAAAAAAAAAAAAAAABD/2gAIAQMBAT8BP//EABQRAQAAAAAAAAAAAAAAAAAAABD/2gAIAQIBAT8BP//EABgQAAIDAAAAAAAAAAAAAAAAAAABESAh/9oACAEBAAY/Ah7Nf//EABoQAAICAwAAAAAAAAAAAAAAAAABEBEhMVH/2gAIAQEAAT8hGcjBcUlpR//aAAwDAQACAAMAAAAQ8M//xAAWEQEBAQAAAAAAAAAAAAAAAAARAAH/2gAIAQMBAT8QdZv/xAAVEQEBAAAAAAAAAAAAAAAAAAAAEf/aAAgBAgEBPxCI/8QAGhABAQADAQEAAAAAAAAAAAAAAREQMUEAIf/aAAgBAQABPxBVEN+sE1ucTeXAF+sN4//Z"},"backgroundColor":"transparent","images":{"fallback":{"src":"/leon-blog/static/f2455473f22cc8340a7a5bdc81c107b1/fff17/cover.jpg","srcSet":"/leon-blog/static/f2455473f22cc8340a7a5bdc81c107b1/9fa5a/cover.jpg 184w,\n/leon-blog/static/f2455473f22cc8340a7a5bdc81c107b1/63e75/cover.jpg 368w,\n/leon-blog/static/f2455473f22cc8340a7a5bdc81c107b1/fff17/cover.jpg 736w","sizes":"(min-width: 736px) 736px, 100vw"},"sources":[{"srcSet":"/leon-blog/static/f2455473f22cc8340a7a5bdc81c107b1/9d028/cover.avif 184w,\n/leon-blog/static/f2455473f22cc8340a7a5bdc81c107b1/c6ee4/cover.avif 368w,\n/leon-blog/static/f2455473f22cc8340a7a5bdc81c107b1/b4627/cover.avif 736w","type":"image/avif","sizes":"(min-width: 736px) 736px, 100vw"},{"srcSet":"/leon-blog/static/f2455473f22cc8340a7a5bdc81c107b1/ef27d/cover.webp 184w,\n/leon-blog/static/f2455473f22cc8340a7a5bdc81c107b1/4ae45/cover.webp 368w,\n/leon-blog/static/f2455473f22cc8340a7a5bdc81c107b1/20e6b/cover.webp 736w","type":"image/webp","sizes":"(min-width: 736px) 736px, 100vw"}]},"width":736,"height":368},"coverImageAlt":"封面","datePublished":"2023-12-17T11:21:43.000Z","dateModified":"2023-12-17T11:21:43.000Z","category":"应用项目","tags":["小程序","前端","Vue3","ElementUI","Vite"],"excerpt":"在线小儿推拿穴方生成、诊疗小程序。 导航 主要功能 我的职责 技术实现 小程序截图 管理后台截图 主要功能 交互为AI…","timeToRead":1,"slug":"/麒小佑（小程序-后台）","route":"/麒小佑（小程序-后台）","pathName":"/leon-blog/麒小佑（小程序-后台）","url":"https://miss2mess.github.io/leon-blog/麒小佑（小程序-后台）"},{"title":"AI聊天统一后台","description":"AI聊天后台为AI应用提供后台管理功能","coverImg":{"layout":"constrained","placeholder":{"fallback":"data:image/jpeg;base64,/9j/2wBDABALDA4MChAODQ4SERATGCgaGBYWGDEjJR0oOjM9PDkzODdASFxOQERXRTc4UG1RV19iZ2hnPk1xeXBkeFxlZ2P/2wBDARESEhgVGC8aGi9jQjhCY2NjY2NjY2NjY2NjY2NjY2NjY2NjY2NjY2NjY2NjY2NjY2NjY2NjY2NjY2NjY2NjY2P/wgARCAAKABQDASIAAhEBAxEB/8QAGAAAAgMAAAAAAAAAAAAAAAAAAAIBAwX/xAAUAQEAAAAAAAAAAAAAAAAAAAAA/9oADAMBAAIQAxAAAAHbHgQsD//EABgQAAMBAQAAAAAAAAAAAAAAAAACEgEg/9oACAEBAAEFAoUlSc4//8QAFBEBAAAAAAAAAAAAAAAAAAAAEP/aAAgBAwEBPwE//8QAFBEBAAAAAAAAAAAAAAAAAAAAEP/aAAgBAgEBPwE//8QAGRAAAwADAAAAAAAAAAAAAAAAAAExIDKR/9oACAEBAAY/AojVEXMP/8QAGhAAAgIDAAAAAAAAAAAAAAAAAAEQEVHB8f/aAAgBAQABPyF2ajkx5mY//9oADAMBAAIAAwAAABAz7//EABQRAQAAAAAAAAAAAAAAAAAAABD/2gAIAQMBAT8QP//EABURAQEAAAAAAAAAAAAAAAAAAAAR/9oACAECAQE/EFf/xAAdEAACAgEFAAAAAAAAAAAAAAAAEQEhMVGBscHR/9oACAEBAAE/EETrjSZeL4XSkunGjqRnYQf/2Q=="},"backgroundColor":"transparent","images":{"fallback":{"src":"/leon-blog/static/e71c085dce2a1254cea162e966b167ad/041b2/cover.jpg","srcSet":"/leon-blog/static/e71c085dce2a1254cea162e966b167ad/ad028/cover.jpg 177w,\n/leon-blog/static/e71c085dce2a1254cea162e966b167ad/da597/cover.jpg 354w,\n/leon-blog/static/e71c085dce2a1254cea162e966b167ad/041b2/cover.jpg 707w,\n/leon-blog/static/e71c085dce2a1254cea162e966b167ad/3de3b/cover.jpg 1414w","sizes":"(min-width: 707px) 707px, 100vw"},"sources":[{"srcSet":"/leon-blog/static/e71c085dce2a1254cea162e966b167ad/647d2/cover.avif 177w,\n/leon-blog/static/e71c085dce2a1254cea162e966b167ad/26062/cover.avif 354w,\n/leon-blog/static/e71c085dce2a1254cea162e966b167ad/7f9d6/cover.avif 707w,\n/leon-blog/static/e71c085dce2a1254cea162e966b167ad/da5ea/cover.avif 1414w","type":"image/avif","sizes":"(min-width: 707px) 707px, 100vw"},{"srcSet":"/leon-blog/static/e71c085dce2a1254cea162e966b167ad/55808/cover.webp 177w,\n/leon-blog/static/e71c085dce2a1254cea162e966b167ad/9b6a9/cover.webp 354w,\n/leon-blog/static/e71c085dce2a1254cea162e966b167ad/9baeb/cover.webp 707w,\n/leon-blog/static/e71c085dce2a1254cea162e966b167ad/cf4f5/cover.webp 1414w","type":"image/webp","sizes":"(min-width: 707px) 707px, 100vw"}]},"width":707,"height":368},"coverImageAlt":"后台概览","datePublished":"2023-06-16T19:22:38.000Z","dateModified":"2023-06-16T19:22:38.000Z","category":"应用项目","tags":["前端","React","Antd","Vite"],"excerpt":"AI聊天统一后台 为FastMind和AI女友项目，提供了统一的管理后台。 访问地址： http://ai.siyisea.com:8860 查看： FastMind 查看： GF's Heart 导航 主要功能 我的职责 技术实现 截图 主要功能 AI…","timeToRead":1,"slug":"/ai聊天统一后台","route":"/ai聊天统一后台","pathName":"/leon-blog/ai聊天统一后台","url":"https://miss2mess.github.io/leon-blog/ai聊天统一后台"},{"title":"云流-Nocodb应用","description":"Nocodb为云流提供数据展示能力","coverImg":{"layout":"constrained","placeholder":{"fallback":"data:image/jpeg;base64,/9j/2wBDABALDA4MChAODQ4SERATGCgaGBYWGDEjJR0oOjM9PDkzODdASFxOQERXRTc4UG1RV19iZ2hnPk1xeXBkeFxlZ2P/2wBDARESEhgVGC8aGi9jQjhCY2NjY2NjY2NjY2NjY2NjY2NjY2NjY2NjY2NjY2NjY2NjY2NjY2NjY2NjY2NjY2NjY2P/wgARCAAKABQDASIAAhEBAxEB/8QAFgABAQEAAAAAAAAAAAAAAAAAAAEF/8QAFAEBAAAAAAAAAAAAAAAAAAAAAP/aAAwDAQACEAMQAAAB3gUH/8QAFBABAAAAAAAAAAAAAAAAAAAAIP/aAAgBAQABBQJf/8QAFBEBAAAAAAAAAAAAAAAAAAAAEP/aAAgBAwEBPwE//8QAFBEBAAAAAAAAAAAAAAAAAAAAEP/aAAgBAgEBPwE//8QAFBABAAAAAAAAAAAAAAAAAAAAIP/aAAgBAQAGPwJf/8QAFhABAQEAAAAAAAAAAAAAAAAAERAg/9oACAEBAAE/ISGP/9oADAMBAAIAAwAAABBwz//EABQRAQAAAAAAAAAAAAAAAAAAABD/2gAIAQMBAT8QP//EABQRAQAAAAAAAAAAAAAAAAAAABD/2gAIAQIBAT8QP//EABsQAAMAAgMAAAAAAAAAAAAAAAABETFBEGGR/9oACAEBAAE/EMFXSLBPfppGuP/Z"},"backgroundColor":"transparent","images":{"fallback":{"src":"/leon-blog/static/bedf946bb3ea01ec0e2c9cd95bb724c3/1ced9/table-view.jpg","srcSet":"/leon-blog/static/bedf946bb3ea01ec0e2c9cd95bb724c3/891f5/table-view.jpg 176w,\n/leon-blog/static/bedf946bb3ea01ec0e2c9cd95bb724c3/19cc4/table-view.jpg 352w,\n/leon-blog/static/bedf946bb3ea01ec0e2c9cd95bb724c3/1ced9/table-view.jpg 703w,\n/leon-blog/static/bedf946bb3ea01ec0e2c9cd95bb724c3/e43cf/table-view.jpg 1406w","sizes":"(min-width: 703px) 703px, 100vw"},"sources":[{"srcSet":"/leon-blog/static/bedf946bb3ea01ec0e2c9cd95bb724c3/94818/table-view.avif 176w,\n/leon-blog/static/bedf946bb3ea01ec0e2c9cd95bb724c3/bd4f6/table-view.avif 352w,\n/leon-blog/static/bedf946bb3ea01ec0e2c9cd95bb724c3/5627e/table-view.avif 703w,\n/leon-blog/static/bedf946bb3ea01ec0e2c9cd95bb724c3/df159/table-view.avif 1406w","type":"image/avif","sizes":"(min-width: 703px) 703px, 100vw"},{"srcSet":"/leon-blog/static/bedf946bb3ea01ec0e2c9cd95bb724c3/76df1/table-view.webp 176w,\n/leon-blog/static/bedf946bb3ea01ec0e2c9cd95bb724c3/d3e0a/table-view.webp 352w,\n/leon-blog/static/bedf946bb3ea01ec0e2c9cd95bb724c3/e41d2/table-view.webp 703w,\n/leon-blog/static/bedf946bb3ea01ec0e2c9cd95bb724c3/e0cda/table-view.webp 1406w","type":"image/webp","sizes":"(min-width: 703px) 703px, 100vw"}]},"width":703,"height":368},"coverImageAlt":"多维表格模块","datePublished":"2023-04-10T13:35:12.000Z","dateModified":"2023-04-10T13:35:12.000Z","category":"应用项目","tags":["前端","Vue3","Nuxt","Antd","后端","Node.js","Express","Vite"],"excerpt":"云流-Nocodb应用 是类似于Airtable、飞书多维表格的数据生产力产品。 访问地址： http://114.55.92.229:8080/dashboard/#/ 可以独立连接数据库使用，此时的Nocodb…","timeToRead":1,"slug":"/云流-nocodb应用","route":"/云流-nocodb应用","pathName":"/leon-blog/云流-nocodb应用","url":"https://miss2mess.github.io/leon-blog/云流-nocodb应用"},{"title":"vite-plugin-qiankun","description":"让qiankun框架支持vite的es特性的框架","coverImg":{"layout":"constrained","placeholder":{"fallback":"data:image/jpeg;base64,/9j/2wBDABALDA4MChAODQ4SERATGCgaGBYWGDEjJR0oOjM9PDkzODdASFxOQERXRTc4UG1RV19iZ2hnPk1xeXBkeFxlZ2P/2wBDARESEhgVGC8aGi9jQjhCY2NjY2NjY2NjY2NjY2NjY2NjY2NjY2NjY2NjY2NjY2NjY2NjY2NjY2NjY2NjY2NjY2P/wgARCAAKABQDASIAAhEBAxEB/8QAGAAAAwEBAAAAAAAAAAAAAAAAAAEEAgP/xAAWAQEBAQAAAAAAAAAAAAAAAAADAAT/2gAMAwEAAhADEAAAAd0w9R1IRF//xAAaEAACAwEBAAAAAAAAAAAAAAAAAQIDERMh/9oACAEBAAEFAvE+2KVluoiNs//EABgRAAIDAAAAAAAAAAAAAAAAAAACESEx/9oACAEDAQE/AWyyT//EABQRAQAAAAAAAAAAAAAAAAAAABD/2gAIAQIBAT8BP//EABoQAAICAwAAAAAAAAAAAAAAAAACETEBEDL/2gAIAQEABj8CuSEXBy27P//EABwQAQABBQEBAAAAAAAAAAAAAAEAESExQXGBkf/aAAgBAQABPyEtFMbUgvECbB4MyezaVWX2f//aAAwDAQACAAMAAAAQQ+//xAAXEQADAQAAAAAAAAAAAAAAAAAAAUEh/9oACAEDAQE/EGToZh//xAAWEQEBAQAAAAAAAAAAAAAAAAABEBH/2gAIAQIBAT8QB2f/xAAdEAEBAAIBBQAAAAAAAAAAAAABEQAhQXGBkbHx/9oACAEBAAE/EKpATAJLVfGA7gciD15wrtxdj1jSS/GNm3GF1Huz/9k="},"backgroundColor":"transparent","images":{"fallback":{"src":"/leon-blog/static/c1ff24cf1a57db96025bbcec71e9035b/fff17/default_img5.jpg","srcSet":"/leon-blog/static/c1ff24cf1a57db96025bbcec71e9035b/9fa5a/default_img5.jpg 184w,\n/leon-blog/static/c1ff24cf1a57db96025bbcec71e9035b/63e75/default_img5.jpg 368w,\n/leon-blog/static/c1ff24cf1a57db96025bbcec71e9035b/fff17/default_img5.jpg 736w","sizes":"(min-width: 736px) 736px, 100vw"},"sources":[{"srcSet":"/leon-blog/static/c1ff24cf1a57db96025bbcec71e9035b/9d028/default_img5.avif 184w,\n/leon-blog/static/c1ff24cf1a57db96025bbcec71e9035b/c6ee4/default_img5.avif 368w,\n/leon-blog/static/c1ff24cf1a57db96025bbcec71e9035b/b4627/default_img5.avif 736w","type":"image/avif","sizes":"(min-width: 736px) 736px, 100vw"},{"srcSet":"/leon-blog/static/c1ff24cf1a57db96025bbcec71e9035b/ef27d/default_img5.webp 184w,\n/leon-blog/static/c1ff24cf1a57db96025bbcec71e9035b/4ae45/default_img5.webp 368w,\n/leon-blog/static/c1ff24cf1a57db96025bbcec71e9035b/20e6b/default_img5.webp 736w","type":"image/webp","sizes":"(min-width: 736px) 736px, 100vw"}]},"width":736,"height":368},"coverImageAlt":"封面","datePublished":"2022-09-02T11:38:19.000Z","dateModified":"2022-09-02T11:38:19.000Z","category":"框架工具","tags":["前端","库","微前端","Vite","开源"],"excerpt":"vite-plugin-qiankun是用于vite构建的微应用，想要接入qiankun时，需要引入该插件。 github仓库： https://github.com/missmess/vite-plugin-qiankun/tree/feature/support-prod…","timeToRead":1,"slug":"/vite-plugin-qiankun","route":"/vite-plugin-qiankun","pathName":"/leon-blog/vite-plugin-qiankun","url":"https://miss2mess.github.io/leon-blog/vite-plugin-qiankun"}]}}},"staticQueryHashes":["2792541146","2845918323"]}