{"componentChunkName":"component---themes-amaranth-src-gatsby-theme-advanced-templates-feed-index-tsx","path":"/tag/Node.js","result":{"pageContext":{"totalCount":12,"pageCount":3,"pageIndex":0,"feedType":"tag","feedId":"Node.js","feedPageMeta":{"current":0,"next":1,"nextCount":5,"posts":[{"title":"手撸一个mac端批量混剪应用","description":"小饼混剪助手","coverImg":{"layout":"constrained","placeholder":{"fallback":"data:image/jpeg;base64,/9j/2wBDABALDA4MChAODQ4SERATGCgaGBYWGDEjJR0oOjM9PDkzODdASFxOQERXRTc4UG1RV19iZ2hnPk1xeXBkeFxlZ2P/2wBDARESEhgVGC8aGi9jQjhCY2NjY2NjY2NjY2NjY2NjY2NjY2NjY2NjY2NjY2NjY2NjY2NjY2NjY2NjY2NjY2NjY2P/wgARCAAKABQDASIAAhEBAxEB/8QAGAAAAwEBAAAAAAAAAAAAAAAAAAIDAQX/xAAXAQADAQAAAAAAAAAAAAAAAAAAAQID/9oADAMBAAIQAxAAAAHn1ZZzwiC//8QAGhAAAgIDAAAAAAAAAAAAAAAAAAIBEBExMv/aAAgBAQABBQJemMyRt6//xAAUEQEAAAAAAAAAAAAAAAAAAAAQ/9oACAEDAQE/AT//xAAUEQEAAAAAAAAAAAAAAAAAAAAQ/9oACAECAQE/AT//xAAWEAEBAQAAAAAAAAAAAAAAAAAQATH/2gAIAQEABj8CNIf/xAAaEAADAQADAAAAAAAAAAAAAAAAASEREDFB/9oACAEBAAE/IYTsynHu2CSoFXjg0//aAAwDAQACAAMAAAAQsM//xAAWEQEBAQAAAAAAAAAAAAAAAAAAARH/2gAIAQMBAT8QtY//xAAWEQEBAQAAAAAAAAAAAAAAAAAAARH/2gAIAQIBAT8QrH//xAAbEAACAgMBAAAAAAAAAAAAAAABEQAhMVFhcf/aAAgBAQABPxBFShTB9g1RDNiAgQOmLKUddggVCuMzZzP/2Q=="},"backgroundColor":"transparent","images":{"fallback":{"src":"/leon-blog/static/f278a0a75dff4aa3c04b315102aba9cb/8275e/default_img7.jpg","srcSet":"/leon-blog/static/f278a0a75dff4aa3c04b315102aba9cb/fd641/default_img7.jpg 183w,\n/leon-blog/static/f278a0a75dff4aa3c04b315102aba9cb/2a971/default_img7.jpg 367w,\n/leon-blog/static/f278a0a75dff4aa3c04b315102aba9cb/8275e/default_img7.jpg 733w","sizes":"(min-width: 733px) 733px, 100vw"},"sources":[{"srcSet":"/leon-blog/static/f278a0a75dff4aa3c04b315102aba9cb/bd419/default_img7.avif 183w,\n/leon-blog/static/f278a0a75dff4aa3c04b315102aba9cb/fcbd2/default_img7.avif 367w,\n/leon-blog/static/f278a0a75dff4aa3c04b315102aba9cb/f8378/default_img7.avif 733w","type":"image/avif","sizes":"(min-width: 733px) 733px, 100vw"},{"srcSet":"/leon-blog/static/f278a0a75dff4aa3c04b315102aba9cb/1be9d/default_img7.webp 183w,\n/leon-blog/static/f278a0a75dff4aa3c04b315102aba9cb/6963a/default_img7.webp 367w,\n/leon-blog/static/f278a0a75dff4aa3c04b315102aba9cb/0eb16/default_img7.webp 733w","type":"image/webp","sizes":"(min-width: 733px) 733px, 100vw"}]},"width":733,"height":368},"coverImageAlt":"封面","datePublished":"2023-10-09T09:05:11.000Z","dateModified":"2023-10-09T09:05:11.000Z","category":"经验总结","tags":["Node.js","Electron","视频处理"],"excerpt":"使用electron + ffmpeg快速开发一个运营人常用的工具，视频批量混剪工具。","timeToRead":1,"slug":"/手撸一个mac端批量混剪应用","route":"/手撸一个mac端批量混剪应用","pathName":"/leon-blog/手撸一个mac端批量混剪应用","url":"https://miss2mess.github.io/leon-blog/手撸一个mac端批量混剪应用"},{"title":"用户中心服务","description":"用户中心服务提供用户登录、注册、认证、用户信息管理等功能","coverImg":{"layout":"constrained","placeholder":{"fallback":"data:image/jpeg;base64,/9j/2wBDABALDA4MChAODQ4SERATGCgaGBYWGDEjJR0oOjM9PDkzODdASFxOQERXRTc4UG1RV19iZ2hnPk1xeXBkeFxlZ2P/2wBDARESEhgVGC8aGi9jQjhCY2NjY2NjY2NjY2NjY2NjY2NjY2NjY2NjY2NjY2NjY2NjY2NjY2NjY2NjY2NjY2NjY2P/wgARCAAQABQDASIAAhEBAxEB/8QAFwABAQEBAAAAAAAAAAAAAAAAAAMEBf/EABQBAQAAAAAAAAAAAAAAAAAAAAD/2gAMAwEAAhADEAAAAe5HRMsD/8QAGhAAAgMBAQAAAAAAAAAAAAAAAQIAAyEQEv/aAAgBAQABBQJsFVvsw7FRV5//xAAUEQEAAAAAAAAAAAAAAAAAAAAQ/9oACAEDAQE/AT//xAAUEQEAAAAAAAAAAAAAAAAAAAAQ/9oACAECAQE/AT//xAAZEAACAwEAAAAAAAAAAAAAAAABEQACEFH/2gAIAQEABj8CNuRLEYwM/8QAGRABAAMBAQAAAAAAAAAAAAAAAQARIRBB/9oACAEBAAE/IWVlolnjl3fADwY3iXOf/9oADAMBAAIAAwAAABDwD//EABQRAQAAAAAAAAAAAAAAAAAAABD/2gAIAQMBAT8QP//EABQRAQAAAAAAAAAAAAAAAAAAABD/2gAIAQIBAT8QP//EABsQAQEAAgMBAAAAAAAAAAAAAAERADEQIUFR/9oACAEBAAE/EIoou5iJRAeyjrzhqFCJ9MQDJ2Lrj//Z"},"backgroundColor":"transparent","images":{"fallback":{"src":"/leon-blog/static/40575cbc31aaba230ae784aaf2316a48/bab3e/login.jpg","srcSet":"/leon-blog/static/40575cbc31aaba230ae784aaf2316a48/51d7e/login.jpg 116w,\n/leon-blog/static/40575cbc31aaba230ae784aaf2316a48/4da4e/login.jpg 231w,\n/leon-blog/static/40575cbc31aaba230ae784aaf2316a48/bab3e/login.jpg 462w,\n/leon-blog/static/40575cbc31aaba230ae784aaf2316a48/0e461/login.jpg 924w","sizes":"(min-width: 462px) 462px, 100vw"},"sources":[{"srcSet":"/leon-blog/static/40575cbc31aaba230ae784aaf2316a48/90c2f/login.avif 116w,\n/leon-blog/static/40575cbc31aaba230ae784aaf2316a48/92e94/login.avif 231w,\n/leon-blog/static/40575cbc31aaba230ae784aaf2316a48/3c154/login.avif 462w,\n/leon-blog/static/40575cbc31aaba230ae784aaf2316a48/996b8/login.avif 924w","type":"image/avif","sizes":"(min-width: 462px) 462px, 100vw"},{"srcSet":"/leon-blog/static/40575cbc31aaba230ae784aaf2316a48/96fa7/login.webp 116w,\n/leon-blog/static/40575cbc31aaba230ae784aaf2316a48/cf0b0/login.webp 231w,\n/leon-blog/static/40575cbc31aaba230ae784aaf2316a48/64ac3/login.webp 462w,\n/leon-blog/static/40575cbc31aaba230ae784aaf2316a48/bcd0c/login.webp 924w","type":"image/webp","sizes":"(min-width: 462px) 462px, 100vw"}]},"width":462,"height":368},"coverImageAlt":"登录方式","datePublished":"2023-05-08T06:28:03.000Z","dateModified":"2023-05-08T06:28:03.000Z","category":"应用项目","tags":["后端","Node.js","Express"],"excerpt":"用户中心服务 提供统一的用户登录、认证服务。 导航 主要功能 我的职责 技术实现 主要功能 登录/注册 支持邮箱注册、邮箱验证码、邮箱用户名jwt登录、修改密码。 支持关注微信公众号注册/登录、微信扫码注册/登录。 支持google登录。 用户信息 提供对外的api…","timeToRead":1,"slug":"/用户中心服务","route":"/用户中心服务","pathName":"/leon-blog/用户中心服务","url":"https://miss2mess.github.io/leon-blog/用户中心服务"},{"title":"云流-Nocodb应用","description":"Nocodb为云流提供数据展示能力","coverImg":{"layout":"constrained","placeholder":{"fallback":"data:image/jpeg;base64,/9j/2wBDABALDA4MChAODQ4SERATGCgaGBYWGDEjJR0oOjM9PDkzODdASFxOQERXRTc4UG1RV19iZ2hnPk1xeXBkeFxlZ2P/2wBDARESEhgVGC8aGi9jQjhCY2NjY2NjY2NjY2NjY2NjY2NjY2NjY2NjY2NjY2NjY2NjY2NjY2NjY2NjY2NjY2NjY2P/wgARCAAKABQDASIAAhEBAxEB/8QAFgABAQEAAAAAAAAAAAAAAAAAAAEF/8QAFAEBAAAAAAAAAAAAAAAAAAAAAP/aAAwDAQACEAMQAAAB3gUH/8QAFBABAAAAAAAAAAAAAAAAAAAAIP/aAAgBAQABBQJf/8QAFBEBAAAAAAAAAAAAAAAAAAAAEP/aAAgBAwEBPwE//8QAFBEBAAAAAAAAAAAAAAAAAAAAEP/aAAgBAgEBPwE//8QAFBABAAAAAAAAAAAAAAAAAAAAIP/aAAgBAQAGPwJf/8QAFhABAQEAAAAAAAAAAAAAAAAAERAg/9oACAEBAAE/ISGP/9oADAMBAAIAAwAAABBwz//EABQRAQAAAAAAAAAAAAAAAAAAABD/2gAIAQMBAT8QP//EABQRAQAAAAAAAAAAAAAAAAAAABD/2gAIAQIBAT8QP//EABsQAAMAAgMAAAAAAAAAAAAAAAABETFBEGGR/9oACAEBAAE/EMFXSLBPfppGuP/Z"},"backgroundColor":"transparent","images":{"fallback":{"src":"/leon-blog/static/bedf946bb3ea01ec0e2c9cd95bb724c3/1ced9/table-view.jpg","srcSet":"/leon-blog/static/bedf946bb3ea01ec0e2c9cd95bb724c3/891f5/table-view.jpg 176w,\n/leon-blog/static/bedf946bb3ea01ec0e2c9cd95bb724c3/19cc4/table-view.jpg 352w,\n/leon-blog/static/bedf946bb3ea01ec0e2c9cd95bb724c3/1ced9/table-view.jpg 703w,\n/leon-blog/static/bedf946bb3ea01ec0e2c9cd95bb724c3/e43cf/table-view.jpg 1406w","sizes":"(min-width: 703px) 703px, 100vw"},"sources":[{"srcSet":"/leon-blog/static/bedf946bb3ea01ec0e2c9cd95bb724c3/94818/table-view.avif 176w,\n/leon-blog/static/bedf946bb3ea01ec0e2c9cd95bb724c3/bd4f6/table-view.avif 352w,\n/leon-blog/static/bedf946bb3ea01ec0e2c9cd95bb724c3/5627e/table-view.avif 703w,\n/leon-blog/static/bedf946bb3ea01ec0e2c9cd95bb724c3/df159/table-view.avif 1406w","type":"image/avif","sizes":"(min-width: 703px) 703px, 100vw"},{"srcSet":"/leon-blog/static/bedf946bb3ea01ec0e2c9cd95bb724c3/76df1/table-view.webp 176w,\n/leon-blog/static/bedf946bb3ea01ec0e2c9cd95bb724c3/d3e0a/table-view.webp 352w,\n/leon-blog/static/bedf946bb3ea01ec0e2c9cd95bb724c3/e41d2/table-view.webp 703w,\n/leon-blog/static/bedf946bb3ea01ec0e2c9cd95bb724c3/e0cda/table-view.webp 1406w","type":"image/webp","sizes":"(min-width: 703px) 703px, 100vw"}]},"width":703,"height":368},"coverImageAlt":"多维表格模块","datePublished":"2023-04-10T05:35:12.000Z","dateModified":"2023-04-10T05:35:12.000Z","category":"应用项目","tags":["前端","Vue3","Nuxt","Antd","后端","Node.js","Express","Vite"],"excerpt":"云流-Nocodb应用 是类似于Airtable、飞书多维表格的数据生产力产品。 访问地址： http://114.55.92.229:8080/dashboard/#/ 可以独立连接数据库使用，此时的Nocodb…","timeToRead":1,"slug":"/云流-nocodb应用","route":"/云流-nocodb应用","pathName":"/leon-blog/云流-nocodb应用","url":"https://miss2mess.github.io/leon-blog/云流-nocodb应用"},{"title":"灵境低代码平台","description":"理想汽车一站式低代码创建/发布平台","coverImg":{"layout":"constrained","placeholder":{"fallback":"data:image/jpeg;base64,/9j/2wBDABALDA4MChAODQ4SERATGCgaGBYWGDEjJR0oOjM9PDkzODdASFxOQERXRTc4UG1RV19iZ2hnPk1xeXBkeFxlZ2P/2wBDARESEhgVGC8aGi9jQjhCY2NjY2NjY2NjY2NjY2NjY2NjY2NjY2NjY2NjY2NjY2NjY2NjY2NjY2NjY2NjY2NjY2P/wgARCAAKABQDASIAAhEBAxEB/8QAFwABAQEBAAAAAAAAAAAAAAAAAwABBf/EABUBAQEAAAAAAAAAAAAAAAAAAAAB/9oADAMBAAIQAxAAAAHtm409tH//xAAaEAEBAAIDAAAAAAAAAAAAAAABAgADEBEx/9oACAEBAAEFArepihrHzWBx/8QAFBEBAAAAAAAAAAAAAAAAAAAAEP/aAAgBAwEBPwE//8QAFBEBAAAAAAAAAAAAAAAAAAAAEP/aAAgBAgEBPwE//8QAGRAAAgMBAAAAAAAAAAAAAAAAEBEAASEx/9oACAEBAAY/AnFnGcof/8QAGhABAQADAQEAAAAAAAAAAAAAAREAECExQf/aAAgBAQABPyG1FmcAr4aIoSmXIHXw1//aAAwDAQACAAMAAAAQ0w//xAAVEQEBAAAAAAAAAAAAAAAAAAAQIf/aAAgBAwEBPxCH/8QAFxEBAAMAAAAAAAAAAAAAAAAAARARIf/aAAgBAgEBPxAMuP/EABoQAQACAwEAAAAAAAAAAAAAAAERIQAQQTH/2gAIAQEAAT8QJU8hwHCoSsJi9CyT0STJdTlB3X//2Q=="},"backgroundColor":"transparent","images":{"fallback":{"src":"/leon-blog/static/e401181c11f8151a4ee4da27ddb9cd16/483b8/lingjing_cover.jpg","srcSet":"/leon-blog/static/e401181c11f8151a4ee4da27ddb9cd16/9fa5a/lingjing_cover.jpg 184w,\n/leon-blog/static/e401181c11f8151a4ee4da27ddb9cd16/63e75/lingjing_cover.jpg 368w,\n/leon-blog/static/e401181c11f8151a4ee4da27ddb9cd16/483b8/lingjing_cover.jpg 735w","sizes":"(min-width: 735px) 735px, 100vw"},"sources":[{"srcSet":"/leon-blog/static/e401181c11f8151a4ee4da27ddb9cd16/9d028/lingjing_cover.avif 184w,\n/leon-blog/static/e401181c11f8151a4ee4da27ddb9cd16/c6ee4/lingjing_cover.avif 368w,\n/leon-blog/static/e401181c11f8151a4ee4da27ddb9cd16/6f2e7/lingjing_cover.avif 735w","type":"image/avif","sizes":"(min-width: 735px) 735px, 100vw"},{"srcSet":"/leon-blog/static/e401181c11f8151a4ee4da27ddb9cd16/ef27d/lingjing_cover.webp 184w,\n/leon-blog/static/e401181c11f8151a4ee4da27ddb9cd16/4ae45/lingjing_cover.webp 368w,\n/leon-blog/static/e401181c11f8151a4ee4da27ddb9cd16/51181/lingjing_cover.webp 735w","type":"image/webp","sizes":"(min-width: 735px) 735px, 100vw"}]},"width":735,"height":368},"coverImageAlt":"封面","datePublished":"2022-08-01T09:56:33.000Z","dateModified":"2022-08-01T09:56:33.000Z","category":"应用项目","tags":["前端","React","后端","Node.js","Koa","低代码"],"excerpt":"…","timeToRead":1,"slug":"/灵境低代码平台","route":"/灵境低代码平台","pathName":"/leon-blog/灵境低代码平台","url":"https://miss2mess.github.io/leon-blog/灵境低代码平台"},{"title":"vue-i18n-converter","description":"将vue2项目源码中，提取中文替换为i18n配置，提升国际化效率","coverImg":{"layout":"constrained","placeholder":{"fallback":"data:image/jpeg;base64,/9j/2wBDABALDA4MChAODQ4SERATGCgaGBYWGDEjJR0oOjM9PDkzODdASFxOQERXRTc4UG1RV19iZ2hnPk1xeXBkeFxlZ2P/2wBDARESEhgVGC8aGi9jQjhCY2NjY2NjY2NjY2NjY2NjY2NjY2NjY2NjY2NjY2NjY2NjY2NjY2NjY2NjY2NjY2NjY2P/wgARCAAKABQDASIAAhEBAxEB/8QAGAAAAgMAAAAAAAAAAAAAAAAAAAQBAgX/xAAWAQEBAQAAAAAAAAAAAAAAAAABAgP/2gAMAwEAAhADEAAAAXLpQY6IkS//xAAZEAADAQEBAAAAAAAAAAAAAAAAAQIREwP/2gAIAQEAAQUCm1nSUdZZrzzGf//EABURAQEAAAAAAAAAAAAAAAAAAAAR/9oACAEDAQE/AVf/xAAXEQADAQAAAAAAAAAAAAAAAAAAARIR/9oACAECAQE/AaeFH//EABwQAAEDBQAAAAAAAAAAAAAAAAABETEQIkFxof/aAAgBAQAGPwK530ZUjhNf/8QAGhAAAwEAAwAAAAAAAAAAAAAAAAERMSGBof/aAAgBAQABPyF/AFXhBLW+wqeQzGd1n//aAAwDAQACAAMAAAAQj8//xAAXEQADAQAAAAAAAAAAAAAAAAAAAREh/9oACAEDAQE/EEspZ//EABcRAAMBAAAAAAAAAAAAAAAAAAABEVH/2gAIAQIBAT8QVDws/8QAHhABAAICAQUAAAAAAAAAAAAAAQARIUGhMVFxkcH/2gAIAQEAAT8QEi3izuKl+Ex5g7VyJZxPuCd45y56wbr2T//Z"},"backgroundColor":"transparent","images":{"fallback":{"src":"/leon-blog/static/5a367293a900128d4f2e18e558abee15/fff17/default_img6.jpg","srcSet":"/leon-blog/static/5a367293a900128d4f2e18e558abee15/9fa5a/default_img6.jpg 184w,\n/leon-blog/static/5a367293a900128d4f2e18e558abee15/63e75/default_img6.jpg 368w,\n/leon-blog/static/5a367293a900128d4f2e18e558abee15/fff17/default_img6.jpg 736w,\n/leon-blog/static/5a367293a900128d4f2e18e558abee15/da7d9/default_img6.jpg 1472w","sizes":"(min-width: 736px) 736px, 100vw"},"sources":[{"srcSet":"/leon-blog/static/5a367293a900128d4f2e18e558abee15/9d028/default_img6.avif 184w,\n/leon-blog/static/5a367293a900128d4f2e18e558abee15/c6ee4/default_img6.avif 368w,\n/leon-blog/static/5a367293a900128d4f2e18e558abee15/b4627/default_img6.avif 736w,\n/leon-blog/static/5a367293a900128d4f2e18e558abee15/42b07/default_img6.avif 1472w","type":"image/avif","sizes":"(min-width: 736px) 736px, 100vw"},{"srcSet":"/leon-blog/static/5a367293a900128d4f2e18e558abee15/ef27d/default_img6.webp 184w,\n/leon-blog/static/5a367293a900128d4f2e18e558abee15/4ae45/default_img6.webp 368w,\n/leon-blog/static/5a367293a900128d4f2e18e558abee15/20e6b/default_img6.webp 736w,\n/leon-blog/static/5a367293a900128d4f2e18e558abee15/79f02/default_img6.webp 1472w","type":"image/webp","sizes":"(min-width: 736px) 736px, 100vw"}]},"width":736,"height":368},"coverImageAlt":"封面","datePublished":"2022-03-25T08:30:20.000Z","dateModified":"2022-03-25T08:30:20.000Z","category":"框架工具","tags":["前端","Node.js","脚本","开源"],"excerpt":"vue-i18n-converter 是一个脚本工具。用于vue2项目中，提取项目中的中文转为i18n的配置，并生成i18n配置文件。 Gitee仓库： https://gitee.com/missmess/vue-i18n-converter-script…","timeToRead":1,"slug":"/vue-i-18-n-converter","route":"/vue-i-18-n-converter","pathName":"/leon-blog/vue-i-18-n-converter","url":"https://miss2mess.github.io/leon-blog/vue-i-18-n-converter"}]}}},"staticQueryHashes":["2792541146","2845918323"]}