{"componentChunkName":"component---themes-amaranth-src-gatsby-theme-advanced-templates-feed-index-tsx","path":"/tag/库","result":{"pageContext":{"totalCount":7,"pageCount":2,"pageIndex":0,"feedType":"tag","feedId":"库","feedPageMeta":{"current":0,"next":1,"nextCount":2,"posts":[{"title":"vite-plugin-qiankun","description":"让qiankun框架支持vite的es特性的框架","coverImg":{"layout":"constrained","placeholder":{"fallback":"data:image/jpeg;base64,/9j/2wBDABALDA4MChAODQ4SERATGCgaGBYWGDEjJR0oOjM9PDkzODdASFxOQERXRTc4UG1RV19iZ2hnPk1xeXBkeFxlZ2P/2wBDARESEhgVGC8aGi9jQjhCY2NjY2NjY2NjY2NjY2NjY2NjY2NjY2NjY2NjY2NjY2NjY2NjY2NjY2NjY2NjY2NjY2P/wgARCAAKABQDASIAAhEBAxEB/8QAGAAAAgMAAAAAAAAAAAAAAAAAAAQBAgP/xAAWAQEBAQAAAAAAAAAAAAAAAAADAAT/2gAMAwEAAhADEAAAAbso6jqgCL//xAAaEAACAwEBAAAAAAAAAAAAAAAAAQIDERMh/9oACAEBAAEFAvE+2KVluoiNs//EABgRAAIDAAAAAAAAAAAAAAAAAAACESEx/9oACAEDAQE/AWyyT//EABQRAQAAAAAAAAAAAAAAAAAAABD/2gAIAQIBAT8BP//EABoQAAICAwAAAAAAAAAAAAAAAAACETEBEDL/2gAIAQEABj8CuSEXBy27P//EABsQAQABBQEAAAAAAAAAAAAAAAEAESExQXGR/9oACAEBAAE/IS0UxtSHhAmw+DMns2lRl7P/2gAMAwEAAgADAAAAEEMv/8QAFxEAAwEAAAAAAAAAAAAAAAAAAAFBIf/aAAgBAwEBPxBk6GYf/8QAFhEBAQEAAAAAAAAAAAAAAAAAARAh/9oACAECAQE/EA2f/8QAHRABAQACAQUAAAAAAAAAAAAAAREAIUFxgZGx8f/aAAgBAQABPxCqQEwCS1XxiHcDkQevOFdqLsesaSX4xs24MNqPdn//2Q=="},"backgroundColor":"transparent","images":{"fallback":{"src":"/leon-blog/static/c1ff24cf1a57db96025bbcec71e9035b/fff17/default_img5.jpg","srcSet":"/leon-blog/static/c1ff24cf1a57db96025bbcec71e9035b/9fa5a/default_img5.jpg 184w,\n/leon-blog/static/c1ff24cf1a57db96025bbcec71e9035b/63e75/default_img5.jpg 368w,\n/leon-blog/static/c1ff24cf1a57db96025bbcec71e9035b/fff17/default_img5.jpg 736w","sizes":"(min-width: 736px) 736px, 100vw"},"sources":[{"srcSet":"/leon-blog/static/c1ff24cf1a57db96025bbcec71e9035b/9d028/default_img5.avif 184w,\n/leon-blog/static/c1ff24cf1a57db96025bbcec71e9035b/c6ee4/default_img5.avif 368w,\n/leon-blog/static/c1ff24cf1a57db96025bbcec71e9035b/b4627/default_img5.avif 736w","type":"image/avif","sizes":"(min-width: 736px) 736px, 100vw"},{"srcSet":"/leon-blog/static/c1ff24cf1a57db96025bbcec71e9035b/ef27d/default_img5.webp 184w,\n/leon-blog/static/c1ff24cf1a57db96025bbcec71e9035b/4ae45/default_img5.webp 368w,\n/leon-blog/static/c1ff24cf1a57db96025bbcec71e9035b/20e6b/default_img5.webp 736w","type":"image/webp","sizes":"(min-width: 736px) 736px, 100vw"}]},"width":736,"height":368},"coverImageAlt":"封面","datePublished":"2022-09-02T03:38:19.000Z","dateModified":"2022-09-02T03:38:19.000Z","category":"框架工具","tags":["前端","库","微前端","Vite","开源"],"excerpt":"vite-plugin-qiankun是用于vite构建的微应用，想要接入qiankun时，需要引入该插件。 github仓库： https://github.com/missmess/vite-plugin-qiankun/tree/feature/support-prod…","timeToRead":1,"slug":"/vite-plugin-qiankun","route":"/vite-plugin-qiankun","pathName":"/leon-blog/vite-plugin-qiankun","url":"https://miss2mess.github.io/leon-blog/vite-plugin-qiankun"},{"title":"FaceRecognition【在框识别】","description":"学生人脸在框识别","coverImg":{"layout":"constrained","placeholder":{"fallback":"data:image/jpeg;base64,/9j/2wBDABALDA4MChAODQ4SERATGCgaGBYWGDEjJR0oOjM9PDkzODdASFxOQERXRTc4UG1RV19iZ2hnPk1xeXBkeFxlZ2P/2wBDARESEhgVGC8aGi9jQjhCY2NjY2NjY2NjY2NjY2NjY2NjY2NjY2NjY2NjY2NjY2NjY2NjY2NjY2NjY2NjY2NjY2P/wgARCAAKABQDASIAAhEBAxEB/8QAGAAAAwEBAAAAAAAAAAAAAAAAAAEEAgP/xAAVAQEBAAAAAAAAAAAAAAAAAAABAv/aAAwDAQACEAMQAAAB7PEbNYgr/8QAHBAAAQMFAAAAAAAAAAAAAAAAAgEDBBIhJDIz/9oACAEBAAEFAo41RAHLdscXg8So+e3/xAAUEQEAAAAAAAAAAAAAAAAAAAAQ/9oACAEDAQE/AT//xAAVEQEBAAAAAAAAAAAAAAAAAAABEP/aAAgBAgEBPwEn/8QAHhAAAgEDBQAAAAAAAAAAAAAAABEBAhASISIxYYH/2gAIAQEABj8CXRtSx1RJ4UKZ4t//xAAaEAEAAgMBAAAAAAAAAAAAAAABABEhMUHB/9oACAEBAAE/IaY7fUIwGw5SgqYkOeo2Cw0zbP/aAAwDAQACAAMAAAAQBw//xAAWEQADAAAAAAAAAAAAAAAAAAABEDH/2gAIAQMBAT8QNX//xAAWEQADAAAAAAAAAAAAAAAAAAABEDH/2gAIAQIBAT8Qgr//xAAeEAEBAAIBBQEAAAAAAAAAAAABEQAxkSFBYXGhsf/aAAgBAQABPxClYovjb5cDBoEoiCPLOcYxLHoXtiCIkI+8WkpqpveNbt1+Gf/Z"},"backgroundColor":"transparent","images":{"fallback":{"src":"/leon-blog/static/72a1e242d7dd5448328bf3383e71cfd6/3023c/facerecog_cover.jpg","srcSet":"/leon-blog/static/72a1e242d7dd5448328bf3383e71cfd6/47ac4/facerecog_cover.jpg 181w,\n/leon-blog/static/72a1e242d7dd5448328bf3383e71cfd6/6fbf8/facerecog_cover.jpg 362w,\n/leon-blog/static/72a1e242d7dd5448328bf3383e71cfd6/3023c/facerecog_cover.jpg 724w","sizes":"(min-width: 724px) 724px, 100vw"},"sources":[{"srcSet":"/leon-blog/static/72a1e242d7dd5448328bf3383e71cfd6/f6551/facerecog_cover.avif 181w,\n/leon-blog/static/72a1e242d7dd5448328bf3383e71cfd6/48f1e/facerecog_cover.avif 362w,\n/leon-blog/static/72a1e242d7dd5448328bf3383e71cfd6/a8935/facerecog_cover.avif 724w","type":"image/avif","sizes":"(min-width: 724px) 724px, 100vw"},{"srcSet":"/leon-blog/static/72a1e242d7dd5448328bf3383e71cfd6/f7f9f/facerecog_cover.webp 181w,\n/leon-blog/static/72a1e242d7dd5448328bf3383e71cfd6/283c9/facerecog_cover.webp 362w,\n/leon-blog/static/72a1e242d7dd5448328bf3383e71cfd6/e79f8/facerecog_cover.webp 724w","type":"image/webp","sizes":"(min-width: 724px) 724px, 100vw"}]},"width":724,"height":368},"coverImageAlt":"封面","datePublished":"2020-10-09T09:05:11.000Z","dateModified":"2020-10-09T09:05:11.000Z","category":"框架工具","tags":["Android端","kotlin","AI","库","图像处理"],"excerpt":"识别图片中是否包含正面面对屏幕的人脸。 技术实现 kotlin开发android library opencv处理图片，转矩阵/转换颜色空间等 mtcnn模型pnet、rnet、onet依次预测，nms后处理 返回结果boxes 利用aspectj…","timeToRead":1,"slug":"/face-recognition【在框识别】","route":"/face-recognition【在框识别】","pathName":"/leon-blog/face-recognition【在框识别】","url":"https://miss2mess.github.io/leon-blog/face-recognition【在框识别】"},{"title":"优优小班-日志sdk","description":"用于优优小班的app内日志上传","coverImg":{"layout":"constrained","placeholder":{"fallback":"data:image/jpeg;base64,/9j/2wBDABALDA4MChAODQ4SERATGCgaGBYWGDEjJR0oOjM9PDkzODdASFxOQERXRTc4UG1RV19iZ2hnPk1xeXBkeFxlZ2P/2wBDARESEhgVGC8aGi9jQjhCY2NjY2NjY2NjY2NjY2NjY2NjY2NjY2NjY2NjY2NjY2NjY2NjY2NjY2NjY2NjY2NjY2P/wgARCAAKABQDASIAAhEBAxEB/8QAGAAAAgMAAAAAAAAAAAAAAAAAAAECAwX/xAAUAQEAAAAAAAAAAAAAAAAAAAAB/9oADAMBAAIQAxAAAAHJakCLBf/EABYQAAMAAAAAAAAAAAAAAAAAAAARIP/aAAgBAQABBQKUf//EABQRAQAAAAAAAAAAAAAAAAAAABD/2gAIAQMBAT8BP//EABQRAQAAAAAAAAAAAAAAAAAAABD/2gAIAQIBAT8BP//EABQQAQAAAAAAAAAAAAAAAAAAACD/2gAIAQEABj8CX//EABkQAAIDAQAAAAAAAAAAAAAAABBBAAERUf/aAAgBAQABPyFljHKn/9oADAMBAAIAAwAAABDPD//EABQRAQAAAAAAAAAAAAAAAAAAABD/2gAIAQMBAT8QP//EABURAQEAAAAAAAAAAAAAAAAAAAEQ/9oACAECAQE/ECf/xAAdEAACAQUBAQAAAAAAAAAAAAAAASExQVGBkWFx/9oACAEBAAE/EEoRfBbeCfeJCo+ipoTVPI//2Q=="},"backgroundColor":"transparent","images":{"fallback":{"src":"/leon-blog/static/fcfa9c1e84a0c2f547c59e039008a322/d86fc/bmlog.jpg","srcSet":"/leon-blog/static/fcfa9c1e84a0c2f547c59e039008a322/f79c9/bmlog.jpg 150w,\n/leon-blog/static/fcfa9c1e84a0c2f547c59e039008a322/97f4b/bmlog.jpg 300w,\n/leon-blog/static/fcfa9c1e84a0c2f547c59e039008a322/d86fc/bmlog.jpg 600w","sizes":"(min-width: 600px) 600px, 100vw"},"sources":[{"srcSet":"/leon-blog/static/fcfa9c1e84a0c2f547c59e039008a322/5d94b/bmlog.avif 150w,\n/leon-blog/static/fcfa9c1e84a0c2f547c59e039008a322/33d17/bmlog.avif 300w,\n/leon-blog/static/fcfa9c1e84a0c2f547c59e039008a322/509fc/bmlog.avif 600w","type":"image/avif","sizes":"(min-width: 600px) 600px, 100vw"},{"srcSet":"/leon-blog/static/fcfa9c1e84a0c2f547c59e039008a322/30e85/bmlog.webp 150w,\n/leon-blog/static/fcfa9c1e84a0c2f547c59e039008a322/60d3f/bmlog.webp 300w,\n/leon-blog/static/fcfa9c1e84a0c2f547c59e039008a322/0534a/bmlog.webp 600w","type":"image/webp","sizes":"(min-width: 600px) 600px, 100vw"}]},"width":600,"height":300},"coverImageAlt":"封面","datePublished":"2020-05-08T05:02:01.000Z","dateModified":"2020-05-08T05:02:01.000Z","category":"框架工具","tags":["Android端","Java","iOS端","Hybrid","库","架构"],"excerpt":"用于优优小班课app内的日志收集及上报。 架构 Android和iOS原生开发日志sdk。sdk实现功能大概列为： 日志sdk设计为单例模式。 支持字符串、文件、图片上报。 字符串支持tag和日志内容，自动追加时间戳和基础信息。字符串也会写入文件。 日志设计为三级缓存： a…","timeToRead":1,"slug":"/优优小班-日志sdk","route":"/优优小班-日志sdk","pathName":"/leon-blog/优优小班-日志sdk","url":"https://miss2mess.github.io/leon-blog/优优小班-日志sdk"},{"title":"优优小班-AI信令sdk","description":"优优小班AI课信令驱动sdk","coverImg":{"layout":"constrained","placeholder":{"fallback":"data:image/jpeg;base64,/9j/2wBDABALDA4MChAODQ4SERATGCgaGBYWGDEjJR0oOjM9PDkzODdASFxOQERXRTc4UG1RV19iZ2hnPk1xeXBkeFxlZ2P/2wBDARESEhgVGC8aGi9jQjhCY2NjY2NjY2NjY2NjY2NjY2NjY2NjY2NjY2NjY2NjY2NjY2NjY2NjY2NjY2NjY2NjY2P/wgARCAAKABQDASIAAhEBAxEB/8QAFwABAQEBAAAAAAAAAAAAAAAAAAMCBP/EABUBAQEAAAAAAAAAAAAAAAAAAAEC/9oADAMBAAIQAxAAAAHjvCkybD//xAAbEAABBAMAAAAAAAAAAAAAAAABAAIDMhARQf/aAAgBAQABBQLuzIhiO7r/AP/EABQRAQAAAAAAAAAAAAAAAAAAABD/2gAIAQMBAT8BP//EABURAQEAAAAAAAAAAAAAAAAAAAEQ/9oACAECAQE/AWf/xAAaEAACAgMAAAAAAAAAAAAAAAAAAQIQESFx/9oACAEBAAY/AjG3aJdP/8QAGhABAAMAAwAAAAAAAAAAAAAAAQARMRBBYf/aAAgBAQABPyF1FYVOrAgqz2OvID//2gAMAwEAAgADAAAAEOg//8QAFxEAAwEAAAAAAAAAAAAAAAAAAAERMf/aAAgBAwEBPxBbCQ//xAAYEQADAQEAAAAAAAAAAAAAAAAAAREhMf/aAAgBAgEBPxDjBOqn/8QAGhABAAMBAQEAAAAAAAAAAAAAAQARITGhkf/aAAgBAQABPxCmnL2G9OgA+TphqlnGexnrqEDMBAT/2Q=="},"backgroundColor":"transparent","images":{"fallback":{"src":"/leon-blog/static/1c8778720ca8941d9864cabf000093c0/1a18e/aisdk_cover.jpg","srcSet":"/leon-blog/static/1c8778720ca8941d9864cabf000093c0/38847/aisdk_cover.jpg 185w,\n/leon-blog/static/1c8778720ca8941d9864cabf000093c0/0b64e/aisdk_cover.jpg 369w,\n/leon-blog/static/1c8778720ca8941d9864cabf000093c0/1a18e/aisdk_cover.jpg 738w","sizes":"(min-width: 738px) 738px, 100vw"},"sources":[{"srcSet":"/leon-blog/static/1c8778720ca8941d9864cabf000093c0/e48a9/aisdk_cover.avif 185w,\n/leon-blog/static/1c8778720ca8941d9864cabf000093c0/6964f/aisdk_cover.avif 369w,\n/leon-blog/static/1c8778720ca8941d9864cabf000093c0/09253/aisdk_cover.avif 738w","type":"image/avif","sizes":"(min-width: 738px) 738px, 100vw"},{"srcSet":"/leon-blog/static/1c8778720ca8941d9864cabf000093c0/3edfa/aisdk_cover.webp 185w,\n/leon-blog/static/1c8778720ca8941d9864cabf000093c0/696e0/aisdk_cover.webp 369w,\n/leon-blog/static/1c8778720ca8941d9864cabf000093c0/b1703/aisdk_cover.webp 738w","type":"image/webp","sizes":"(min-width: 738px) 738px, 100vw"}]},"width":738,"height":368},"coverImageAlt":"封面","datePublished":"2020-03-27T12:05:31.000Z","dateModified":"2020-03-27T12:05:31.000Z","category":"应用项目","tags":["跨平台","Flutter","dart","库","架构"],"excerpt":"类直播课的AI课形式，收集到素材课（直播课）的全部信令。通过本AI信令sdk，驱动信令的执行，来演绎回放AI课。 为什么需要？ 一期的AI课走的是server端回放模式，AI课堂上的信令都是从服务端通过websocket…","timeToRead":1,"slug":"/优优小班-a-i信令sdk","route":"/优优小班-a-i信令sdk","pathName":"/leon-blog/优优小班-a-i信令sdk","url":"https://miss2mess.github.io/leon-blog/优优小班-a-i信令sdk"},{"title":"点名识别","description":"大数据部-课堂老师提取音频，speech-to-text，拼音模糊音匹配算法","coverImg":{"layout":"constrained","placeholder":{"fallback":"data:image/jpeg;base64,/9j/2wBDABALDA4MChAODQ4SERATGCgaGBYWGDEjJR0oOjM9PDkzODdASFxOQERXRTc4UG1RV19iZ2hnPk1xeXBkeFxlZ2P/2wBDARESEhgVGC8aGi9jQjhCY2NjY2NjY2NjY2NjY2NjY2NjY2NjY2NjY2NjY2NjY2NjY2NjY2NjY2NjY2NjY2NjY2P/wgARCAAKABQDASIAAhEBAxEB/8QAFwABAQEBAAAAAAAAAAAAAAAAAAECBP/EABUBAQEAAAAAAAAAAAAAAAAAAAEE/9oADAMBAAIQAxAAAAHruVc0Un//xAAZEAEAAgMAAAAAAAAAAAAAAAABAAIQISL/2gAIAQEAAQUCK8lIm8//xAAUEQEAAAAAAAAAAAAAAAAAAAAQ/9oACAEDAQE/AT//xAAVEQEBAAAAAAAAAAAAAAAAAAAQIf/aAAgBAgEBPwGn/8QAFxAAAwEAAAAAAAAAAAAAAAAAAAEgIf/aAAgBAQAGPwIWz//EABkQAAMAAwAAAAAAAAAAAAAAAAABESAhQf/aAAgBAQABPyGjPoh7RSELD//aAAwDAQACAAMAAAAQ8N//xAAXEQADAQAAAAAAAAAAAAAAAAABEBFR/9oACAEDAQE/EKMX/8QAFhEBAQEAAAAAAAAAAAAAAAAAAQBh/9oACAECAQE/EHULf//EAB0QAAICAQUAAAAAAAAAAAAAAAEhABEgMUFRofD/2gAIAQEAAT8QCRvVXC91FY3ClBmsIw//2Q=="},"backgroundColor":"transparent","images":{"fallback":{"src":"/leon-blog/static/79f898dd8bd8e2cec2e5330123914ee5/301eb/speech_cover.jpg","srcSet":"/leon-blog/static/79f898dd8bd8e2cec2e5330123914ee5/d2c77/speech_cover.jpg 137w,\n/leon-blog/static/79f898dd8bd8e2cec2e5330123914ee5/9e829/speech_cover.jpg 273w,\n/leon-blog/static/79f898dd8bd8e2cec2e5330123914ee5/301eb/speech_cover.jpg 546w","sizes":"(min-width: 546px) 546px, 100vw"},"sources":[{"srcSet":"/leon-blog/static/79f898dd8bd8e2cec2e5330123914ee5/6d865/speech_cover.avif 137w,\n/leon-blog/static/79f898dd8bd8e2cec2e5330123914ee5/09d0f/speech_cover.avif 273w,\n/leon-blog/static/79f898dd8bd8e2cec2e5330123914ee5/4cad8/speech_cover.avif 546w","type":"image/avif","sizes":"(min-width: 546px) 546px, 100vw"},{"srcSet":"/leon-blog/static/79f898dd8bd8e2cec2e5330123914ee5/dfc78/speech_cover.webp 137w,\n/leon-blog/static/79f898dd8bd8e2cec2e5330123914ee5/5aa8e/speech_cover.webp 273w,\n/leon-blog/static/79f898dd8bd8e2cec2e5330123914ee5/24d43/speech_cover.webp 546w","type":"image/webp","sizes":"(min-width: 546px) 546px, 100vw"}]},"width":546,"height":274},"coverImageAlt":"封面","datePublished":"2019-01-15T23:33:04.000Z","dateModified":"2019-01-15T23:33:04.000Z","category":"框架工具","tags":["C++","脚本","语音处理","AI","库"],"excerpt":"点名识别使用课堂老师音频提取、切割转码、speech-to-text…","timeToRead":1,"slug":"/点名识别","route":"/点名识别","pathName":"/leon-blog/点名识别","url":"https://miss2mess.github.io/leon-blog/点名识别"}]}}},"staticQueryHashes":["2792541146","2845918323"]}