{"componentChunkName":"component---themes-amaranth-src-gatsby-theme-advanced-templates-feed-index-tsx","path":"/tag/微前端","result":{"pageContext":{"totalCount":6,"pageCount":2,"pageIndex":0,"feedType":"tag","feedId":"微前端","feedPageMeta":{"current":0,"next":1,"nextCount":1,"posts":[{"title":"一文详解前端工程化基础架构","description":"详细介绍完整的前端工程化建设所包含的工具、模块、框架、库","coverImg":{"layout":"constrained","placeholder":{"fallback":"data:image/jpeg;base64,/9j/2wBDABALDA4MChAODQ4SERATGCgaGBYWGDEjJR0oOjM9PDkzODdASFxOQERXRTc4UG1RV19iZ2hnPk1xeXBkeFxlZ2P/2wBDARESEhgVGC8aGi9jQjhCY2NjY2NjY2NjY2NjY2NjY2NjY2NjY2NjY2NjY2NjY2NjY2NjY2NjY2NjY2NjY2NjY2P/wgARCAAKABQDASIAAhEBAxEB/8QAFwABAAMAAAAAAAAAAAAAAAAAAAECBf/EABUBAQEAAAAAAAAAAAAAAAAAAAAB/9oADAMBAAIQAxAAAAHbIqwj/8QAFBABAAAAAAAAAAAAAAAAAAAAIP/aAAgBAQABBQJf/8QAFBEBAAAAAAAAAAAAAAAAAAAAEP/aAAgBAwEBPwE//8QAFBEBAAAAAAAAAAAAAAAAAAAAEP/aAAgBAgEBPwE//8QAFBABAAAAAAAAAAAAAAAAAAAAIP/aAAgBAQAGPwJf/8QAFxAAAwEAAAAAAAAAAAAAAAAAAAEREP/aAAgBAQABPyGEQtR//9oADAMBAAIAAwAAABCXP//EABYRAAMAAAAAAAAAAAAAAAAAAAEQEf/aAAgBAwEBPxCBf//EABcRAAMBAAAAAAAAAAAAAAAAAAABEVH/2gAIAQIBAT8Qj0j0/8QAHBAAAgICAwAAAAAAAAAAAAAAAAERMSGRQXHh/9oACAEBAAE/EGk8bOjYqj0aWRpTRQ//2Q=="},"backgroundColor":"transparent","images":{"fallback":{"src":"/leon-blog/static/a0de84897a621c2f46fec7062a4747f7/fff17/fe_infra.jpg","srcSet":"/leon-blog/static/a0de84897a621c2f46fec7062a4747f7/9fa5a/fe_infra.jpg 184w,\n/leon-blog/static/a0de84897a621c2f46fec7062a4747f7/63e75/fe_infra.jpg 368w,\n/leon-blog/static/a0de84897a621c2f46fec7062a4747f7/fff17/fe_infra.jpg 736w","sizes":"(min-width: 736px) 736px, 100vw"},"sources":[{"srcSet":"/leon-blog/static/a0de84897a621c2f46fec7062a4747f7/9d028/fe_infra.avif 184w,\n/leon-blog/static/a0de84897a621c2f46fec7062a4747f7/c6ee4/fe_infra.avif 368w,\n/leon-blog/static/a0de84897a621c2f46fec7062a4747f7/b4627/fe_infra.avif 736w","type":"image/avif","sizes":"(min-width: 736px) 736px, 100vw"},{"srcSet":"/leon-blog/static/a0de84897a621c2f46fec7062a4747f7/ef27d/fe_infra.webp 184w,\n/leon-blog/static/a0de84897a621c2f46fec7062a4747f7/4ae45/fe_infra.webp 368w,\n/leon-blog/static/a0de84897a621c2f46fec7062a4747f7/20e6b/fe_infra.webp 736w","type":"image/webp","sizes":"(min-width: 736px) 736px, 100vw"}]},"width":736,"height":368},"coverImageAlt":"封面","datePublished":"2023-01-10T22:20:40.000Z","dateModified":"2023-01-10T22:20:40.000Z","category":"经验总结","tags":["前端","架构","微前端","低代码","模块联邦","组件化"],"excerpt":"…","timeToRead":2,"slug":"/fe-infra","route":"/fe-infra","pathName":"/leon-blog/fe-infra","url":"https://missmess.github.io/leon-blog/fe-infra"},{"title":"dmp作业开发后台","description":"理想汽车大数据作业开发平台","coverImg":{"layout":"constrained","placeholder":{"fallback":"data:image/jpeg;base64,/9j/2wBDABALDA4MChAODQ4SERATGCgaGBYWGDEjJR0oOjM9PDkzODdASFxOQERXRTc4UG1RV19iZ2hnPk1xeXBkeFxlZ2P/2wBDARESEhgVGC8aGi9jQjhCY2NjY2NjY2NjY2NjY2NjY2NjY2NjY2NjY2NjY2NjY2NjY2NjY2NjY2NjY2NjY2NjY2P/wgARCAAKABQDASIAAhEBAxEB/8QAFgABAQEAAAAAAAAAAAAAAAAAAAQF/8QAFQEBAQAAAAAAAAAAAAAAAAAAAAH/2gAMAwEAAhADEAAAAdVSQF//xAAXEAADAQAAAAAAAAAAAAAAAAABAgMg/9oACAEBAAEFArGiqlgwx//EABQRAQAAAAAAAAAAAAAAAAAAABD/2gAIAQMBAT8BP//EABQRAQAAAAAAAAAAAAAAAAAAABD/2gAIAQIBAT8BP//EABsQAAEEAwAAAAAAAAAAAAAAAAEAAxEgITGB/9oACAEBAAY/ApbytEcr/8QAGhAAAgIDAAAAAAAAAAAAAAAAAREAICExYf/aAAgBAQABPyFbgmwniMXcDV//2gAMAwEAAgADAAAAEITP/8QAFhEAAwAAAAAAAAAAAAAAAAAAEBEh/9oACAEDAQE/EFR//8QAFBEBAAAAAAAAAAAAAAAAAAAAEP/aAAgBAgEBPxA//8QAGhABAQACAwAAAAAAAAAAAAAAAREQUQAhwf/aAAgBAQABPxAy0ffR2ORWKCYj6ZF3j//Z"},"backgroundColor":"transparent","images":{"fallback":{"src":"/leon-blog/static/0b0799d7ce078d63ad3028f0e7bee7fa/772ab/dmp.jpg","srcSet":"/leon-blog/static/0b0799d7ce078d63ad3028f0e7bee7fa/08ce2/dmp.jpg 110w,\n/leon-blog/static/0b0799d7ce078d63ad3028f0e7bee7fa/dc133/dmp.jpg 219w,\n/leon-blog/static/0b0799d7ce078d63ad3028f0e7bee7fa/772ab/dmp.jpg 438w","sizes":"(min-width: 438px) 438px, 100vw"},"sources":[{"srcSet":"/leon-blog/static/0b0799d7ce078d63ad3028f0e7bee7fa/e00b2/dmp.avif 110w,\n/leon-blog/static/0b0799d7ce078d63ad3028f0e7bee7fa/5e27a/dmp.avif 219w,\n/leon-blog/static/0b0799d7ce078d63ad3028f0e7bee7fa/0c327/dmp.avif 438w","type":"image/avif","sizes":"(min-width: 438px) 438px, 100vw"},{"srcSet":"/leon-blog/static/0b0799d7ce078d63ad3028f0e7bee7fa/42796/dmp.webp 110w,\n/leon-blog/static/0b0799d7ce078d63ad3028f0e7bee7fa/b261e/dmp.webp 219w,\n/leon-blog/static/0b0799d7ce078d63ad3028f0e7bee7fa/e47f1/dmp.webp 438w","type":"image/webp","sizes":"(min-width: 438px) 438px, 100vw"}]},"width":438,"height":220},"coverImageAlt":"封面","datePublished":"2023-01-09T08:44:38.000Z","dateModified":"2023-01-09T08:44:38.000Z","category":"应用项目","tags":["前端","React","微前端","模块联邦"],"excerpt":"理想汽车大数据作业开发平台，目标用户是大数据工程师，通过在线编辑sparksql、hive等作业的代码，参与到后续的调度等流程中。 主要功能 支持sparksql、hive、shell、sparkJar…","timeToRead":1,"slug":"/dmp作业开发后台","route":"/dmp作业开发后台","pathName":"/leon-blog/dmp作业开发后台","url":"https://missmess.github.io/leon-blog/dmp作业开发后台"},{"title":"vite-plugin-qiankun","description":"让qiankun框架支持vite的es特性的框架","coverImg":{"layout":"constrained","placeholder":{"fallback":"data:image/jpeg;base64,/9j/2wBDABALDA4MChAODQ4SERATGCgaGBYWGDEjJR0oOjM9PDkzODdASFxOQERXRTc4UG1RV19iZ2hnPk1xeXBkeFxlZ2P/2wBDARESEhgVGC8aGi9jQjhCY2NjY2NjY2NjY2NjY2NjY2NjY2NjY2NjY2NjY2NjY2NjY2NjY2NjY2NjY2NjY2NjY2P/wgARCAAKABQDASIAAhEBAxEB/8QAGAAAAwEBAAAAAAAAAAAAAAAAAAEEAgP/xAAWAQEBAQAAAAAAAAAAAAAAAAADAAT/2gAMAwEAAhADEAAAAd0w9R1IRF//xAAaEAACAwEBAAAAAAAAAAAAAAAAAQIDERMh/9oACAEBAAEFAvE+2KVluoiNs//EABgRAAIDAAAAAAAAAAAAAAAAAAACESEx/9oACAEDAQE/AWyyT//EABQRAQAAAAAAAAAAAAAAAAAAABD/2gAIAQIBAT8BP//EABoQAAICAwAAAAAAAAAAAAAAAAACETEBEDL/2gAIAQEABj8CuSEXBy27P//EABwQAQABBQEBAAAAAAAAAAAAAAEAESExQXGBkf/aAAgBAQABPyEtFMbUgvECbB4MyezaVWX2f//aAAwDAQACAAMAAAAQQ+//xAAXEQADAQAAAAAAAAAAAAAAAAAAAUEh/9oACAEDAQE/EGToZh//xAAWEQEBAQAAAAAAAAAAAAAAAAABEBH/2gAIAQIBAT8QB2f/xAAdEAEBAAIBBQAAAAAAAAAAAAABEQAhQXGBkbHx/9oACAEBAAE/EKpATAJLVfGA7gciD15wrtxdj1jSS/GNm3GF1Huz/9k="},"backgroundColor":"transparent","images":{"fallback":{"src":"/leon-blog/static/c1ff24cf1a57db96025bbcec71e9035b/fff17/default_img5.jpg","srcSet":"/leon-blog/static/c1ff24cf1a57db96025bbcec71e9035b/9fa5a/default_img5.jpg 184w,\n/leon-blog/static/c1ff24cf1a57db96025bbcec71e9035b/63e75/default_img5.jpg 368w,\n/leon-blog/static/c1ff24cf1a57db96025bbcec71e9035b/fff17/default_img5.jpg 736w","sizes":"(min-width: 736px) 736px, 100vw"},"sources":[{"srcSet":"/leon-blog/static/c1ff24cf1a57db96025bbcec71e9035b/9d028/default_img5.avif 184w,\n/leon-blog/static/c1ff24cf1a57db96025bbcec71e9035b/c6ee4/default_img5.avif 368w,\n/leon-blog/static/c1ff24cf1a57db96025bbcec71e9035b/b4627/default_img5.avif 736w","type":"image/avif","sizes":"(min-width: 736px) 736px, 100vw"},{"srcSet":"/leon-blog/static/c1ff24cf1a57db96025bbcec71e9035b/ef27d/default_img5.webp 184w,\n/leon-blog/static/c1ff24cf1a57db96025bbcec71e9035b/4ae45/default_img5.webp 368w,\n/leon-blog/static/c1ff24cf1a57db96025bbcec71e9035b/20e6b/default_img5.webp 736w","type":"image/webp","sizes":"(min-width: 736px) 736px, 100vw"}]},"width":736,"height":368},"coverImageAlt":"封面","datePublished":"2022-09-02T11:38:19.000Z","dateModified":"2022-09-02T11:38:19.000Z","category":"框架工具","tags":["前端","库","微前端","Vite","开源"],"excerpt":"vite-plugin-qiankun是用于vite构建的微应用，想要接入qiankun时，需要引入该插件。 github仓库： https://github.com/missmess/vite-plugin-qiankun/tree/feature/support-prod…","timeToRead":1,"slug":"/vite-plugin-qiankun","route":"/vite-plugin-qiankun","pathName":"/leon-blog/vite-plugin-qiankun","url":"https://missmess.github.io/leon-blog/vite-plugin-qiankun"},{"title":"【造轮子】qiankun详解和手写","description":"介绍一下qiankun解决微前端难题的方法，以及qiankun造轮子","coverImg":{"layout":"constrained","placeholder":{"fallback":"data:image/jpeg;base64,/9j/2wBDABALDA4MChAODQ4SERATGCgaGBYWGDEjJR0oOjM9PDkzODdASFxOQERXRTc4UG1RV19iZ2hnPk1xeXBkeFxlZ2P/2wBDARESEhgVGC8aGi9jQjhCY2NjY2NjY2NjY2NjY2NjY2NjY2NjY2NjY2NjY2NjY2NjY2NjY2NjY2NjY2NjY2NjY2P/wgARCAAKABQDASIAAhEBAxEB/8QAGAAAAwEBAAAAAAAAAAAAAAAAAAQFAQP/xAAWAQEBAQAAAAAAAAAAAAAAAAADAQL/2gAMAwEAAhADEAAAAZdHtgMuNGL/AP/EABwQAAEDBQAAAAAAAAAAAAAAAAIAATIDERIUMf/aAAgBAQABBQLArjSEQ1hTxeI8/8QAGBEAAgMAAAAAAAAAAAAAAAAAAAECERL/2gAIAQMBAT8BUaZlH//EABoRAAICAwAAAAAAAAAAAAAAAAACAQMTIVH/2gAIAQIBAT8Ba2W0ZH6f/8QAGRABAAIDAAAAAAAAAAAAAAAAAQAgITFh/9oACAEBAAY/AtM6zK0//8QAGRAAAwEBAQAAAAAAAAAAAAAAAAExEUFh/9oACAEBAAE/IZJDvq228FyXhEdtNfCJ/9oADAMBAAIAAwAAABBHz//EABcRAQADAAAAAAAAAAAAAAAAAAABEWH/2gAIAQMBAT8QhuZv/8QAFhEAAwAAAAAAAAAAAAAAAAAAARBB/9oACAECAQE/EBkKf//EABwQAQADAAIDAAAAAAAAAAAAAAEAESExQVFxgf/aAAgBAQABPxAFtuTReRKSuHdPBh9lRbRsFYTNfbLQHHLEt7ed+5//2Q=="},"backgroundColor":"transparent","images":{"fallback":{"src":"/leon-blog/static/1b638036549b6236251ed5e401e526ce/fff17/qiankun-cover.jpg","srcSet":"/leon-blog/static/1b638036549b6236251ed5e401e526ce/9fa5a/qiankun-cover.jpg 184w,\n/leon-blog/static/1b638036549b6236251ed5e401e526ce/63e75/qiankun-cover.jpg 368w,\n/leon-blog/static/1b638036549b6236251ed5e401e526ce/fff17/qiankun-cover.jpg 736w","sizes":"(min-width: 736px) 736px, 100vw"},"sources":[{"srcSet":"/leon-blog/static/1b638036549b6236251ed5e401e526ce/9d028/qiankun-cover.avif 184w,\n/leon-blog/static/1b638036549b6236251ed5e401e526ce/c6ee4/qiankun-cover.avif 368w,\n/leon-blog/static/1b638036549b6236251ed5e401e526ce/b4627/qiankun-cover.avif 736w","type":"image/avif","sizes":"(min-width: 736px) 736px, 100vw"},{"srcSet":"/leon-blog/static/1b638036549b6236251ed5e401e526ce/ef27d/qiankun-cover.webp 184w,\n/leon-blog/static/1b638036549b6236251ed5e401e526ce/4ae45/qiankun-cover.webp 368w,\n/leon-blog/static/1b638036549b6236251ed5e401e526ce/20e6b/qiankun-cover.webp 736w","type":"image/webp","sizes":"(min-width: 736px) 736px, 100vw"}]},"width":736,"height":368},"coverImageAlt":"封面","datePublished":"2022-07-29T22:23:40.000Z","dateModified":"2022-07-29T22:23:40.000Z","category":"经验总结","tags":["前端","微前端","造轮子"],"excerpt":"说到微前端，现在最火的方案就是 qiankun 。qiankun的特点是易用性和完备性很高。说白了就是能很方便、快速的接入，同时bug少，功能强大。 介绍 分析qiankun原理 自己造一个qiankun…","timeToRead":1,"slug":"/qiankun-demo","route":"/qiankun-demo","pathName":"/leon-blog/qiankun-demo","url":"https://missmess.github.io/leon-blog/qiankun-demo"},{"title":"Limesh开放平台","description":"理想汽车Limesh开发者开放平台","coverImg":{"layout":"constrained","placeholder":{"fallback":"data:image/jpeg;base64,/9j/2wBDABALDA4MChAODQ4SERATGCgaGBYWGDEjJR0oOjM9PDkzODdASFxOQERXRTc4UG1RV19iZ2hnPk1xeXBkeFxlZ2P/2wBDARESEhgVGC8aGi9jQjhCY2NjY2NjY2NjY2NjY2NjY2NjY2NjY2NjY2NjY2NjY2NjY2NjY2NjY2NjY2NjY2NjY2P/wgARCAAKABQDASIAAhEBAxEB/8QAGAAAAgMAAAAAAAAAAAAAAAAAAAECAwX/xAAUAQEAAAAAAAAAAAAAAAAAAAAA/9oADAMBAAIQAxAAAAHejYCGH//EABcQAQADAAAAAAAAAAAAAAAAAAEAESD/2gAIAQEAAQUCZbn/xAAUEQEAAAAAAAAAAAAAAAAAAAAQ/9oACAEDAQE/AT//xAAUEQEAAAAAAAAAAAAAAAAAAAAQ/9oACAECAQE/AT//xAAWEAADAAAAAAAAAAAAAAAAAAAAIDL/2gAIAQEABj8CJX//xAAbEAEAAAcAAAAAAAAAAAAAAAABABEgITFRcf/aAAgBAQABPyFJgnF3TtP/2gAMAwEAAgADAAAAEMMP/8QAFBEBAAAAAAAAAAAAAAAAAAAAEP/aAAgBAwEBPxA//8QAFBEBAAAAAAAAAAAAAAAAAAAAEP/aAAgBAgEBPxA//8QAGBABAQEBAQAAAAAAAAAAAAAAARFRACD/2gAIAQEAAT8QArvLOHAs1Pn/2Q=="},"backgroundColor":"transparent","images":{"fallback":{"src":"/leon-blog/static/a5a51e8f64680c45b382ac033d1300f3/107f2/limesh_cover.jpg","srcSet":"/leon-blog/static/a5a51e8f64680c45b382ac033d1300f3/09c6f/limesh_cover.jpg 134w,\n/leon-blog/static/a5a51e8f64680c45b382ac033d1300f3/8fe70/limesh_cover.jpg 267w,\n/leon-blog/static/a5a51e8f64680c45b382ac033d1300f3/107f2/limesh_cover.jpg 534w","sizes":"(min-width: 534px) 534px, 100vw"},"sources":[{"srcSet":"/leon-blog/static/a5a51e8f64680c45b382ac033d1300f3/2519c/limesh_cover.avif 134w,\n/leon-blog/static/a5a51e8f64680c45b382ac033d1300f3/648b3/limesh_cover.avif 267w,\n/leon-blog/static/a5a51e8f64680c45b382ac033d1300f3/ce20a/limesh_cover.avif 534w","type":"image/avif","sizes":"(min-width: 534px) 534px, 100vw"},{"srcSet":"/leon-blog/static/a5a51e8f64680c45b382ac033d1300f3/6b11c/limesh_cover.webp 134w,\n/leon-blog/static/a5a51e8f64680c45b382ac033d1300f3/217c6/limesh_cover.webp 267w,\n/leon-blog/static/a5a51e8f64680c45b382ac033d1300f3/3d4aa/limesh_cover.webp 534w","type":"image/webp","sizes":"(min-width: 534px) 534px, 100vw"}]},"width":534,"height":268},"coverImageAlt":"封面","datePublished":"2022-01-09T15:39:54.000Z","dateModified":"2022-01-09T15:39:54.000Z","category":"应用项目","tags":["前端","React","微前端","架构","Vite"],"excerpt":"Li-Mesh开放平台的目标用户是使用Li-Mesh的开发者，在开放平台注册自己的应用后。可以在自己的应用授权范围内，接入Li-Mesh，使用该应用去设置Li-Mesh…","timeToRead":1,"slug":"/limesh开放平台","route":"/limesh开放平台","pathName":"/leon-blog/limesh开放平台","url":"https://missmess.github.io/leon-blog/limesh开放平台"}]}}},"staticQueryHashes":["2792541146","2845918323"]}